%!PS-Adobe-3.0 EPSF-3.0
%%Creator: (MATLAB, The Mathworks, Inc. Version 8.5.0.197613 \(R2015a\). Operating System: Mac OS X)
%%Title: ./PODerror_control.eps
%%CreationDate: 2015-09-16T12:11:41
%%Pages: (atend)
%%BoundingBox: (atend)
%%LanguageLevel: 3
%%EndComments
%%BeginProlog
%%BeginResource: procset (Apache XML Graphics Std ProcSet) 1.2 0
%%Version: 1.2 0
%%Copyright: (Copyright 2001-2003,2010 The Apache Software Foundation. License terms: http://www.apache.org/licenses/LICENSE-2.0)
/bd{bind def}bind def
/ld{load def}bd
/GR/grestore ld
/M/moveto ld
/LJ/setlinejoin ld
/C/curveto ld
/f/fill ld
/LW/setlinewidth ld
/GC/setgray ld
/t/show ld
/N/newpath ld
/CT/concat ld
/cp/closepath ld
/S/stroke ld
/L/lineto ld
/CC/setcmykcolor ld
/A/ashow ld
/GS/gsave ld
/RC/setrgbcolor ld
/RM/rmoveto ld
/ML/setmiterlimit ld
/re {4 2 roll M
1 index 0 rlineto
0 exch rlineto
neg 0 rlineto
cp } bd
/_ctm matrix def
/_tm matrix def
/BT { _ctm currentmatrix pop matrix _tm copy pop 0 0 moveto } bd
/ET { _ctm setmatrix } bd
/iTm { _ctm setmatrix _tm concat } bd
/Tm { _tm astore pop iTm 0 0 moveto } bd
/ux 0.0 def
/uy 0.0 def
/F {
  /Tp exch def
  /Tf exch def
  Tf findfont Tp scalefont setfont
  /cf Tf def  /cs Tp def
} bd
/ULS {currentpoint /uy exch def /ux exch def} bd
/ULE {
  /Tcx currentpoint pop def
  gsave
  newpath
  cf findfont cs scalefont dup
  /FontMatrix get 0 get /Ts exch def /FontInfo get dup
  /UnderlinePosition get Ts mul /To exch def
  /UnderlineThickness get Ts mul /Tt exch def
  ux uy To add moveto  Tcx uy To add lineto
  Tt setlinewidth stroke
  grestore
} bd
/OLE {
  /Tcx currentpoint pop def
  gsave
  newpath
  cf findfont cs scalefont dup
  /FontMatrix get 0 get /Ts exch def /FontInfo get dup
  /UnderlinePosition get Ts mul /To exch def
  /UnderlineThickness get Ts mul /Tt exch def
  ux uy To add cs add moveto Tcx uy To add cs add lineto
  Tt setlinewidth stroke
  grestore
} bd
/SOE {
  /Tcx currentpoint pop def
  gsave
  newpath
  cf findfont cs scalefont dup
  /FontMatrix get 0 get /Ts exch def /FontInfo get dup
  /UnderlinePosition get Ts mul /To exch def
  /UnderlineThickness get Ts mul /Tt exch def
  ux uy To add cs 10 mul 26 idiv add moveto Tcx uy To add cs 10 mul 26 idiv add lineto
  Tt setlinewidth stroke
  grestore
} bd
/QT {
/Y22 exch store
/X22 exch store
/Y21 exch store
/X21 exch store
currentpoint
/Y21 load 2 mul add 3 div exch
/X21 load 2 mul add 3 div exch
/X21 load 2 mul /X22 load add 3 div
/Y21 load 2 mul /Y22 load add 3 div
/X22 load /Y22 load curveto
} bd
/SSPD {
dup length /d exch dict def
{
/v exch def
/k exch def
currentpagedevice k known {
/cpdv currentpagedevice k get def
v cpdv ne {
/upd false def
/nullv v type /nulltype eq def
/nullcpdv cpdv type /nulltype eq def
nullv nullcpdv or
{
/upd true def
} {
/sametype v type cpdv type eq def
sametype {
v type /arraytype eq {
/vlen v length def
/cpdvlen cpdv length def
vlen cpdvlen eq {
0 1 vlen 1 sub {
/i exch def
/obj v i get def
/cpdobj cpdv i get def
obj cpdobj ne {
/upd true def
exit
} if
} for
} {
/upd true def
} ifelse
} {
v type /dicttype eq {
v {
/dv exch def
/dk exch def
/cpddv cpdv dk get def
dv cpddv ne {
/upd true def
exit
} if
} forall
} {
/upd true def
} ifelse
} ifelse
} if
} ifelse
upd true eq {
d k v put
} if
} if
} if
} forall
d length 0 gt {
d setpagedevice
} if
} bd
%%EndResource
%%BeginResource: procset (Apache XML Graphics EPS ProcSet) 1.0 0
%%Version: 1.0 0
%%Copyright: (Copyright 2002-2003 The Apache Software Foundation. License terms: http://www.apache.org/licenses/LICENSE-2.0)
/BeginEPSF { %def
/b4_Inc_state save def         % Save state for cleanup
/dict_count countdictstack def % Count objects on dict stack
/op_count count 1 sub def      % Count objects on operand stack
userdict begin                 % Push userdict on dict stack
/showpage { } def              % Redefine showpage, { } = null proc
0 setgray 0 setlinecap         % Prepare graphics state
1 setlinewidth 0 setlinejoin
10 setmiterlimit [ ] 0 setdash newpath
/languagelevel where           % If level not equal to 1 then
{pop languagelevel             % set strokeadjust and
1 ne                           % overprint to their defaults.
{false setstrokeadjust false setoverprint
} if
} if
} bd
/EndEPSF { %def
count op_count sub {pop} repeat            % Clean up stacks
countdictstack dict_count sub {end} repeat
b4_Inc_state restore
} bd
%%EndResource
%FOPBeginFontDict
%%IncludeResource: font Courier-Bold
%%IncludeResource: font Helvetica
%%IncludeResource: font Courier-BoldOblique
%%IncludeResource: font Courier-Oblique
%%IncludeResource: font Times-Roman
%%IncludeResource: font Helvetica-BoldOblique
%%IncludeResource: font Helvetica-Bold
%%IncludeResource: font Helvetica-Oblique
%%IncludeResource: font Times-BoldItalic
%%IncludeResource: font Courier
%%IncludeResource: font Times-Italic
%%IncludeResource: font Times-Bold
%%IncludeResource: font Symbol
%%IncludeResource: font ZapfDingbats
%FOPEndFontDict
%%BeginResource: encoding WinAnsiEncoding
/WinAnsiEncoding [
/.notdef /.notdef /.notdef /.notdef /.notdef
/.notdef /.notdef /.notdef /.notdef /.notdef
/.notdef /.notdef /.notdef /.notdef /.notdef
/.notdef /.notdef /.notdef /.notdef /.notdef
/.notdef /.notdef /.notdef /.notdef /.notdef
/.notdef /.notdef /.notdef /.notdef /.notdef
/.notdef /.notdef /space /exclam /quotedbl
/numbersign /dollar /percent /ampersand /quotesingle
/parenleft /parenright /asterisk /plus /comma
/hyphen /period /slash /zero /one
/two /three /four /five /six
/seven /eight /nine /colon /semicolon
/less /equal /greater /question /at
/A /B /C /D /E
/F /G /H /I /J
/K /L /M /N /O
/P /Q /R /S /T
/U /V /W /X /Y
/Z /bracketleft /backslash /bracketright /asciicircum
/underscore /quoteleft /a /b /c
/d /e /f /g /h
/i /j /k /l /m
/n /o /p /q /r
/s /t /u /v /w
/x /y /z /braceleft /bar
/braceright /asciitilde /bullet /Euro /bullet
/quotesinglbase /florin /quotedblbase /ellipsis /dagger
/daggerdbl /circumflex /perthousand /Scaron /guilsinglleft
/OE /bullet /Zcaron /bullet /bullet
/quoteleft /quoteright /quotedblleft /quotedblright /bullet
/endash /emdash /asciitilde /trademark /scaron
/guilsinglright /oe /bullet /zcaron /Ydieresis
/space /exclamdown /cent /sterling /currency
/yen /brokenbar /section /dieresis /copyright
/ordfeminine /guillemotleft /logicalnot /sfthyphen /registered
/macron /degree /plusminus /twosuperior /threesuperior
/acute /mu /paragraph /middot /cedilla
/onesuperior /ordmasculine /guillemotright /onequarter /onehalf
/threequarters /questiondown /Agrave /Aacute /Acircumflex
/Atilde /Adieresis /Aring /AE /Ccedilla
/Egrave /Eacute /Ecircumflex /Edieresis /Igrave
/Iacute /Icircumflex /Idieresis /Eth /Ntilde
/Ograve /Oacute /Ocircumflex /Otilde /Odieresis
/multiply /Oslash /Ugrave /Uacute /Ucircumflex
/Udieresis /Yacute /Thorn /germandbls /agrave
/aacute /acircumflex /atilde /adieresis /aring
/ae /ccedilla /egrave /eacute /ecircumflex
/edieresis /igrave /iacute /icircumflex /idieresis
/eth /ntilde /ograve /oacute /ocircumflex
/otilde /odieresis /divide /oslash /ugrave
/uacute /ucircumflex /udieresis /yacute /thorn
/ydieresis
] def
%%EndResource
%FOPBeginFontReencode
/Courier-Bold findfont
dup length dict begin
  {1 index /FID ne {def} {pop pop} ifelse} forall
  /Encoding WinAnsiEncoding def
  currentdict
end
/Courier-Bold exch definefont pop
/Helvetica findfont
dup length dict begin
  {1 index /FID ne {def} {pop pop} ifelse} forall
  /Encoding WinAnsiEncoding def
  currentdict
end
/Helvetica exch definefont pop
/Courier-BoldOblique findfont
dup length dict begin
  {1 index /FID ne {def} {pop pop} ifelse} forall
  /Encoding WinAnsiEncoding def
  currentdict
end
/Courier-BoldOblique exch definefont pop
/Courier-Oblique findfont
dup length dict begin
  {1 index /FID ne {def} {pop pop} ifelse} forall
  /Encoding WinAnsiEncoding def
  currentdict
end
/Courier-Oblique exch definefont pop
/Times-Roman findfont
dup length dict begin
  {1 index /FID ne {def} {pop pop} ifelse} forall
  /Encoding WinAnsiEncoding def
  currentdict
end
/Times-Roman exch definefont pop
/Helvetica-BoldOblique findfont
dup length dict begin
  {1 index /FID ne {def} {pop pop} ifelse} forall
  /Encoding WinAnsiEncoding def
  currentdict
end
/Helvetica-BoldOblique exch definefont pop
/Helvetica-Bold findfont
dup length dict begin
  {1 index /FID ne {def} {pop pop} ifelse} forall
  /Encoding WinAnsiEncoding def
  currentdict
end
/Helvetica-Bold exch definefont pop
/Helvetica-Oblique findfont
dup length dict begin
  {1 index /FID ne {def} {pop pop} ifelse} forall
  /Encoding WinAnsiEncoding def
  currentdict
end
/Helvetica-Oblique exch definefont pop
/Times-BoldItalic findfont
dup length dict begin
  {1 index /FID ne {def} {pop pop} ifelse} forall
  /Encoding WinAnsiEncoding def
  currentdict
end
/Times-BoldItalic exch definefont pop
/Courier findfont
dup length dict begin
  {1 index /FID ne {def} {pop pop} ifelse} forall
  /Encoding WinAnsiEncoding def
  currentdict
end
/Courier exch definefont pop
/Times-Italic findfont
dup length dict begin
  {1 index /FID ne {def} {pop pop} ifelse} forall
  /Encoding WinAnsiEncoding def
  currentdict
end
/Times-Italic exch definefont pop
/Times-Bold findfont
dup length dict begin
  {1 index /FID ne {def} {pop pop} ifelse} forall
  /Encoding WinAnsiEncoding def
  currentdict
end
/Times-Bold exch definefont pop
%FOPEndFontReencode
%%EndProlog
%%Page: 1 1
%%PageBoundingBox: 0 0 576 432
%%BeginPageSetup
[1 0 0 -1 0 432] CT
%%EndPageSetup
GS
1 GC
N
0 0 576 432 re
f
GR
GS
1 GC
N
0 0 576 432 re
f
GR
GS
1 GC
N
75 384 M
521 384 L
521 32 L
75 32 L
cp
f
GR
GS
0.873 GC
2 setlinecap
10.0 ML
N
75 384 M
75 32 L
S
GR
GS
0.873 GC
2 setlinecap
10.0 ML
N
149.333 384 M
149.333 32 L
S
GR
GS
0.873 GC
2 setlinecap
10.0 ML
N
223.667 384 M
223.667 32 L
S
GR
GS
0.873 GC
2 setlinecap
10.0 ML
N
298 384 M
298 32 L
S
GR
GS
0.873 GC
2 setlinecap
10.0 ML
N
372.333 384 M
372.333 32 L
S
GR
GS
0.873 GC
2 setlinecap
10.0 ML
N
446.667 384 M
446.667 32 L
S
GR
GS
0.873 GC
2 setlinecap
10.0 ML
N
521 384 M
521 32 L
S
GR
GS
0.873 GC
2 setlinecap
10.0 ML
N
521 384 M
75 384 L
S
GR
GS
0.873 GC
2 setlinecap
10.0 ML
N
521 333.714 M
75 333.714 L
S
GR
GS
0.873 GC
2 setlinecap
10.0 ML
N
521 283.429 M
75 283.429 L
S
GR
GS
0.873 GC
2 setlinecap
10.0 ML
N
521 233.143 M
75 233.143 L
S
GR
GS
0.873 GC
2 setlinecap
10.0 ML
N
521 182.857 M
75 182.857 L
S
GR
GS
0.873 GC
2 setlinecap
10.0 ML
N
521 132.571 M
75 132.571 L
S
GR
GS
0.873 GC
2 setlinecap
10.0 ML
N
521 82.286 M
75 82.286 L
S
GR
GS
0.873 GC
2 setlinecap
10.0 ML
N
521 32 M
75 32 L
S
GR
GS
[1 0 0 1 298.00021 406] CT
0.149 GC
/Helvetica 17 F
GS
[1 0 0 1 0 0] CT
-82.5 14 moveto 
1 -1 scale
(POD-basis dimension) t 
GR
GR
GS
0.149 GC
2 setlinecap
10.0 ML
N
75 384 M
521 384 L
S
GR
GS
0.149 GC
2 setlinecap
10.0 ML
N
75 32 M
521 32 L
S
GR
GS
0.149 GC
2 setlinecap
10.0 ML
N
75 384 M
75 379.54 L
S
GR
GS
0.149 GC
2 setlinecap
10.0 ML
N
149.333 384 M
149.333 379.54 L
S
GR
GS
0.149 GC
2 setlinecap
10.0 ML
N
223.667 384 M
223.667 379.54 L
S
GR
GS
0.149 GC
2 setlinecap
10.0 ML
N
298 384 M
298 379.54 L
S
GR
GS
0.149 GC
2 setlinecap
10.0 ML
N
372.333 384 M
372.333 379.54 L
S
GR
GS
0.149 GC
2 setlinecap
10.0 ML
N
446.667 384 M
446.667 379.54 L
S
GR
GS
0.149 GC
2 setlinecap
10.0 ML
N
521 384 M
521 379.54 L
S
GR
GS
0.149 GC
2 setlinecap
10.0 ML
N
75 32 M
75 36.46 L
S
GR
GS
0.149 GC
2 setlinecap
10.0 ML
N
149.333 32 M
149.333 36.46 L
S
GR
GS
0.149 GC
2 setlinecap
10.0 ML
N
223.667 32 M
223.667 36.46 L
S
GR
GS
0.149 GC
2 setlinecap
10.0 ML
N
298 32 M
298 36.46 L
S
GR
GS
0.149 GC
2 setlinecap
10.0 ML
N
372.333 32 M
372.333 36.46 L
S
GR
GS
0.149 GC
2 setlinecap
10.0 ML
N
446.667 32 M
446.667 36.46 L
S
GR
GS
0.149 GC
2 setlinecap
10.0 ML
N
521 32 M
521 36.46 L
S
GR
GS
[1 0 0 1 75 389] CT
0.149 GC
/Helvetica 15 F
GS
[1 0 0 1 0 0] CT
-4.5 12 moveto 
1 -1 scale
(0) t 
GR
GR
GS
[1 0 0 1 149.33333 389] CT
0.149 GC
/Helvetica 15 F
GS
[1 0 0 1 0 0] CT
-8.5 12 moveto 
1 -1 scale
(20) t 
GR
GR
GS
[1 0 0 1 223.66667 389] CT
0.149 GC
/Helvetica 15 F
GS
[1 0 0 1 0 0] CT
-8.5 12 moveto 
1 -1 scale
(40) t 
GR
GR
GS
[1 0 0 1 298 389] CT
0.149 GC
/Helvetica 15 F
GS
[1 0 0 1 0 0] CT
-8.5 12 moveto 
1 -1 scale
(60) t 
GR
GR
GS
[1 0 0 1 372.33334 389] CT
0.149 GC
/Helvetica 15 F
GS
[1 0 0 1 0 0] CT
-8.5 12 moveto 
1 -1 scale
(80) t 
GR
GR
GS
[1 0 0 1 446.66666 389] CT
0.149 GC
/Helvetica 15 F
GS
[1 0 0 1 0 0] CT
-13 12 moveto 
1 -1 scale
(100) t 
GR
GR
GS
[1 0 0 1 521 389] CT
0.149 GC
/Helvetica 15 F
GS
[1 0 0 1 0 0] CT
-13 12 moveto 
1 -1 scale
(120) t 
GR
GR
GS
0.149 GC
2 setlinecap
10.0 ML
N
75 384 M
75 32 L
S
GR
GS
0.149 GC
2 setlinecap
10.0 ML
N
521 384 M
521 32 L
S
GR
GS
0.149 GC
2 setlinecap
10.0 ML
N
75 384 M
79.46 384 L
S
GR
GS
0.149 GC
2 setlinecap
10.0 ML
N
75 333.714 M
79.46 333.714 L
S
GR
GS
0.149 GC
2 setlinecap
10.0 ML
N
75 283.429 M
79.46 283.429 L
S
GR
GS
0.149 GC
2 setlinecap
10.0 ML
N
75 233.143 M
79.46 233.143 L
S
GR
GS
0.149 GC
2 setlinecap
10.0 ML
N
75 182.857 M
79.46 182.857 L
S
GR
GS
0.149 GC
2 setlinecap
10.0 ML
N
75 132.571 M
79.46 132.571 L
S
GR
GS
0.149 GC
2 setlinecap
10.0 ML
N
75 82.286 M
79.46 82.286 L
S
GR
GS
0.149 GC
2 setlinecap
10.0 ML
N
75 32 M
79.46 32 L
S
GR
GS
0.149 GC
2 setlinecap
10.0 ML
N
521 384 M
516.54 384 L
S
GR
GS
0.149 GC
2 setlinecap
10.0 ML
N
521 333.714 M
516.54 333.714 L
S
GR
GS
0.149 GC
2 setlinecap
10.0 ML
N
521 283.429 M
516.54 283.429 L
S
GR
GS
0.149 GC
2 setlinecap
10.0 ML
N
521 233.143 M
516.54 233.143 L
S
GR
GS
0.149 GC
2 setlinecap
10.0 ML
N
521 182.857 M
516.54 182.857 L
S
GR
GS
0.149 GC
2 setlinecap
10.0 ML
N
521 132.571 M
516.54 132.571 L
S
GR
GS
0.149 GC
2 setlinecap
10.0 ML
N
521 82.286 M
516.54 82.286 L
S
GR
GS
0.149 GC
2 setlinecap
10.0 ML
N
521 32 M
516.54 32 L
S
GR
GS
[1 0 0 1 35 391] CT
0.149 GC
/Helvetica 15 F
GS
[1 0 0 1 0 0] CT
0 0 moveto 
1 -1 scale
(10) t 
GR
GR
GS
[1 0 0 1 52 384] CT
0.149 GC
/Helvetica 12 F
GS
[1 0 0 1 0 0] CT
0 0 moveto 
1 -1 scale
(-12) t 
GR
GR
GS
[1 0 0 1 35 341] CT
0.149 GC
/Helvetica 15 F
GS
[1 0 0 1 0 0] CT
0 0 moveto 
1 -1 scale
(10) t 
GR
GR
GS
[1 0 0 1 52 334] CT
0.149 GC
/Helvetica 12 F
GS
[1 0 0 1 0 0] CT
0 0 moveto 
1 -1 scale
(-10) t 
GR
GR
GS
[1 0 0 1 42 290] CT
0.149 GC
/Helvetica 15 F
GS
[1 0 0 1 0 0] CT
0 0 moveto 
1 -1 scale
(10) t 
GR
GR
GS
[1 0 0 1 59 283] CT
0.149 GC
/Helvetica 12 F
GS
[1 0 0 1 0 0] CT
0 0 moveto 
1 -1 scale
(-8) t 
GR
GR
GS
[1 0 0 1 42 240] CT
0.149 GC
/Helvetica 15 F
GS
[1 0 0 1 0 0] CT
0 0 moveto 
1 -1 scale
(10) t 
GR
GR
GS
[1 0 0 1 59 233] CT
0.149 GC
/Helvetica 12 F
GS
[1 0 0 1 0 0] CT
0 0 moveto 
1 -1 scale
(-6) t 
GR
GR
GS
[1 0 0 1 42 190] CT
0.149 GC
/Helvetica 15 F
GS
[1 0 0 1 0 0] CT
0 0 moveto 
1 -1 scale
(10) t 
GR
GR
GS
[1 0 0 1 59 183] CT
0.149 GC
/Helvetica 12 F
GS
[1 0 0 1 0 0] CT
0 0 moveto 
1 -1 scale
(-4) t 
GR
GR
GS
[1 0 0 1 42 140] CT
0.149 GC
/Helvetica 15 F
GS
[1 0 0 1 0 0] CT
0 0 moveto 
1 -1 scale
(10) t 
GR
GR
GS
[1 0 0 1 59 133] CT
0.149 GC
/Helvetica 12 F
GS
[1 0 0 1 0 0] CT
0 0 moveto 
1 -1 scale
(-2) t 
GR
GR
GS
[1 0 0 1 46 89] CT
0.149 GC
/Helvetica 15 F
GS
[1 0 0 1 0 0] CT
0 0 moveto 
1 -1 scale
(10) t 
GR
GR
GS
[1 0 0 1 63 82] CT
0.149 GC
/Helvetica 12 F
GS
[1 0 0 1 0 0] CT
0 0 moveto 
1 -1 scale
(0) t 
GR
GR
GS
[1 0 0 1 46 39] CT
0.149 GC
/Helvetica 15 F
GS
[1 0 0 1 0 0] CT
0 0 moveto 
1 -1 scale
(10) t 
GR
GR
GS
[1 0 0 1 63 32] CT
0.149 GC
/Helvetica 12 F
GS
[1 0 0 1 0 0] CT
0 0 moveto 
1 -1 scale
(2) t 
GR
GR
GS
1 0 1 RC
2 LJ
1.4 LW
N
78.717 45.836 M
82.433 62.663 L
86.15 66.402 L
89.867 70.63 L
93.583 75.898 L
97.3 85.828 L
101.017 89.46 L
104.733 94.787 L
108.45 98.218 L
112.167 103.121 L
115.883 107.24 L
119.6 110.792 L
123.317 116.073 L
127.033 123.19 L
130.75 126.917 L
134.467 132.606 L
138.183 135.501 L
141.9 139.442 L
145.617 141.759 L
149.333 144.628 L
153.05 147.244 L
156.767 150.246 L
160.483 153.533 L
164.2 155.189 L
167.917 157.085 L
171.633 159.221 L
175.35 161.275 L
179.067 163.417 L
182.783 165.487 L
186.5 167.436 L
190.217 169.747 L
193.933 172.625 L
197.65 174.717 L
201.367 177.223 L
205.083 180.095 L
208.8 183.274 L
212.517 185.685 L
216.233 188.103 L
219.95 189.755 L
223.667 191.585 L
227.383 193.568 L
231.1 195.674 L
234.817 197.929 L
238.533 200.276 L
242.25 202.843 L
245.967 205.593 L
249.683 208.567 L
253.4 211.177 L
257.117 214.016 L
260.833 216.902 L
S
GR
GS
1 0 1 RC
2 LJ
1.4 LW
N
260.833 216.902 M
264.55 219.776 L
268.267 223.376 L
271.983 225.921 L
275.7 229.227 L
279.417 233.37 L
283.133 235.868 L
286.85 237.983 L
290.567 240.294 L
294.283 242.834 L
298 245.959 L
301.717 248.525 L
305.433 250.684 L
309.15 253.083 L
312.867 256.125 L
316.583 259.39 L
320.3 264.062 L
324.017 265.993 L
327.733 268.011 L
331.45 270.449 L
335.167 273.092 L
338.883 275.525 L
342.6 278.327 L
346.317 281.365 L
350.033 285.241 L
353.75 288.019 L
357.467 291.561 L
361.183 295.508 L
364.9 300.751 L
368.617 305.705 L
372.333 307.403 L
376.05 309.182 L
379.767 311.306 L
383.483 313.58 L
387.2 316.361 L
390.917 319.705 L
394.633 322.97 L
398.35 327.599 L
402.067 334.303 L
405.783 338.057 L
409.5 343.529 L
413.217 346.06 L
416.933 347.834 L
420.65 349.949 L
424.367 352.145 L
428.083 354.343 L
431.8 356.996 L
435.517 359.861 L
439.233 363.527 L
442.95 367.813 L
S
GR
GS
1 0 1 RC
2 LJ
1.4 LW
N
442.95 367.813 M
446.667 374.946 L
450.383 377.282 L
454.1 379.254 L
457.817 381.043 L
461.533 382.338 L
465.25 383.664 L
466.172 384.035 L
S
GR
GS
[1 0 0 1 298.00031 27.875] CT
/Helvetica 17 F
GS
[1 0 0 1 0 0] CT
-39.5 -4 moveto 
1 -1 scale
(POD-error) t 
GR
GR
%%Trailer
%%BoundingBox: 35 8 533 421
%%Pages: 1
%%EOF
