%!PS-Adobe-3.0 EPSF-3.0
%%Creator: (MATLAB, The Mathworks, Inc. Version 8.5.0.197613 \(R2015a\). Operating System: Mac OS X)
%%Title: ./PODerror_both.eps
%%CreationDate: 2015-09-16T14:22:14
%%Pages: (atend)
%%BoundingBox: (atend)
%%LanguageLevel: 3
%%EndComments
%%BeginProlog
%%BeginResource: procset (Apache XML Graphics Std ProcSet) 1.2 0
%%Version: 1.2 0
%%Copyright: (Copyright 2001-2003,2010 The Apache Software Foundation. License terms: http://www.apache.org/licenses/LICENSE-2.0)
/bd{bind def}bind def
/ld{load def}bd
/GR/grestore ld
/M/moveto ld
/LJ/setlinejoin ld
/C/curveto ld
/f/fill ld
/LW/setlinewidth ld
/GC/setgray ld
/t/show ld
/N/newpath ld
/CT/concat ld
/cp/closepath ld
/S/stroke ld
/L/lineto ld
/CC/setcmykcolor ld
/A/ashow ld
/GS/gsave ld
/RC/setrgbcolor ld
/RM/rmoveto ld
/ML/setmiterlimit ld
/re {4 2 roll M
1 index 0 rlineto
0 exch rlineto
neg 0 rlineto
cp } bd
/_ctm matrix def
/_tm matrix def
/BT { _ctm currentmatrix pop matrix _tm copy pop 0 0 moveto } bd
/ET { _ctm setmatrix } bd
/iTm { _ctm setmatrix _tm concat } bd
/Tm { _tm astore pop iTm 0 0 moveto } bd
/ux 0.0 def
/uy 0.0 def
/F {
  /Tp exch def
  /Tf exch def
  Tf findfont Tp scalefont setfont
  /cf Tf def  /cs Tp def
} bd
/ULS {currentpoint /uy exch def /ux exch def} bd
/ULE {
  /Tcx currentpoint pop def
  gsave
  newpath
  cf findfont cs scalefont dup
  /FontMatrix get 0 get /Ts exch def /FontInfo get dup
  /UnderlinePosition get Ts mul /To exch def
  /UnderlineThickness get Ts mul /Tt exch def
  ux uy To add moveto  Tcx uy To add lineto
  Tt setlinewidth stroke
  grestore
} bd
/OLE {
  /Tcx currentpoint pop def
  gsave
  newpath
  cf findfont cs scalefont dup
  /FontMatrix get 0 get /Ts exch def /FontInfo get dup
  /UnderlinePosition get Ts mul /To exch def
  /UnderlineThickness get Ts mul /Tt exch def
  ux uy To add cs add moveto Tcx uy To add cs add lineto
  Tt setlinewidth stroke
  grestore
} bd
/SOE {
  /Tcx currentpoint pop def
  gsave
  newpath
  cf findfont cs scalefont dup
  /FontMatrix get 0 get /Ts exch def /FontInfo get dup
  /UnderlinePosition get Ts mul /To exch def
  /UnderlineThickness get Ts mul /Tt exch def
  ux uy To add cs 10 mul 26 idiv add moveto Tcx uy To add cs 10 mul 26 idiv add lineto
  Tt setlinewidth stroke
  grestore
} bd
/QT {
/Y22 exch store
/X22 exch store
/Y21 exch store
/X21 exch store
currentpoint
/Y21 load 2 mul add 3 div exch
/X21 load 2 mul add 3 div exch
/X21 load 2 mul /X22 load add 3 div
/Y21 load 2 mul /Y22 load add 3 div
/X22 load /Y22 load curveto
} bd
/SSPD {
dup length /d exch dict def
{
/v exch def
/k exch def
currentpagedevice k known {
/cpdv currentpagedevice k get def
v cpdv ne {
/upd false def
/nullv v type /nulltype eq def
/nullcpdv cpdv type /nulltype eq def
nullv nullcpdv or
{
/upd true def
} {
/sametype v type cpdv type eq def
sametype {
v type /arraytype eq {
/vlen v length def
/cpdvlen cpdv length def
vlen cpdvlen eq {
0 1 vlen 1 sub {
/i exch def
/obj v i get def
/cpdobj cpdv i get def
obj cpdobj ne {
/upd true def
exit
} if
} for
} {
/upd true def
} ifelse
} {
v type /dicttype eq {
v {
/dv exch def
/dk exch def
/cpddv cpdv dk get def
dv cpddv ne {
/upd true def
exit
} if
} forall
} {
/upd true def
} ifelse
} ifelse
} if
} ifelse
upd true eq {
d k v put
} if
} if
} if
} forall
d length 0 gt {
d setpagedevice
} if
} bd
%%EndResource
%%BeginResource: procset (Apache XML Graphics EPS ProcSet) 1.0 0
%%Version: 1.0 0
%%Copyright: (Copyright 2002-2003 The Apache Software Foundation. License terms: http://www.apache.org/licenses/LICENSE-2.0)
/BeginEPSF { %def
/b4_Inc_state save def         % Save state for cleanup
/dict_count countdictstack def % Count objects on dict stack
/op_count count 1 sub def      % Count objects on operand stack
userdict begin                 % Push userdict on dict stack
/showpage { } def              % Redefine showpage, { } = null proc
0 setgray 0 setlinecap         % Prepare graphics state
1 setlinewidth 0 setlinejoin
10 setmiterlimit [ ] 0 setdash newpath
/languagelevel where           % If level not equal to 1 then
{pop languagelevel             % set strokeadjust and
1 ne                           % overprint to their defaults.
{false setstrokeadjust false setoverprint
} if
} if
} bd
/EndEPSF { %def
count op_count sub {pop} repeat            % Clean up stacks
countdictstack dict_count sub {end} repeat
b4_Inc_state restore
} bd
%%EndResource
%FOPBeginFontDict
%%IncludeResource: font Courier-Bold
%%IncludeResource: font Helvetica
%%IncludeResource: font Courier-BoldOblique
%%IncludeResource: font Courier-Oblique
%%IncludeResource: font Times-Roman
%%IncludeResource: font Helvetica-BoldOblique
%%IncludeResource: font Helvetica-Bold
%%IncludeResource: font Helvetica-Oblique
%%IncludeResource: font Times-BoldItalic
%%IncludeResource: font Courier
%%IncludeResource: font Times-Italic
%%IncludeResource: font Times-Bold
%%IncludeResource: font Symbol
%%IncludeResource: font ZapfDingbats
%FOPEndFontDict
%%BeginResource: encoding WinAnsiEncoding
/WinAnsiEncoding [
/.notdef /.notdef /.notdef /.notdef /.notdef
/.notdef /.notdef /.notdef /.notdef /.notdef
/.notdef /.notdef /.notdef /.notdef /.notdef
/.notdef /.notdef /.notdef /.notdef /.notdef
/.notdef /.notdef /.notdef /.notdef /.notdef
/.notdef /.notdef /.notdef /.notdef /.notdef
/.notdef /.notdef /space /exclam /quotedbl
/numbersign /dollar /percent /ampersand /quotesingle
/parenleft /parenright /asterisk /plus /comma
/hyphen /period /slash /zero /one
/two /three /four /five /six
/seven /eight /nine /colon /semicolon
/less /equal /greater /question /at
/A /B /C /D /E
/F /G /H /I /J
/K /L /M /N /O
/P /Q /R /S /T
/U /V /W /X /Y
/Z /bracketleft /backslash /bracketright /asciicircum
/underscore /quoteleft /a /b /c
/d /e /f /g /h
/i /j /k /l /m
/n /o /p /q /r
/s /t /u /v /w
/x /y /z /braceleft /bar
/braceright /asciitilde /bullet /Euro /bullet
/quotesinglbase /florin /quotedblbase /ellipsis /dagger
/daggerdbl /circumflex /perthousand /Scaron /guilsinglleft
/OE /bullet /Zcaron /bullet /bullet
/quoteleft /quoteright /quotedblleft /quotedblright /bullet
/endash /emdash /asciitilde /trademark /scaron
/guilsinglright /oe /bullet /zcaron /Ydieresis
/space /exclamdown /cent /sterling /currency
/yen /brokenbar /section /dieresis /copyright
/ordfeminine /guillemotleft /logicalnot /sfthyphen /registered
/macron /degree /plusminus /twosuperior /threesuperior
/acute /mu /paragraph /middot /cedilla
/onesuperior /ordmasculine /guillemotright /onequarter /onehalf
/threequarters /questiondown /Agrave /Aacute /Acircumflex
/Atilde /Adieresis /Aring /AE /Ccedilla
/Egrave /Eacute /Ecircumflex /Edieresis /Igrave
/Iacute /Icircumflex /Idieresis /Eth /Ntilde
/Ograve /Oacute /Ocircumflex /Otilde /Odieresis
/multiply /Oslash /Ugrave /Uacute /Ucircumflex
/Udieresis /Yacute /Thorn /germandbls /agrave
/aacute /acircumflex /atilde /adieresis /aring
/ae /ccedilla /egrave /eacute /ecircumflex
/edieresis /igrave /iacute /icircumflex /idieresis
/eth /ntilde /ograve /oacute /ocircumflex
/otilde /odieresis /divide /oslash /ugrave
/uacute /ucircumflex /udieresis /yacute /thorn
/ydieresis
] def
%%EndResource
%FOPBeginFontReencode
/Courier-Bold findfont
dup length dict begin
  {1 index /FID ne {def} {pop pop} ifelse} forall
  /Encoding WinAnsiEncoding def
  currentdict
end
/Courier-Bold exch definefont pop
/Helvetica findfont
dup length dict begin
  {1 index /FID ne {def} {pop pop} ifelse} forall
  /Encoding WinAnsiEncoding def
  currentdict
end
/Helvetica exch definefont pop
/Courier-BoldOblique findfont
dup length dict begin
  {1 index /FID ne {def} {pop pop} ifelse} forall
  /Encoding WinAnsiEncoding def
  currentdict
end
/Courier-BoldOblique exch definefont pop
/Courier-Oblique findfont
dup length dict begin
  {1 index /FID ne {def} {pop pop} ifelse} forall
  /Encoding WinAnsiEncoding def
  currentdict
end
/Courier-Oblique exch definefont pop
/Times-Roman findfont
dup length dict begin
  {1 index /FID ne {def} {pop pop} ifelse} forall
  /Encoding WinAnsiEncoding def
  currentdict
end
/Times-Roman exch definefont pop
/Helvetica-BoldOblique findfont
dup length dict begin
  {1 index /FID ne {def} {pop pop} ifelse} forall
  /Encoding WinAnsiEncoding def
  currentdict
end
/Helvetica-BoldOblique exch definefont pop
/Helvetica-Bold findfont
dup length dict begin
  {1 index /FID ne {def} {pop pop} ifelse} forall
  /Encoding WinAnsiEncoding def
  currentdict
end
/Helvetica-Bold exch definefont pop
/Helvetica-Oblique findfont
dup length dict begin
  {1 index /FID ne {def} {pop pop} ifelse} forall
  /Encoding WinAnsiEncoding def
  currentdict
end
/Helvetica-Oblique exch definefont pop
/Times-BoldItalic findfont
dup length dict begin
  {1 index /FID ne {def} {pop pop} ifelse} forall
  /Encoding WinAnsiEncoding def
  currentdict
end
/Times-BoldItalic exch definefont pop
/Courier findfont
dup length dict begin
  {1 index /FID ne {def} {pop pop} ifelse} forall
  /Encoding WinAnsiEncoding def
  currentdict
end
/Courier exch definefont pop
/Times-Italic findfont
dup length dict begin
  {1 index /FID ne {def} {pop pop} ifelse} forall
  /Encoding WinAnsiEncoding def
  currentdict
end
/Times-Italic exch definefont pop
/Times-Bold findfont
dup length dict begin
  {1 index /FID ne {def} {pop pop} ifelse} forall
  /Encoding WinAnsiEncoding def
  currentdict
end
/Times-Bold exch definefont pop
%FOPEndFontReencode
%%EndProlog
%%Page: 1 1
%%PageBoundingBox: 0 0 576 432
%%BeginPageSetup
[1 0 0 -1 0 432] CT
%%EndPageSetup
GS
1 GC
N
0 0 576 432 re
f
GR
GS
1 GC
N
0 0 576 432 re
f
GR
GS
1 GC
N
75 384 M
521 384 L
521 32 L
75 32 L
cp
f
GR
GS
0.873 GC
2 setlinecap
10.0 ML
N
75 384 M
75 32 L
S
GR
GS
0.873 GC
2 setlinecap
10.0 ML
N
186.5 384 M
186.5 32 L
S
GR
GS
0.873 GC
2 setlinecap
10.0 ML
N
298 384 M
298 32 L
S
GR
GS
0.873 GC
2 setlinecap
10.0 ML
N
409.5 384 M
409.5 32 L
S
GR
GS
0.873 GC
2 setlinecap
10.0 ML
N
521 384 M
521 32 L
S
GR
GS
0.873 GC
2 setlinecap
10.0 ML
N
521 364.444 M
75 364.444 L
S
GR
GS
0.873 GC
2 setlinecap
10.0 ML
N
521 266.667 M
75 266.667 L
S
GR
GS
0.873 GC
2 setlinecap
10.0 ML
N
521 168.889 M
75 168.889 L
S
GR
GS
0.873 GC
2 setlinecap
10.0 ML
N
521 71.111 M
75 71.111 L
S
GR
GS
[1 0 0 1 298.00021 406] CT
0.149 GC
/Helvetica 17 F
GS
[1 0 0 1 0 0] CT
-82.5 14 moveto 
1 -1 scale
(POD-basis dimension) t 
GR
GR
GS
0.149 GC
2 setlinecap
10.0 ML
N
75 384 M
521 384 L
S
GR
GS
0.149 GC
2 setlinecap
10.0 ML
N
75 32 M
521 32 L
S
GR
GS
0.149 GC
2 setlinecap
10.0 ML
N
75 384 M
75 379.54 L
S
GR
GS
0.149 GC
2 setlinecap
10.0 ML
N
186.5 384 M
186.5 379.54 L
S
GR
GS
0.149 GC
2 setlinecap
10.0 ML
N
298 384 M
298 379.54 L
S
GR
GS
0.149 GC
2 setlinecap
10.0 ML
N
409.5 384 M
409.5 379.54 L
S
GR
GS
0.149 GC
2 setlinecap
10.0 ML
N
521 384 M
521 379.54 L
S
GR
GS
0.149 GC
2 setlinecap
10.0 ML
N
75 32 M
75 36.46 L
S
GR
GS
0.149 GC
2 setlinecap
10.0 ML
N
186.5 32 M
186.5 36.46 L
S
GR
GS
0.149 GC
2 setlinecap
10.0 ML
N
298 32 M
298 36.46 L
S
GR
GS
0.149 GC
2 setlinecap
10.0 ML
N
409.5 32 M
409.5 36.46 L
S
GR
GS
0.149 GC
2 setlinecap
10.0 ML
N
521 32 M
521 36.46 L
S
GR
GS
[1 0 0 1 75 389] CT
0.149 GC
/Helvetica 15 F
GS
[1 0 0 1 0 0] CT
-4.5 12 moveto 
1 -1 scale
(0) t 
GR
GR
GS
[1 0 0 1 186.5 389] CT
0.149 GC
/Helvetica 15 F
GS
[1 0 0 1 0 0] CT
-8.5 12 moveto 
1 -1 scale
(50) t 
GR
GR
GS
[1 0 0 1 298 389] CT
0.149 GC
/Helvetica 15 F
GS
[1 0 0 1 0 0] CT
-13 12 moveto 
1 -1 scale
(100) t 
GR
GR
GS
[1 0 0 1 409.5 389] CT
0.149 GC
/Helvetica 15 F
GS
[1 0 0 1 0 0] CT
-13 12 moveto 
1 -1 scale
(150) t 
GR
GR
GS
[1 0 0 1 521 389] CT
0.149 GC
/Helvetica 15 F
GS
[1 0 0 1 0 0] CT
-13 12 moveto 
1 -1 scale
(200) t 
GR
GR
GS
0.149 GC
2 setlinecap
10.0 ML
N
75 384 M
75 32 L
S
GR
GS
0.149 GC
2 setlinecap
10.0 ML
N
521 384 M
521 32 L
S
GR
GS
0.149 GC
2 setlinecap
10.0 ML
N
75 364.444 M
79.46 364.444 L
S
GR
GS
0.149 GC
2 setlinecap
10.0 ML
N
75 266.667 M
79.46 266.667 L
S
GR
GS
0.149 GC
2 setlinecap
10.0 ML
N
75 168.889 M
79.46 168.889 L
S
GR
GS
0.149 GC
2 setlinecap
10.0 ML
N
75 71.111 M
79.46 71.111 L
S
GR
GS
0.149 GC
2 setlinecap
10.0 ML
N
521 364.444 M
516.54 364.444 L
S
GR
GS
0.149 GC
2 setlinecap
10.0 ML
N
521 266.667 M
516.54 266.667 L
S
GR
GS
0.149 GC
2 setlinecap
10.0 ML
N
521 168.889 M
516.54 168.889 L
S
GR
GS
0.149 GC
2 setlinecap
10.0 ML
N
521 71.111 M
516.54 71.111 L
S
GR
GS
[1 0 0 1 35 371] CT
0.149 GC
/Helvetica 15 F
GS
[1 0 0 1 0 0] CT
0 0 moveto 
1 -1 scale
(10) t 
GR
GR
GS
[1 0 0 1 52 364] CT
0.149 GC
/Helvetica 12 F
GS
[1 0 0 1 0 0] CT
0 0 moveto 
1 -1 scale
(-15) t 
GR
GR
GS
[1 0 0 1 35 274] CT
0.149 GC
/Helvetica 15 F
GS
[1 0 0 1 0 0] CT
0 0 moveto 
1 -1 scale
(10) t 
GR
GR
GS
[1 0 0 1 52 267] CT
0.149 GC
/Helvetica 12 F
GS
[1 0 0 1 0 0] CT
0 0 moveto 
1 -1 scale
(-10) t 
GR
GR
GS
[1 0 0 1 42 176] CT
0.149 GC
/Helvetica 15 F
GS
[1 0 0 1 0 0] CT
0 0 moveto 
1 -1 scale
(10) t 
GR
GR
GS
[1 0 0 1 59 169] CT
0.149 GC
/Helvetica 12 F
GS
[1 0 0 1 0 0] CT
0 0 moveto 
1 -1 scale
(-5) t 
GR
GR
GS
[1 0 0 1 46 78] CT
0.149 GC
/Helvetica 15 F
GS
[1 0 0 1 0 0] CT
0 0 moveto 
1 -1 scale
(10) t 
GR
GR
GS
[1 0 0 1 63 71] CT
0.149 GC
/Helvetica 12 F
GS
[1 0 0 1 0 0] CT
0 0 moveto 
1 -1 scale
(0) t 
GR
GR
GS
1 0 1 RC
2 LJ
1.4 LW
N
77.23 42.761 M
79.46 55.849 L
81.69 58.757 L
83.92 62.046 L
86.15 66.143 L
88.38 73.866 L
90.61 76.691 L
92.84 80.834 L
95.07 83.503 L
97.3 87.317 L
99.53 90.52 L
101.76 93.282 L
103.99 97.39 L
106.22 102.926 L
108.45 105.825 L
110.68 110.249 L
112.91 112.5 L
115.14 115.566 L
117.37 117.368 L
119.6 119.6 L
121.83 121.634 L
124.06 123.969 L
126.29 126.526 L
128.52 127.813 L
130.75 129.288 L
132.98 130.949 L
135.21 132.547 L
137.44 134.213 L
139.67 135.823 L
141.9 137.339 L
144.13 139.137 L
146.36 141.375 L
148.59 143.002 L
150.82 144.952 L
153.05 147.185 L
155.28 149.658 L
157.51 151.532 L
159.74 153.413 L
161.97 154.698 L
164.2 156.122 L
166.43 157.664 L
168.66 159.302 L
170.89 161.056 L
173.12 162.881 L
175.35 164.878 L
177.58 167.017 L
179.81 169.33 L
182.04 171.36 L
184.27 173.568 L
186.5 175.812 L
S
GR
GS
1 0 1 RC
2 LJ
1.4 LW
N
186.5 175.812 M
188.73 178.048 L
190.96 180.848 L
193.19 182.827 L
195.42 185.399 L
197.65 188.621 L
199.88 190.564 L
202.11 192.209 L
204.34 194.006 L
206.57 195.982 L
208.8 198.412 L
211.03 200.409 L
213.26 202.087 L
215.49 203.953 L
217.72 206.32 L
219.95 208.859 L
222.18 212.493 L
224.41 213.995 L
226.64 215.564 L
228.87 217.46 L
231.1 219.516 L
233.33 221.409 L
235.56 223.588 L
237.79 225.951 L
240.02 228.966 L
242.25 231.126 L
244.48 233.881 L
246.71 236.951 L
248.94 241.029 L
251.17 244.882 L
253.4 246.202 L
255.63 247.586 L
257.86 249.238 L
260.09 251.007 L
262.32 253.17 L
264.55 255.771 L
266.78 258.31 L
269.01 261.911 L
271.24 267.125 L
273.47 270.045 L
275.7 274.301 L
277.93 276.269 L
280.16 277.649 L
282.39 279.294 L
284.62 281.001 L
286.85 282.711 L
289.08 284.774 L
291.31 287.003 L
293.54 289.854 L
295.77 293.188 L
S
GR
GS
1 0 1 RC
2 LJ
1.4 LW
N
295.77 293.188 M
298 298.736 L
300.23 300.553 L
302.46 302.086 L
304.69 303.478 L
306.92 304.485 L
309.15 305.517 L
311.38 306.679 L
313.61 307.648 L
315.84 308.732 L
318.07 309.77 L
320.3 310.936 L
322.53 311.84 L
324.76 312.753 L
326.99 313.014 L
329.22 313.261 L
331.45 313.507 L
333.68 313.748 L
335.91 313.986 L
338.14 314.226 L
340.37 314.462 L
342.6 314.703 L
344.83 314.946 L
347.06 315.187 L
349.29 315.435 L
351.52 315.685 L
353.75 315.938 L
355.98 316.19 L
358.21 316.447 L
360.44 316.709 L
362.67 316.973 L
364.9 317.242 L
367.13 317.516 L
369.36 317.796 L
371.59 318.072 L
373.82 318.356 L
376.05 318.647 L
378.28 318.94 L
380.51 319.234 L
382.74 319.533 L
384.97 319.837 L
387.2 320.143 L
389.43 320.451 L
391.66 320.763 L
393.89 321.082 L
396.12 321.405 L
398.35 321.736 L
400.58 322.07 L
402.81 322.412 L
405.04 322.754 L
S
GR
GS
1 0 1 RC
2 LJ
1.4 LW
N
405.04 322.754 M
407.27 323.098 L
409.5 323.447 L
411.73 323.792 L
413.96 324.146 L
416.19 324.509 L
418.42 324.878 L
420.65 325.254 L
422.88 325.629 L
425.11 326.005 L
427.34 326.374 L
429.57 326.739 L
431.8 327.11 L
434.03 327.476 L
436.26 327.837 L
438.49 328.197 L
440.72 328.545 L
442.95 328.89 L
445.18 329.216 L
447.41 329.533 L
449.64 329.845 L
451.87 330.164 L
454.1 330.495 L
456.33 330.84 L
458.56 331.199 L
460.79 331.574 L
463.02 331.966 L
465.25 332.378 L
467.48 332.81 L
469.71 333.266 L
471.94 333.747 L
474.17 334.257 L
476.4 334.8 L
478.63 335.38 L
480.86 336.002 L
483.09 336.674 L
485.32 337.403 L
487.55 338.201 L
489.78 339.082 L
492.01 340.065 L
494.24 341.177 L
496.47 342.456 L
498.7 343.963 L
500.93 345.797 L
503.16 347.471 L
505.39 349.513 L
507.62 351.966 L
509.85 354.672 L
512.08 357.886 L
514.31 361.894 L
S
GR
GS
1 0 1 RC
2 LJ
1.4 LW
N
514.31 361.894 M
516.54 366.902 L
518.77 373.859 L
521 382.74 L
S
GR
GS
0 0 1 RC
2 LJ
1.4 LW
N
77.23 65.057 M
79.46 71.409 L
81.69 76.909 L
83.92 87.593 L
86.15 90.199 L
88.38 93.931 L
90.61 97.881 L
92.84 105.278 L
95.07 113.41 L
97.3 119.457 L
99.53 122.89 L
101.76 125.756 L
103.99 128.851 L
106.22 132.242 L
108.45 135.706 L
110.68 138.27 L
112.91 141.721 L
115.14 144.61 L
117.37 147.964 L
119.6 150.353 L
121.83 153.191 L
124.06 156.325 L
126.29 158.663 L
128.52 161.008 L
130.75 163.119 L
132.98 165.659 L
135.21 168.662 L
137.44 171.195 L
139.67 173.552 L
141.9 175.835 L
144.13 178.897 L
146.36 181.89 L
148.59 185.223 L
150.82 188.63 L
153.05 190.822 L
155.28 192.398 L
157.51 194.251 L
159.74 196.259 L
161.97 198.683 L
164.2 201.311 L
166.43 204.386 L
168.66 207.896 L
170.89 213.17 L
173.12 218.524 L
175.35 220.812 L
177.58 223.173 L
179.81 225.233 L
182.04 227.749 L
184.27 229.98 L
186.5 231.901 L
S
GR
GS
0 0 1 RC
2 LJ
1.4 LW
N
186.5 231.901 M
188.73 234.021 L
190.96 236.53 L
193.19 239.157 L
195.42 241.515 L
197.65 243.888 L
199.88 246.76 L
202.11 250.146 L
204.34 253.233 L
206.57 257.071 L
208.8 262.02 L
211.03 269.069 L
213.26 272.623 L
215.49 276.203 L
217.72 278.468 L
219.95 280.66 L
222.18 283.188 L
224.41 285.494 L
226.64 288.402 L
228.87 290.384 L
231.1 292.901 L
233.33 295.874 L
235.56 298.781 L
237.79 300.865 L
240.02 302.436 L
242.25 304.204 L
244.48 305.652 L
246.71 307.12 L
248.94 308.75 L
251.17 310.223 L
253.4 311.98 L
255.63 313.123 L
257.86 314.312 L
260.09 315.173 L
262.32 315.672 L
264.55 315.937 L
266.78 316.158 L
269.01 316.376 L
271.24 316.581 L
273.47 316.78 L
275.7 316.979 L
277.93 317.169 L
280.16 317.363 L
282.39 317.553 L
284.62 317.74 L
286.85 317.927 L
289.08 318.112 L
291.31 318.299 L
293.54 318.484 L
295.77 318.667 L
S
GR
GS
0 0 1 RC
2 LJ
1.4 LW
N
295.77 318.667 M
298 318.849 L
300.23 319.029 L
302.46 319.208 L
304.69 319.382 L
306.92 319.559 L
309.15 319.737 L
311.38 319.911 L
313.61 320.083 L
315.84 320.254 L
318.07 320.424 L
320.3 320.596 L
322.53 320.763 L
324.76 320.93 L
326.99 321.095 L
329.22 321.259 L
331.45 321.419 L
333.68 321.569 L
335.91 321.722 L
338.14 321.872 L
340.37 322.013 L
342.6 322.153 L
344.83 322.28 L
347.06 322.399 L
349.29 322.517 L
351.52 322.636 L
353.75 322.755 L
355.98 322.877 L
358.21 323 L
360.44 323.125 L
362.67 323.252 L
364.9 323.381 L
367.13 323.512 L
369.36 323.645 L
371.59 323.78 L
373.82 323.918 L
376.05 324.057 L
378.28 324.199 L
380.51 324.343 L
382.74 324.49 L
384.97 324.639 L
387.2 324.791 L
389.43 324.946 L
391.66 325.104 L
393.89 325.264 L
396.12 325.428 L
398.35 325.595 L
400.58 325.765 L
402.81 325.939 L
405.04 326.116 L
S
GR
GS
0 0 1 RC
2 LJ
1.4 LW
N
405.04 326.116 M
407.27 326.298 L
409.5 326.483 L
411.73 326.672 L
413.96 326.866 L
416.19 327.064 L
418.42 327.266 L
420.65 327.474 L
422.88 327.687 L
425.11 327.906 L
427.34 328.13 L
429.57 328.36 L
431.8 328.597 L
434.03 328.841 L
436.26 329.091 L
438.49 329.35 L
440.72 329.616 L
442.95 329.891 L
445.18 330.175 L
447.41 330.47 L
449.64 330.774 L
451.87 331.09 L
454.1 331.419 L
456.33 331.76 L
458.56 332.116 L
460.79 332.487 L
463.02 332.875 L
465.25 333.282 L
467.48 333.71 L
469.71 334.16 L
471.94 334.635 L
474.17 335.138 L
476.4 335.674 L
478.63 336.245 L
480.86 336.857 L
483.09 337.517 L
485.32 338.232 L
487.55 339.014 L
489.78 339.875 L
492.01 340.832 L
494.24 341.912 L
496.47 343.15 L
498.7 344.48 L
500.93 345.946 L
503.16 347.474 L
505.39 349.116 L
507.62 350.941 L
509.85 353.21 L
512.08 355.475 L
514.31 358.48 L
S
GR
GS
0 0 1 RC
2 LJ
1.4 LW
N
514.31 358.48 M
516.54 361.523 L
518.77 365.537 L
521 373.137 L
S
GR
GS
[1 0 0 1 298.00031 27.875] CT
/Helvetica 17 F
GS
[1 0 0 1 0 0] CT
-39.5 -4 moveto 
1 -1 scale
(POD-error) t 
GR
GR
%%Trailer
%%BoundingBox: 35 8 533 421
%%Pages: 1
%%EOF
