%!PS-Adobe-3.0 EPSF-3.0
%%Creator: (MATLAB, The Mathworks, Inc. Version 8.5.0.197613 \(R2015a\). Operating System: Mac OS X)
%%Title: ./RBoptim-mParam_scat-costfun30.eps
%%CreationDate: 2015-06-05T17:06:37
%%Pages: (atend)
%%BoundingBox: (atend)
%%LanguageLevel: 3
%%EndComments
%%BeginProlog
%%BeginResource: procset (Apache XML Graphics Std ProcSet) 1.2 0
%%Version: 1.2 0
%%Copyright: (Copyright 2001-2003,2010 The Apache Software Foundation. License terms: http://www.apache.org/licenses/LICENSE-2.0)
/bd{bind def}bind def
/ld{load def}bd
/GR/grestore ld
/M/moveto ld
/LJ/setlinejoin ld
/C/curveto ld
/f/fill ld
/LW/setlinewidth ld
/GC/setgray ld
/t/show ld
/N/newpath ld
/CT/concat ld
/cp/closepath ld
/S/stroke ld
/L/lineto ld
/CC/setcmykcolor ld
/A/ashow ld
/GS/gsave ld
/RC/setrgbcolor ld
/RM/rmoveto ld
/ML/setmiterlimit ld
/re {4 2 roll M
1 index 0 rlineto
0 exch rlineto
neg 0 rlineto
cp } bd
/_ctm matrix def
/_tm matrix def
/BT { _ctm currentmatrix pop matrix _tm copy pop 0 0 moveto } bd
/ET { _ctm setmatrix } bd
/iTm { _ctm setmatrix _tm concat } bd
/Tm { _tm astore pop iTm 0 0 moveto } bd
/ux 0.0 def
/uy 0.0 def
/F {
  /Tp exch def
  /Tf exch def
  Tf findfont Tp scalefont setfont
  /cf Tf def  /cs Tp def
} bd
/ULS {currentpoint /uy exch def /ux exch def} bd
/ULE {
  /Tcx currentpoint pop def
  gsave
  newpath
  cf findfont cs scalefont dup
  /FontMatrix get 0 get /Ts exch def /FontInfo get dup
  /UnderlinePosition get Ts mul /To exch def
  /UnderlineThickness get Ts mul /Tt exch def
  ux uy To add moveto  Tcx uy To add lineto
  Tt setlinewidth stroke
  grestore
} bd
/OLE {
  /Tcx currentpoint pop def
  gsave
  newpath
  cf findfont cs scalefont dup
  /FontMatrix get 0 get /Ts exch def /FontInfo get dup
  /UnderlinePosition get Ts mul /To exch def
  /UnderlineThickness get Ts mul /Tt exch def
  ux uy To add cs add moveto Tcx uy To add cs add lineto
  Tt setlinewidth stroke
  grestore
} bd
/SOE {
  /Tcx currentpoint pop def
  gsave
  newpath
  cf findfont cs scalefont dup
  /FontMatrix get 0 get /Ts exch def /FontInfo get dup
  /UnderlinePosition get Ts mul /To exch def
  /UnderlineThickness get Ts mul /Tt exch def
  ux uy To add cs 10 mul 26 idiv add moveto Tcx uy To add cs 10 mul 26 idiv add lineto
  Tt setlinewidth stroke
  grestore
} bd
/QT {
/Y22 exch store
/X22 exch store
/Y21 exch store
/X21 exch store
currentpoint
/Y21 load 2 mul add 3 div exch
/X21 load 2 mul add 3 div exch
/X21 load 2 mul /X22 load add 3 div
/Y21 load 2 mul /Y22 load add 3 div
/X22 load /Y22 load curveto
} bd
/SSPD {
dup length /d exch dict def
{
/v exch def
/k exch def
currentpagedevice k known {
/cpdv currentpagedevice k get def
v cpdv ne {
/upd false def
/nullv v type /nulltype eq def
/nullcpdv cpdv type /nulltype eq def
nullv nullcpdv or
{
/upd true def
} {
/sametype v type cpdv type eq def
sametype {
v type /arraytype eq {
/vlen v length def
/cpdvlen cpdv length def
vlen cpdvlen eq {
0 1 vlen 1 sub {
/i exch def
/obj v i get def
/cpdobj cpdv i get def
obj cpdobj ne {
/upd true def
exit
} if
} for
} {
/upd true def
} ifelse
} {
v type /dicttype eq {
v {
/dv exch def
/dk exch def
/cpddv cpdv dk get def
dv cpddv ne {
/upd true def
exit
} if
} forall
} {
/upd true def
} ifelse
} ifelse
} if
} ifelse
upd true eq {
d k v put
} if
} if
} if
} forall
d length 0 gt {
d setpagedevice
} if
} bd
%%EndResource
%%BeginResource: procset (Apache XML Graphics EPS ProcSet) 1.0 0
%%Version: 1.0 0
%%Copyright: (Copyright 2002-2003 The Apache Software Foundation. License terms: http://www.apache.org/licenses/LICENSE-2.0)
/BeginEPSF { %def
/b4_Inc_state save def         % Save state for cleanup
/dict_count countdictstack def % Count objects on dict stack
/op_count count 1 sub def      % Count objects on operand stack
userdict begin                 % Push userdict on dict stack
/showpage { } def              % Redefine showpage, { } = null proc
0 setgray 0 setlinecap         % Prepare graphics state
1 setlinewidth 0 setlinejoin
10 setmiterlimit [ ] 0 setdash newpath
/languagelevel where           % If level not equal to 1 then
{pop languagelevel             % set strokeadjust and
1 ne                           % overprint to their defaults.
{false setstrokeadjust false setoverprint
} if
} if
} bd
/EndEPSF { %def
count op_count sub {pop} repeat            % Clean up stacks
countdictstack dict_count sub {end} repeat
b4_Inc_state restore
} bd
%%EndResource
%FOPBeginFontDict
%%IncludeResource: font Courier-Bold
%%IncludeResource: font Helvetica
%%IncludeResource: font Courier-BoldOblique
%%IncludeResource: font Courier-Oblique
%%IncludeResource: font Times-Roman
%%IncludeResource: font Helvetica-BoldOblique
%%IncludeResource: font Helvetica-Bold
%%IncludeResource: font Helvetica-Oblique
%%IncludeResource: font Times-BoldItalic
%%IncludeResource: font Courier
%%IncludeResource: font Times-Italic
%%IncludeResource: font Times-Bold
%%IncludeResource: font Symbol
%%IncludeResource: font ZapfDingbats
%FOPEndFontDict
%%BeginResource: encoding WinAnsiEncoding
/WinAnsiEncoding [
/.notdef /.notdef /.notdef /.notdef /.notdef
/.notdef /.notdef /.notdef /.notdef /.notdef
/.notdef /.notdef /.notdef /.notdef /.notdef
/.notdef /.notdef /.notdef /.notdef /.notdef
/.notdef /.notdef /.notdef /.notdef /.notdef
/.notdef /.notdef /.notdef /.notdef /.notdef
/.notdef /.notdef /space /exclam /quotedbl
/numbersign /dollar /percent /ampersand /quotesingle
/parenleft /parenright /asterisk /plus /comma
/hyphen /period /slash /zero /one
/two /three /four /five /six
/seven /eight /nine /colon /semicolon
/less /equal /greater /question /at
/A /B /C /D /E
/F /G /H /I /J
/K /L /M /N /O
/P /Q /R /S /T
/U /V /W /X /Y
/Z /bracketleft /backslash /bracketright /asciicircum
/underscore /quoteleft /a /b /c
/d /e /f /g /h
/i /j /k /l /m
/n /o /p /q /r
/s /t /u /v /w
/x /y /z /braceleft /bar
/braceright /asciitilde /bullet /Euro /bullet
/quotesinglbase /florin /quotedblbase /ellipsis /dagger
/daggerdbl /circumflex /perthousand /Scaron /guilsinglleft
/OE /bullet /Zcaron /bullet /bullet
/quoteleft /quoteright /quotedblleft /quotedblright /bullet
/endash /emdash /asciitilde /trademark /scaron
/guilsinglright /oe /bullet /zcaron /Ydieresis
/space /exclamdown /cent /sterling /currency
/yen /brokenbar /section /dieresis /copyright
/ordfeminine /guillemotleft /logicalnot /sfthyphen /registered
/macron /degree /plusminus /twosuperior /threesuperior
/acute /mu /paragraph /middot /cedilla
/onesuperior /ordmasculine /guillemotright /onequarter /onehalf
/threequarters /questiondown /Agrave /Aacute /Acircumflex
/Atilde /Adieresis /Aring /AE /Ccedilla
/Egrave /Eacute /Ecircumflex /Edieresis /Igrave
/Iacute /Icircumflex /Idieresis /Eth /Ntilde
/Ograve /Oacute /Ocircumflex /Otilde /Odieresis
/multiply /Oslash /Ugrave /Uacute /Ucircumflex
/Udieresis /Yacute /Thorn /germandbls /agrave
/aacute /acircumflex /atilde /adieresis /aring
/ae /ccedilla /egrave /eacute /ecircumflex
/edieresis /igrave /iacute /icircumflex /idieresis
/eth /ntilde /ograve /oacute /ocircumflex
/otilde /odieresis /divide /oslash /ugrave
/uacute /ucircumflex /udieresis /yacute /thorn
/ydieresis
] def
%%EndResource
%FOPBeginFontReencode
/Courier-Bold findfont
dup length dict begin
  {1 index /FID ne {def} {pop pop} ifelse} forall
  /Encoding WinAnsiEncoding def
  currentdict
end
/Courier-Bold exch definefont pop
/Helvetica findfont
dup length dict begin
  {1 index /FID ne {def} {pop pop} ifelse} forall
  /Encoding WinAnsiEncoding def
  currentdict
end
/Helvetica exch definefont pop
/Courier-BoldOblique findfont
dup length dict begin
  {1 index /FID ne {def} {pop pop} ifelse} forall
  /Encoding WinAnsiEncoding def
  currentdict
end
/Courier-BoldOblique exch definefont pop
/Courier-Oblique findfont
dup length dict begin
  {1 index /FID ne {def} {pop pop} ifelse} forall
  /Encoding WinAnsiEncoding def
  currentdict
end
/Courier-Oblique exch definefont pop
/Times-Roman findfont
dup length dict begin
  {1 index /FID ne {def} {pop pop} ifelse} forall
  /Encoding WinAnsiEncoding def
  currentdict
end
/Times-Roman exch definefont pop
/Helvetica-BoldOblique findfont
dup length dict begin
  {1 index /FID ne {def} {pop pop} ifelse} forall
  /Encoding WinAnsiEncoding def
  currentdict
end
/Helvetica-BoldOblique exch definefont pop
/Helvetica-Bold findfont
dup length dict begin
  {1 index /FID ne {def} {pop pop} ifelse} forall
  /Encoding WinAnsiEncoding def
  currentdict
end
/Helvetica-Bold exch definefont pop
/Helvetica-Oblique findfont
dup length dict begin
  {1 index /FID ne {def} {pop pop} ifelse} forall
  /Encoding WinAnsiEncoding def
  currentdict
end
/Helvetica-Oblique exch definefont pop
/Times-BoldItalic findfont
dup length dict begin
  {1 index /FID ne {def} {pop pop} ifelse} forall
  /Encoding WinAnsiEncoding def
  currentdict
end
/Times-BoldItalic exch definefont pop
/Courier findfont
dup length dict begin
  {1 index /FID ne {def} {pop pop} ifelse} forall
  /Encoding WinAnsiEncoding def
  currentdict
end
/Courier exch definefont pop
/Times-Italic findfont
dup length dict begin
  {1 index /FID ne {def} {pop pop} ifelse} forall
  /Encoding WinAnsiEncoding def
  currentdict
end
/Times-Italic exch definefont pop
/Times-Bold findfont
dup length dict begin
  {1 index /FID ne {def} {pop pop} ifelse} forall
  /Encoding WinAnsiEncoding def
  currentdict
end
/Times-Bold exch definefont pop
%FOPEndFontReencode
%%EndProlog
%%Page: 1 1
%%PageBoundingBox: 0 0 576 432
%%BeginPageSetup
[1 0 0 -1 0 432] CT
%%EndPageSetup
GS
1 GC
N
0 0 576 432 re
f
GR
GS
1 GC
N
0 0 576 432 re
f
GR
GS
1 GC
N
75 373 M
521 373 L
521 32 L
75 32 L
cp
f
GR
GS
0.149 GC
2 setlinecap
10.0 ML
N
119.753 373 M
119.753 370.77 L
S
GR
GS
0.149 GC
2 setlinecap
10.0 ML
N
145.932 373 M
145.932 370.77 L
S
GR
GS
0.149 GC
2 setlinecap
10.0 ML
N
164.506 373 M
164.506 370.77 L
S
GR
GS
0.149 GC
2 setlinecap
10.0 ML
N
178.914 373 M
178.914 370.77 L
S
GR
GS
0.149 GC
2 setlinecap
10.0 ML
N
190.685 373 M
190.685 370.77 L
S
GR
GS
0.149 GC
2 setlinecap
10.0 ML
N
200.638 373 M
200.638 370.77 L
S
GR
GS
0.149 GC
2 setlinecap
10.0 ML
N
209.259 373 M
209.259 370.77 L
S
GR
GS
0.149 GC
2 setlinecap
10.0 ML
N
216.864 373 M
216.864 370.77 L
S
GR
GS
0.149 GC
2 setlinecap
10.0 ML
N
268.42 373 M
268.42 370.77 L
S
GR
GS
0.149 GC
2 setlinecap
10.0 ML
N
294.599 373 M
294.599 370.77 L
S
GR
GS
0.149 GC
2 setlinecap
10.0 ML
N
313.173 373 M
313.173 370.77 L
S
GR
GS
0.149 GC
2 setlinecap
10.0 ML
N
327.58 373 M
327.58 370.77 L
S
GR
GS
0.149 GC
2 setlinecap
10.0 ML
N
339.352 373 M
339.352 370.77 L
S
GR
GS
0.149 GC
2 setlinecap
10.0 ML
N
349.305 373 M
349.305 370.77 L
S
GR
GS
0.149 GC
2 setlinecap
10.0 ML
N
357.926 373 M
357.926 370.77 L
S
GR
GS
0.149 GC
2 setlinecap
10.0 ML
N
365.531 373 M
365.531 370.77 L
S
GR
GS
0.149 GC
2 setlinecap
10.0 ML
N
417.086 373 M
417.086 370.77 L
S
GR
GS
0.149 GC
2 setlinecap
10.0 ML
N
443.265 373 M
443.265 370.77 L
S
GR
GS
0.149 GC
2 setlinecap
10.0 ML
N
461.84 373 M
461.84 370.77 L
S
GR
GS
0.149 GC
2 setlinecap
10.0 ML
N
476.247 373 M
476.247 370.77 L
S
GR
GS
0.149 GC
2 setlinecap
10.0 ML
N
488.018 373 M
488.018 370.77 L
S
GR
GS
0.149 GC
2 setlinecap
10.0 ML
N
497.971 373 M
497.971 370.77 L
S
GR
GS
0.149 GC
2 setlinecap
10.0 ML
N
506.593 373 M
506.593 370.77 L
S
GR
GS
0.149 GC
2 setlinecap
10.0 ML
N
514.197 373 M
514.197 370.77 L
S
GR
GS
[1 0 0 1 298.00021 408.20001] CT
0.149 GC
/Helvetica 23 F
GS
[1 0 0 1 0 0] CT
-26 18 moveto 
1 -1 scale
(Error) t 
GR
GR
GS
0.149 GC
2 setlinecap
10.0 ML
N
75 373 M
521 373 L
S
GR
GS
0.149 GC
2 setlinecap
10.0 ML
N
75 373 M
75 368.54 L
S
GR
GS
0.149 GC
2 setlinecap
10.0 ML
N
223.667 373 M
223.667 368.54 L
S
GR
GS
0.149 GC
2 setlinecap
10.0 ML
N
372.333 373 M
372.333 368.54 L
S
GR
GS
0.149 GC
2 setlinecap
10.0 ML
N
521 373 M
521 368.54 L
S
GR
GS
[1 0 0 1 55 402] CT
0.149 GC
/Helvetica 21 F
GS
[1 0 0 1 0 0] CT
0 0 moveto 
1 -1 scale
(10) t 
GR
GR
GS
[1 0 0 1 79 392] CT
0.149 GC
/Helvetica 16 F
GS
[1 0 0 1 0 0] CT
0 0 moveto 
1 -1 scale
(-6) t 
GR
GR
GS
[1 0 0 1 204 402] CT
0.149 GC
/Helvetica 21 F
GS
[1 0 0 1 0 0] CT
0 0 moveto 
1 -1 scale
(10) t 
GR
GR
GS
[1 0 0 1 228 392] CT
0.149 GC
/Helvetica 16 F
GS
[1 0 0 1 0 0] CT
0 0 moveto 
1 -1 scale
(-5) t 
GR
GR
GS
[1 0 0 1 352 402] CT
0.149 GC
/Helvetica 21 F
GS
[1 0 0 1 0 0] CT
0 0 moveto 
1 -1 scale
(10) t 
GR
GR
GS
[1 0 0 1 376 392] CT
0.149 GC
/Helvetica 16 F
GS
[1 0 0 1 0 0] CT
0 0 moveto 
1 -1 scale
(-4) t 
GR
GR
GS
[1 0 0 1 501 402] CT
0.149 GC
/Helvetica 21 F
GS
[1 0 0 1 0 0] CT
0 0 moveto 
1 -1 scale
(10) t 
GR
GR
GS
[1 0 0 1 525 392] CT
0.149 GC
/Helvetica 16 F
GS
[1 0 0 1 0 0] CT
0 0 moveto 
1 -1 scale
(-3) t 
GR
GR
GS
0.149 GC
2 setlinecap
10.0 ML
N
75 321.674 M
77.23 321.674 L
S
GR
GS
0.149 GC
2 setlinecap
10.0 ML
N
75 291.651 M
77.23 291.651 L
S
GR
GS
0.149 GC
2 setlinecap
10.0 ML
N
75 270.349 M
77.23 270.349 L
S
GR
GS
0.149 GC
2 setlinecap
10.0 ML
N
75 253.826 M
77.23 253.826 L
S
GR
GS
0.149 GC
2 setlinecap
10.0 ML
N
75 240.325 M
77.23 240.325 L
S
GR
GS
0.149 GC
2 setlinecap
10.0 ML
N
75 228.911 M
77.23 228.911 L
S
GR
GS
0.149 GC
2 setlinecap
10.0 ML
N
75 219.023 M
77.23 219.023 L
S
GR
GS
0.149 GC
2 setlinecap
10.0 ML
N
75 210.302 M
77.23 210.302 L
S
GR
GS
0.149 GC
2 setlinecap
10.0 ML
N
75 151.174 M
77.23 151.174 L
S
GR
GS
0.149 GC
2 setlinecap
10.0 ML
N
75 121.151 M
77.23 121.151 L
S
GR
GS
0.149 GC
2 setlinecap
10.0 ML
N
75 99.849 M
77.23 99.849 L
S
GR
GS
0.149 GC
2 setlinecap
10.0 ML
N
75 83.326 M
77.23 83.326 L
S
GR
GS
0.149 GC
2 setlinecap
10.0 ML
N
75 69.825 M
77.23 69.825 L
S
GR
GS
0.149 GC
2 setlinecap
10.0 ML
N
75 58.411 M
77.23 58.411 L
S
GR
GS
0.149 GC
2 setlinecap
10.0 ML
N
75 48.523 M
77.23 48.523 L
S
GR
GS
0.149 GC
2 setlinecap
10.0 ML
N
75 39.802 M
77.23 39.802 L
S
GR
GS
[0 -1 1 0 32.8 202.49983] CT
0.149 GC
/Helvetica 23 F
GS
[1 0 0 1 0 0] CT
-49.5 -6 moveto 
1 -1 scale
(Effectivity) t 
GR
GR
GS
0.149 GC
2 setlinecap
10.0 ML
N
75 373 M
75 32 L
S
GR
GS
0.149 GC
2 setlinecap
10.0 ML
N
75 373 M
79.46 373 L
S
GR
GS
0.149 GC
2 setlinecap
10.0 ML
N
75 202.5 M
79.46 202.5 L
S
GR
GS
0.149 GC
2 setlinecap
10.0 ML
N
75 32 M
79.46 32 L
S
GR
GS
[1 0 0 1 36 382] CT
0.149 GC
/Helvetica 21 F
GS
[1 0 0 1 0 0] CT
0 0 moveto 
1 -1 scale
(10) t 
GR
GR
GS
[1 0 0 1 60 372] CT
0.149 GC
/Helvetica 16 F
GS
[1 0 0 1 0 0] CT
0 0 moveto 
1 -1 scale
(3) t 
GR
GR
GS
[1 0 0 1 36 212] CT
0.149 GC
/Helvetica 21 F
GS
[1 0 0 1 0 0] CT
0 0 moveto 
1 -1 scale
(10) t 
GR
GR
GS
[1 0 0 1 60 202] CT
0.149 GC
/Helvetica 16 F
GS
[1 0 0 1 0 0] CT
0 0 moveto 
1 -1 scale
(4) t 
GR
GR
GS
[1 0 0 1 36 41] CT
0.149 GC
/Helvetica 21 F
GS
[1 0 0 1 0 0] CT
0 0 moveto 
1 -1 scale
(10) t 
GR
GR
GS
[1 0 0 1 60 31] CT
0.149 GC
/Helvetica 16 F
GS
[1 0 0 1 0 0] CT
0 0 moveto 
1 -1 scale
(5) t 
GR
GR
GS
0 0.447 0.741 RC
2 setlinecap
10.0 ML
2 LW
N
329.373 199.5 M
328.633 197.224 L
326.697 195.817 L
324.303 195.817 L
322.367 197.224 L
321.627 199.5 L
322.367 201.776 L
324.303 203.183 L
326.697 203.183 L
328.633 201.776 L
329.373 199.5 L
S
GR
GS
0 0.447 0.741 RC
2 setlinecap
10.0 ML
2 LW
N
408.373 281.5 M
407.633 279.224 L
405.697 277.817 L
403.303 277.817 L
401.367 279.224 L
400.627 281.5 L
401.367 283.776 L
403.303 285.183 L
405.697 285.183 L
407.633 283.776 L
408.373 281.5 L
S
GR
GS
0 0.447 0.741 RC
2 setlinecap
10.0 ML
2 LW
N
420.373 343.5 M
419.633 341.224 L
417.697 339.817 L
415.303 339.817 L
413.367 341.224 L
412.627 343.5 L
413.367 345.776 L
415.303 347.183 L
417.697 347.183 L
419.633 345.776 L
420.373 343.5 L
S
GR
GS
0 0.447 0.741 RC
2 setlinecap
10.0 ML
2 LW
N
359.373 246.5 M
358.633 244.224 L
356.697 242.817 L
354.303 242.817 L
352.367 244.224 L
351.627 246.5 L
352.367 248.776 L
354.303 250.183 L
356.697 250.183 L
358.633 248.776 L
359.373 246.5 L
S
GR
GS
0 0.447 0.741 RC
2 setlinecap
10.0 ML
2 LW
N
395.373 317.5 M
394.633 315.224 L
392.697 313.817 L
390.303 313.817 L
388.367 315.224 L
387.627 317.5 L
388.367 319.776 L
390.303 321.183 L
392.697 321.183 L
394.633 319.776 L
395.373 317.5 L
S
GR
GS
0 0.447 0.741 RC
2 setlinecap
10.0 ML
2 LW
N
422.373 311.5 M
421.633 309.224 L
419.697 307.817 L
417.303 307.817 L
415.367 309.224 L
414.627 311.5 L
415.367 313.776 L
417.303 315.183 L
419.697 315.183 L
421.633 313.776 L
422.373 311.5 L
S
GR
GS
0 0.447 0.741 RC
2 setlinecap
10.0 ML
2 LW
N
294.373 176.5 M
293.633 174.224 L
291.697 172.817 L
289.303 172.817 L
287.367 174.224 L
286.627 176.5 L
287.367 178.776 L
289.303 180.183 L
291.697 180.183 L
293.633 178.776 L
294.373 176.5 L
S
GR
GS
0 0.447 0.741 RC
2 setlinecap
10.0 ML
2 LW
N
386.373 288.5 M
385.633 286.224 L
383.697 284.817 L
381.303 284.817 L
379.367 286.224 L
378.627 288.5 L
379.367 290.776 L
381.303 292.183 L
383.697 292.183 L
385.633 290.776 L
386.373 288.5 L
S
GR
GS
0 0.447 0.741 RC
2 setlinecap
10.0 ML
2 LW
N
376.373 230.5 M
375.633 228.224 L
373.697 226.817 L
371.303 226.817 L
369.367 228.224 L
368.627 230.5 L
369.367 232.776 L
371.303 234.183 L
373.697 234.183 L
375.633 232.776 L
376.373 230.5 L
S
GR
GS
0 0.447 0.741 RC
2 setlinecap
10.0 ML
2 LW
N
402.373 343.5 M
401.633 341.224 L
399.697 339.817 L
397.303 339.817 L
395.367 341.224 L
394.627 343.5 L
395.367 345.776 L
397.303 347.183 L
399.697 347.183 L
401.633 345.776 L
402.373 343.5 L
S
GR
GS
0 0.447 0.741 RC
2 setlinecap
10.0 ML
2 LW
N
416.373 343.5 M
415.633 341.224 L
413.697 339.817 L
411.303 339.817 L
409.367 341.224 L
408.627 343.5 L
409.367 345.776 L
411.303 347.183 L
413.697 347.183 L
415.633 345.776 L
416.373 343.5 L
S
GR
GS
0 0.447 0.741 RC
2 setlinecap
10.0 ML
2 LW
N
408.373 303.5 M
407.633 301.224 L
405.697 299.817 L
403.303 299.817 L
401.367 301.224 L
400.627 303.5 L
401.367 305.776 L
403.303 307.183 L
405.697 307.183 L
407.633 305.776 L
408.373 303.5 L
S
GR
GS
0 0.447 0.741 RC
2 setlinecap
10.0 ML
2 LW
N
306.373 125.5 M
305.633 123.224 L
303.697 121.817 L
301.303 121.817 L
299.367 123.224 L
298.627 125.5 L
299.367 127.776 L
301.303 129.183 L
303.697 129.183 L
305.633 127.776 L
306.373 125.5 L
S
GR
GS
0 0.447 0.741 RC
2 setlinecap
10.0 ML
2 LW
N
374.373 278.5 M
373.633 276.224 L
371.697 274.817 L
369.303 274.817 L
367.367 276.224 L
366.627 278.5 L
367.367 280.776 L
369.303 282.183 L
371.697 282.183 L
373.633 280.776 L
374.373 278.5 L
S
GR
GS
0 0.447 0.741 RC
2 setlinecap
10.0 ML
2 LW
N
433.373 320.5 M
432.633 318.224 L
430.697 316.817 L
428.303 316.817 L
426.367 318.224 L
425.627 320.5 L
426.367 322.776 L
428.303 324.183 L
430.697 324.183 L
432.633 322.776 L
433.373 320.5 L
S
GR
GS
0 0.447 0.741 RC
2 setlinecap
10.0 ML
2 LW
N
364.373 276.5 M
363.633 274.224 L
361.697 272.817 L
359.303 272.817 L
357.367 274.224 L
356.627 276.5 L
357.367 278.776 L
359.303 280.183 L
361.697 280.183 L
363.633 278.776 L
364.373 276.5 L
S
GR
GS
0 0.447 0.741 RC
2 setlinecap
10.0 ML
2 LW
N
402.373 351.5 M
401.633 349.224 L
399.697 347.817 L
397.303 347.817 L
395.367 349.224 L
394.627 351.5 L
395.367 353.776 L
397.303 355.183 L
399.697 355.183 L
401.633 353.776 L
402.373 351.5 L
S
GR
GS
0 0.447 0.741 RC
2 setlinecap
10.0 ML
2 LW
N
411.373 348.5 M
410.633 346.224 L
408.697 344.817 L
406.303 344.817 L
404.367 346.224 L
403.627 348.5 L
404.367 350.776 L
406.303 352.183 L
408.697 352.183 L
410.633 350.776 L
411.373 348.5 L
S
GR
GS
0 0.447 0.741 RC
2 setlinecap
10.0 ML
2 LW
N
445.373 338.5 M
444.633 336.224 L
442.697 334.817 L
440.303 334.817 L
438.367 336.224 L
437.627 338.5 L
438.367 340.776 L
440.303 342.183 L
442.697 342.183 L
444.633 340.776 L
445.373 338.5 L
S
GR
GS
0 0.447 0.741 RC
2 setlinecap
10.0 ML
2 LW
N
382.373 264.5 M
381.633 262.224 L
379.697 260.817 L
377.303 260.817 L
375.367 262.224 L
374.627 264.5 L
375.367 266.776 L
377.303 268.183 L
379.697 268.183 L
381.633 266.776 L
382.373 264.5 L
S
GR
GS
0 0.447 0.741 RC
2 setlinecap
10.0 ML
2 LW
N
372.373 313.5 M
371.633 311.224 L
369.697 309.817 L
367.303 309.817 L
365.367 311.224 L
364.627 313.5 L
365.367 315.776 L
367.303 317.183 L
369.697 317.183 L
371.633 315.776 L
372.373 313.5 L
S
GR
GS
0 0.447 0.741 RC
2 setlinecap
10.0 ML
2 LW
N
411.373 345.5 M
410.633 343.224 L
408.697 341.817 L
406.303 341.817 L
404.367 343.224 L
403.627 345.5 L
404.367 347.776 L
406.303 349.183 L
408.697 349.183 L
410.633 347.776 L
411.373 345.5 L
S
GR
GS
0 0.447 0.741 RC
2 setlinecap
10.0 ML
2 LW
N
313.373 212.5 M
312.633 210.224 L
310.697 208.817 L
308.303 208.817 L
306.367 210.224 L
305.627 212.5 L
306.367 214.776 L
308.303 216.183 L
310.697 216.183 L
312.633 214.776 L
313.373 212.5 L
S
GR
GS
0 0.447 0.741 RC
2 setlinecap
10.0 ML
2 LW
N
413.373 306.5 M
412.633 304.224 L
410.697 302.817 L
408.303 302.817 L
406.367 304.224 L
405.627 306.5 L
406.367 308.776 L
408.303 310.183 L
410.697 310.183 L
412.633 308.776 L
413.373 306.5 L
S
GR
GS
0 0.447 0.741 RC
2 setlinecap
10.0 ML
2 LW
N
354.373 277.5 M
353.633 275.224 L
351.697 273.817 L
349.303 273.817 L
347.367 275.224 L
346.627 277.5 L
347.367 279.776 L
349.303 281.183 L
351.697 281.183 L
353.633 279.776 L
354.373 277.5 L
S
GR
GS
0 0.447 0.741 RC
2 setlinecap
10.0 ML
2 LW
N
405.373 276.5 M
404.633 274.224 L
402.697 272.817 L
400.303 272.817 L
398.367 274.224 L
397.627 276.5 L
398.367 278.776 L
400.303 280.183 L
402.697 280.183 L
404.633 278.776 L
405.373 276.5 L
S
GR
GS
0 0.447 0.741 RC
2 setlinecap
10.0 ML
2 LW
N
401.373 347.5 M
400.633 345.224 L
398.697 343.817 L
396.303 343.817 L
394.367 345.224 L
393.627 347.5 L
394.367 349.776 L
396.303 351.183 L
398.697 351.183 L
400.633 349.776 L
401.373 347.5 L
S
GR
GS
0 0.447 0.741 RC
2 setlinecap
10.0 ML
2 LW
N
423.373 292.5 M
422.633 290.224 L
420.697 288.817 L
418.303 288.817 L
416.367 290.224 L
415.627 292.5 L
416.367 294.776 L
418.303 296.183 L
420.697 296.183 L
422.633 294.776 L
423.373 292.5 L
S
GR
GS
0 0.447 0.741 RC
2 setlinecap
10.0 ML
2 LW
N
399.373 340.5 M
398.633 338.224 L
396.697 336.817 L
394.303 336.817 L
392.367 338.224 L
391.627 340.5 L
392.367 342.776 L
394.303 344.183 L
396.697 344.183 L
398.633 342.776 L
399.373 340.5 L
S
GR
GS
0 0.447 0.741 RC
2 setlinecap
10.0 ML
2 LW
N
412.373 316.5 M
411.633 314.224 L
409.697 312.817 L
407.303 312.817 L
405.367 314.224 L
404.627 316.5 L
405.367 318.776 L
407.303 320.183 L
409.697 320.183 L
411.633 318.776 L
412.373 316.5 L
S
GR
GS
0 0.447 0.741 RC
2 setlinecap
10.0 ML
2 LW
N
376.373 286.5 M
375.633 284.224 L
373.697 282.817 L
371.303 282.817 L
369.367 284.224 L
368.627 286.5 L
369.367 288.776 L
371.303 290.183 L
373.697 290.183 L
375.633 288.776 L
376.373 286.5 L
S
GR
GS
0 0.447 0.741 RC
2 setlinecap
10.0 ML
2 LW
N
406.373 286.5 M
405.633 284.224 L
403.697 282.817 L
401.303 282.817 L
399.367 284.224 L
398.627 286.5 L
399.367 288.776 L
401.303 290.183 L
403.697 290.183 L
405.633 288.776 L
406.373 286.5 L
S
GR
GS
0 0.447 0.741 RC
2 setlinecap
10.0 ML
2 LW
N
344.373 256.5 M
343.633 254.224 L
341.697 252.817 L
339.303 252.817 L
337.367 254.224 L
336.627 256.5 L
337.367 258.776 L
339.303 260.183 L
341.697 260.183 L
343.633 258.776 L
344.373 256.5 L
S
GR
GS
0 0.447 0.741 RC
2 setlinecap
10.0 ML
2 LW
N
321.373 216.5 M
320.633 214.224 L
318.697 212.817 L
316.303 212.817 L
314.367 214.224 L
313.627 216.5 L
314.367 218.776 L
316.303 220.183 L
318.697 220.183 L
320.633 218.776 L
321.373 216.5 L
S
GR
GS
0 0.447 0.741 RC
2 setlinecap
10.0 ML
2 LW
N
399.373 317.5 M
398.633 315.224 L
396.697 313.817 L
394.303 313.817 L
392.367 315.224 L
391.627 317.5 L
392.367 319.776 L
394.303 321.183 L
396.697 321.183 L
398.633 319.776 L
399.373 317.5 L
S
GR
GS
0 0.447 0.741 RC
2 setlinecap
10.0 ML
2 LW
N
362.373 239.5 M
361.633 237.224 L
359.697 235.817 L
357.303 235.817 L
355.367 237.224 L
354.627 239.5 L
355.367 241.776 L
357.303 243.183 L
359.697 243.183 L
361.633 241.776 L
362.373 239.5 L
S
GR
GS
0 0.447 0.741 RC
2 setlinecap
10.0 ML
2 LW
N
333.373 224.5 M
332.633 222.224 L
330.697 220.817 L
328.303 220.817 L
326.367 222.224 L
325.627 224.5 L
326.367 226.776 L
328.303 228.183 L
330.697 228.183 L
332.633 226.776 L
333.373 224.5 L
S
GR
GS
0 0.447 0.741 RC
2 setlinecap
10.0 ML
2 LW
N
405.373 306.5 M
404.633 304.224 L
402.697 302.817 L
400.303 302.817 L
398.367 304.224 L
397.627 306.5 L
398.367 308.776 L
400.303 310.183 L
402.697 310.183 L
404.633 308.776 L
405.373 306.5 L
S
GR
GS
0 0.447 0.741 RC
2 setlinecap
10.0 ML
2 LW
N
343.373 257.5 M
342.633 255.224 L
340.697 253.817 L
338.303 253.817 L
336.367 255.224 L
335.627 257.5 L
336.367 259.776 L
338.303 261.183 L
340.697 261.183 L
342.633 259.776 L
343.373 257.5 L
S
GR
GS
0 0.447 0.741 RC
2 setlinecap
10.0 ML
2 LW
N
408.373 331.5 M
407.633 329.224 L
405.697 327.817 L
403.303 327.817 L
401.367 329.224 L
400.627 331.5 L
401.367 333.776 L
403.303 335.183 L
405.697 335.183 L
407.633 333.776 L
408.373 331.5 L
S
GR
GS
0 0.447 0.741 RC
2 setlinecap
10.0 ML
2 LW
N
383.373 316.5 M
382.633 314.224 L
380.697 312.817 L
378.303 312.817 L
376.367 314.224 L
375.627 316.5 L
376.367 318.776 L
378.303 320.183 L
380.697 320.183 L
382.633 318.776 L
383.373 316.5 L
S
GR
GS
0 0.447 0.741 RC
2 setlinecap
10.0 ML
2 LW
N
335.373 206.5 M
334.633 204.224 L
332.697 202.817 L
330.303 202.817 L
328.367 204.224 L
327.627 206.5 L
328.367 208.776 L
330.303 210.183 L
332.697 210.183 L
334.633 208.776 L
335.373 206.5 L
S
GR
GS
0 0.447 0.741 RC
2 setlinecap
10.0 ML
2 LW
N
345.373 257.5 M
344.633 255.224 L
342.697 253.817 L
340.303 253.817 L
338.367 255.224 L
337.627 257.5 L
338.367 259.776 L
340.303 261.183 L
342.697 261.183 L
344.633 259.776 L
345.373 257.5 L
S
GR
GS
0 0.447 0.741 RC
2 setlinecap
10.0 ML
2 LW
N
427.373 313.5 M
426.633 311.224 L
424.697 309.817 L
422.303 309.817 L
420.367 311.224 L
419.627 313.5 L
420.367 315.776 L
422.303 317.183 L
424.697 317.183 L
426.633 315.776 L
427.373 313.5 L
S
GR
GS
0 0.447 0.741 RC
2 setlinecap
10.0 ML
2 LW
N
405.373 334.5 M
404.633 332.224 L
402.697 330.817 L
400.303 330.817 L
398.367 332.224 L
397.627 334.5 L
398.367 336.776 L
400.303 338.183 L
402.697 338.183 L
404.633 336.776 L
405.373 334.5 L
S
GR
GS
0 0.447 0.741 RC
2 setlinecap
10.0 ML
2 LW
N
408.373 347.5 M
407.633 345.224 L
405.697 343.817 L
403.303 343.817 L
401.367 345.224 L
400.627 347.5 L
401.367 349.776 L
403.303 351.183 L
405.697 351.183 L
407.633 349.776 L
408.373 347.5 L
S
GR
GS
0 0.447 0.741 RC
2 setlinecap
10.0 ML
2 LW
N
293.373 188.5 M
292.633 186.224 L
290.697 184.817 L
288.303 184.817 L
286.367 186.224 L
285.627 188.5 L
286.367 190.776 L
288.303 192.183 L
290.697 192.183 L
292.633 190.776 L
293.373 188.5 L
S
GR
GS
0 0.447 0.741 RC
2 setlinecap
10.0 ML
2 LW
N
320.373 189.5 M
319.633 187.224 L
317.697 185.817 L
315.303 185.817 L
313.367 187.224 L
312.627 189.5 L
313.367 191.776 L
315.303 193.183 L
317.697 193.183 L
319.633 191.776 L
320.373 189.5 L
S
GR
GS
0 0.447 0.741 RC
2 setlinecap
10.0 ML
2 LW
N
364.373 304.5 M
363.633 302.224 L
361.697 300.817 L
359.303 300.817 L
357.367 302.224 L
356.627 304.5 L
357.367 306.776 L
359.303 308.183 L
361.697 308.183 L
363.633 306.776 L
364.373 304.5 L
S
GR
GS
0 0.447 0.741 RC
2 setlinecap
10.0 ML
2 LW
N
404.373 328.5 M
403.633 326.224 L
401.697 324.817 L
399.303 324.817 L
397.367 326.224 L
396.627 328.5 L
397.367 330.776 L
399.303 332.183 L
401.697 332.183 L
403.633 330.776 L
404.373 328.5 L
S
GR
GS
0 0.447 0.741 RC
2 setlinecap
10.0 ML
2 LW
N
370.373 250.5 M
369.633 248.224 L
367.697 246.817 L
365.303 246.817 L
363.367 248.224 L
362.627 250.5 L
363.367 252.776 L
365.303 254.183 L
367.697 254.183 L
369.633 252.776 L
370.373 250.5 L
S
GR
GS
0 0.447 0.741 RC
2 setlinecap
10.0 ML
2 LW
N
350.373 248.5 M
349.633 246.224 L
347.697 244.817 L
345.303 244.817 L
343.367 246.224 L
342.627 248.5 L
343.367 250.776 L
345.303 252.183 L
347.697 252.183 L
349.633 250.776 L
350.373 248.5 L
S
GR
GS
0 0.447 0.741 RC
2 setlinecap
10.0 ML
2 LW
N
337.373 242.5 M
336.633 240.224 L
334.697 238.817 L
332.303 238.817 L
330.367 240.224 L
329.627 242.5 L
330.367 244.776 L
332.303 246.183 L
334.697 246.183 L
336.633 244.776 L
337.373 242.5 L
S
GR
GS
0 0.447 0.741 RC
2 setlinecap
10.0 ML
2 LW
N
396.373 307.5 M
395.633 305.224 L
393.697 303.817 L
391.303 303.817 L
389.367 305.224 L
388.627 307.5 L
389.367 309.776 L
391.303 311.183 L
393.697 311.183 L
395.633 309.776 L
396.373 307.5 L
S
GR
GS
0 0.447 0.741 RC
2 setlinecap
10.0 ML
2 LW
N
308.373 211.5 M
307.633 209.224 L
305.697 207.817 L
303.303 207.817 L
301.367 209.224 L
300.627 211.5 L
301.367 213.776 L
303.303 215.183 L
305.697 215.183 L
307.633 213.776 L
308.373 211.5 L
S
GR
GS
0 0.447 0.741 RC
2 setlinecap
10.0 ML
2 LW
N
220.373 81.5 M
219.633 79.224 L
217.697 77.817 L
215.303 77.817 L
213.367 79.224 L
212.627 81.5 L
213.367 83.776 L
215.303 85.183 L
217.697 85.183 L
219.633 83.776 L
220.373 81.5 L
S
GR
GS
0 0.447 0.741 RC
2 setlinecap
10.0 ML
2 LW
N
413.373 330.5 M
412.633 328.224 L
410.697 326.817 L
408.303 326.817 L
406.367 328.224 L
405.627 330.5 L
406.367 332.776 L
408.303 334.183 L
410.697 334.183 L
412.633 332.776 L
413.373 330.5 L
S
GR
GS
0 0.447 0.741 RC
2 setlinecap
10.0 ML
2 LW
N
368.373 240.5 M
367.633 238.224 L
365.697 236.817 L
363.303 236.817 L
361.367 238.224 L
360.627 240.5 L
361.367 242.776 L
363.303 244.183 L
365.697 244.183 L
367.633 242.776 L
368.373 240.5 L
S
GR
GS
0 0.447 0.741 RC
2 setlinecap
10.0 ML
2 LW
N
355.373 226.5 M
354.633 224.224 L
352.697 222.817 L
350.303 222.817 L
348.367 224.224 L
347.627 226.5 L
348.367 228.776 L
350.303 230.183 L
352.697 230.183 L
354.633 228.776 L
355.373 226.5 L
S
GR
GS
0 0.447 0.741 RC
2 setlinecap
10.0 ML
2 LW
N
440.373 340.5 M
439.633 338.224 L
437.697 336.817 L
435.303 336.817 L
433.367 338.224 L
432.627 340.5 L
433.367 342.776 L
435.303 344.183 L
437.697 344.183 L
439.633 342.776 L
440.373 340.5 L
S
GR
GS
0 0.447 0.741 RC
2 setlinecap
10.0 ML
2 LW
N
240.373 73.5 M
239.633 71.224 L
237.697 69.817 L
235.303 69.817 L
233.367 71.224 L
232.627 73.5 L
233.367 75.776 L
235.303 77.183 L
237.697 77.183 L
239.633 75.776 L
240.373 73.5 L
S
GR
GS
0 0.447 0.741 RC
2 setlinecap
10.0 ML
2 LW
N
411.373 327.5 M
410.633 325.224 L
408.697 323.817 L
406.303 323.817 L
404.367 325.224 L
403.627 327.5 L
404.367 329.776 L
406.303 331.183 L
408.697 331.183 L
410.633 329.776 L
411.373 327.5 L
S
GR
GS
0 0.447 0.741 RC
2 setlinecap
10.0 ML
2 LW
N
349.373 226.5 M
348.633 224.224 L
346.697 222.817 L
344.303 222.817 L
342.367 224.224 L
341.627 226.5 L
342.367 228.776 L
344.303 230.183 L
346.697 230.183 L
348.633 228.776 L
349.373 226.5 L
S
GR
GS
0 0.447 0.741 RC
2 setlinecap
10.0 ML
2 LW
N
421.373 305.5 M
420.633 303.224 L
418.697 301.817 L
416.303 301.817 L
414.367 303.224 L
413.627 305.5 L
414.367 307.776 L
416.303 309.183 L
418.697 309.183 L
420.633 307.776 L
421.373 305.5 L
S
GR
GS
0 0.447 0.741 RC
2 setlinecap
10.0 ML
2 LW
N
391.373 328.5 M
390.633 326.224 L
388.697 324.817 L
386.303 324.817 L
384.367 326.224 L
383.627 328.5 L
384.367 330.776 L
386.303 332.183 L
388.697 332.183 L
390.633 330.776 L
391.373 328.5 L
S
GR
GS
0 0.447 0.741 RC
2 setlinecap
10.0 ML
2 LW
N
364.373 286.5 M
363.633 284.224 L
361.697 282.817 L
359.303 282.817 L
357.367 284.224 L
356.627 286.5 L
357.367 288.776 L
359.303 290.183 L
361.697 290.183 L
363.633 288.776 L
364.373 286.5 L
S
GR
GS
0 0.447 0.741 RC
2 setlinecap
10.0 ML
2 LW
N
418.373 349.5 M
417.633 347.224 L
415.697 345.817 L
413.303 345.817 L
411.367 347.224 L
410.627 349.5 L
411.367 351.776 L
413.303 353.183 L
415.697 353.183 L
417.633 351.776 L
418.373 349.5 L
S
GR
GS
0 0.447 0.741 RC
2 setlinecap
10.0 ML
2 LW
N
354.373 228.5 M
353.633 226.224 L
351.697 224.817 L
349.303 224.817 L
347.367 226.224 L
346.627 228.5 L
347.367 230.776 L
349.303 232.183 L
351.697 232.183 L
353.633 230.776 L
354.373 228.5 L
S
GR
GS
0 0.447 0.741 RC
2 setlinecap
10.0 ML
2 LW
N
361.373 249.5 M
360.633 247.224 L
358.697 245.817 L
356.303 245.817 L
354.367 247.224 L
353.627 249.5 L
354.367 251.776 L
356.303 253.183 L
358.697 253.183 L
360.633 251.776 L
361.373 249.5 L
S
GR
GS
0 0.447 0.741 RC
2 setlinecap
10.0 ML
2 LW
N
331.373 258.5 M
330.633 256.224 L
328.697 254.817 L
326.303 254.817 L
324.367 256.224 L
323.627 258.5 L
324.367 260.776 L
326.303 262.183 L
328.697 262.183 L
330.633 260.776 L
331.373 258.5 L
S
GR
GS
0 0.447 0.741 RC
2 setlinecap
10.0 ML
2 LW
N
302.373 184.5 M
301.633 182.224 L
299.697 180.817 L
297.303 180.817 L
295.367 182.224 L
294.627 184.5 L
295.367 186.776 L
297.303 188.183 L
299.697 188.183 L
301.633 186.776 L
302.373 184.5 L
S
GR
GS
0 0.447 0.741 RC
2 setlinecap
10.0 ML
2 LW
N
417.373 337.5 M
416.633 335.224 L
414.697 333.817 L
412.303 333.817 L
410.367 335.224 L
409.627 337.5 L
410.367 339.776 L
412.303 341.183 L
414.697 341.183 L
416.633 339.776 L
417.373 337.5 L
S
GR
GS
0 0.447 0.741 RC
2 setlinecap
10.0 ML
2 LW
N
394.373 314.5 M
393.633 312.224 L
391.697 310.817 L
389.303 310.817 L
387.367 312.224 L
386.627 314.5 L
387.367 316.776 L
389.303 318.183 L
391.697 318.183 L
393.633 316.776 L
394.373 314.5 L
S
GR
GS
0 0.447 0.741 RC
2 setlinecap
10.0 ML
2 LW
N
402.373 348.5 M
401.633 346.224 L
399.697 344.817 L
397.303 344.817 L
395.367 346.224 L
394.627 348.5 L
395.367 350.776 L
397.303 352.183 L
399.697 352.183 L
401.633 350.776 L
402.373 348.5 L
S
GR
GS
0 0.447 0.741 RC
2 setlinecap
10.0 ML
2 LW
N
319.373 191.5 M
318.633 189.224 L
316.697 187.817 L
314.303 187.817 L
312.367 189.224 L
311.627 191.5 L
312.367 193.776 L
314.303 195.183 L
316.697 195.183 L
318.633 193.776 L
319.373 191.5 L
S
GR
GS
0 0.447 0.741 RC
2 setlinecap
10.0 ML
2 LW
N
364.373 280.5 M
363.633 278.224 L
361.697 276.817 L
359.303 276.817 L
357.367 278.224 L
356.627 280.5 L
357.367 282.776 L
359.303 284.183 L
361.697 284.183 L
363.633 282.776 L
364.373 280.5 L
S
GR
GS
0 0.447 0.741 RC
2 setlinecap
10.0 ML
2 LW
N
403.373 343.5 M
402.633 341.224 L
400.697 339.817 L
398.303 339.817 L
396.367 341.224 L
395.627 343.5 L
396.367 345.776 L
398.303 347.183 L
400.697 347.183 L
402.633 345.776 L
403.373 343.5 L
S
GR
GS
0 0.447 0.741 RC
2 setlinecap
10.0 ML
2 LW
N
362.373 243.5 M
361.633 241.224 L
359.697 239.817 L
357.303 239.817 L
355.367 241.224 L
354.627 243.5 L
355.367 245.776 L
357.303 247.183 L
359.697 247.183 L
361.633 245.776 L
362.373 243.5 L
S
GR
GS
0 0.447 0.741 RC
2 setlinecap
10.0 ML
2 LW
N
349.373 253.5 M
348.633 251.224 L
346.697 249.817 L
344.303 249.817 L
342.367 251.224 L
341.627 253.5 L
342.367 255.776 L
344.303 257.183 L
346.697 257.183 L
348.633 255.776 L
349.373 253.5 L
S
GR
GS
0 0.447 0.741 RC
2 setlinecap
10.0 ML
2 LW
N
377.373 315.5 M
376.633 313.224 L
374.697 311.817 L
372.303 311.817 L
370.367 313.224 L
369.627 315.5 L
370.367 317.776 L
372.303 319.183 L
374.697 319.183 L
376.633 317.776 L
377.373 315.5 L
S
GR
GS
0 0.447 0.741 RC
2 setlinecap
10.0 ML
2 LW
N
362.373 293.5 M
361.633 291.224 L
359.697 289.817 L
357.303 289.817 L
355.367 291.224 L
354.627 293.5 L
355.367 295.776 L
357.303 297.183 L
359.697 297.183 L
361.633 295.776 L
362.373 293.5 L
S
GR
GS
0 0.447 0.741 RC
2 setlinecap
10.0 ML
2 LW
N
429.373 347.5 M
428.633 345.224 L
426.697 343.817 L
424.303 343.817 L
422.367 345.224 L
421.627 347.5 L
422.367 349.776 L
424.303 351.183 L
426.697 351.183 L
428.633 349.776 L
429.373 347.5 L
S
GR
GS
0 0.447 0.741 RC
2 setlinecap
10.0 ML
2 LW
N
412.373 336.5 M
411.633 334.224 L
409.697 332.817 L
407.303 332.817 L
405.367 334.224 L
404.627 336.5 L
405.367 338.776 L
407.303 340.183 L
409.697 340.183 L
411.633 338.776 L
412.373 336.5 L
S
GR
GS
0 0.447 0.741 RC
2 setlinecap
10.0 ML
2 LW
N
392.373 318.5 M
391.633 316.224 L
389.697 314.817 L
387.303 314.817 L
385.367 316.224 L
384.627 318.5 L
385.367 320.776 L
387.303 322.183 L
389.697 322.183 L
391.633 320.776 L
392.373 318.5 L
S
GR
GS
0 0.447 0.741 RC
2 setlinecap
10.0 ML
2 LW
N
365.373 271.5 M
364.633 269.224 L
362.697 267.817 L
360.303 267.817 L
358.367 269.224 L
357.627 271.5 L
358.367 273.776 L
360.303 275.183 L
362.697 275.183 L
364.633 273.776 L
365.373 271.5 L
S
GR
GS
0 0.447 0.741 RC
2 setlinecap
10.0 ML
2 LW
N
426.373 295.5 M
425.633 293.224 L
423.697 291.817 L
421.303 291.817 L
419.367 293.224 L
418.627 295.5 L
419.367 297.776 L
421.303 299.183 L
423.697 299.183 L
425.633 297.776 L
426.373 295.5 L
S
GR
GS
0 0.447 0.741 RC
2 setlinecap
10.0 ML
2 LW
N
422.373 310.5 M
421.633 308.224 L
419.697 306.817 L
417.303 306.817 L
415.367 308.224 L
414.627 310.5 L
415.367 312.776 L
417.303 314.183 L
419.697 314.183 L
421.633 312.776 L
422.373 310.5 L
S
GR
GS
0 0.447 0.741 RC
2 setlinecap
10.0 ML
2 LW
N
446.373 339.5 M
445.633 337.224 L
443.697 335.817 L
441.303 335.817 L
439.367 337.224 L
438.627 339.5 L
439.367 341.776 L
441.303 343.183 L
443.697 343.183 L
445.633 341.776 L
446.373 339.5 L
S
GR
GS
0 0.447 0.741 RC
2 setlinecap
10.0 ML
2 LW
N
388.373 323.5 M
387.633 321.224 L
385.697 319.817 L
383.303 319.817 L
381.367 321.224 L
380.627 323.5 L
381.367 325.776 L
383.303 327.183 L
385.697 327.183 L
387.633 325.776 L
388.373 323.5 L
S
GR
GS
0 0.447 0.741 RC
2 setlinecap
10.0 ML
2 LW
N
423.373 300.5 M
422.633 298.224 L
420.697 296.817 L
418.303 296.817 L
416.367 298.224 L
415.627 300.5 L
416.367 302.776 L
418.303 304.183 L
420.697 304.183 L
422.633 302.776 L
423.373 300.5 L
S
GR
GS
0 0.447 0.741 RC
2 setlinecap
10.0 ML
2 LW
N
345.373 222.5 M
344.633 220.224 L
342.697 218.817 L
340.303 218.817 L
338.367 220.224 L
337.627 222.5 L
338.367 224.776 L
340.303 226.183 L
342.697 226.183 L
344.633 224.776 L
345.373 222.5 L
S
GR
GS
0 0.447 0.741 RC
2 setlinecap
10.0 ML
2 LW
N
402.373 271.5 M
401.633 269.224 L
399.697 267.817 L
397.303 267.817 L
395.367 269.224 L
394.627 271.5 L
395.367 273.776 L
397.303 275.183 L
399.697 275.183 L
401.633 273.776 L
402.373 271.5 L
S
GR
GS
0 0.447 0.741 RC
2 setlinecap
10.0 ML
2 LW
N
388.373 339.5 M
387.633 337.224 L
385.697 335.817 L
383.303 335.817 L
381.367 337.224 L
380.627 339.5 L
381.367 341.776 L
383.303 343.183 L
385.697 343.183 L
387.633 341.776 L
388.373 339.5 L
S
GR
GS
0 0.447 0.741 RC
2 setlinecap
10.0 ML
2 LW
N
389.373 309.5 M
388.633 307.224 L
386.697 305.817 L
384.303 305.817 L
382.367 307.224 L
381.627 309.5 L
382.367 311.776 L
384.303 313.183 L
386.697 313.183 L
388.633 311.776 L
389.373 309.5 L
S
GR
GS
0 0.447 0.741 RC
2 setlinecap
10.0 ML
2 LW
N
391.373 303.5 M
390.633 301.224 L
388.697 299.817 L
386.303 299.817 L
384.367 301.224 L
383.627 303.5 L
384.367 305.776 L
386.303 307.183 L
388.697 307.183 L
390.633 305.776 L
391.373 303.5 L
S
GR
GS
0 0.447 0.741 RC
2 setlinecap
10.0 ML
2 LW
N
406.373 347.5 M
405.633 345.224 L
403.697 343.817 L
401.303 343.817 L
399.367 345.224 L
398.627 347.5 L
399.367 349.776 L
401.303 351.183 L
403.697 351.183 L
405.633 349.776 L
406.373 347.5 L
S
GR
GS
0 0.447 0.741 RC
2 setlinecap
10.0 ML
2 LW
N
427.373 345.5 M
426.633 343.224 L
424.697 341.817 L
422.303 341.817 L
420.367 343.224 L
419.627 345.5 L
420.367 347.776 L
422.303 349.183 L
424.697 349.183 L
426.633 347.776 L
427.373 345.5 L
S
GR
GS
0 0.447 0.741 RC
2 setlinecap
10.0 ML
2 LW
N
349.373 294.5 M
348.633 292.224 L
346.697 290.817 L
344.303 290.817 L
342.367 292.224 L
341.627 294.5 L
342.367 296.776 L
344.303 298.183 L
346.697 298.183 L
348.633 296.776 L
349.373 294.5 L
S
GR
GS
0 0.447 0.741 RC
2 setlinecap
10.0 ML
2 LW
N
353.373 249.5 M
352.633 247.224 L
350.697 245.817 L
348.303 245.817 L
346.367 247.224 L
345.627 249.5 L
346.367 251.776 L
348.303 253.183 L
350.697 253.183 L
352.633 251.776 L
353.373 249.5 L
S
GR
GS
0 0.447 0.741 RC
2 setlinecap
10.0 ML
2 LW
N
354.373 291.5 M
353.633 289.224 L
351.697 287.817 L
349.303 287.817 L
347.367 289.224 L
346.627 291.5 L
347.367 293.776 L
349.303 295.183 L
351.697 295.183 L
353.633 293.776 L
354.373 291.5 L
S
GR
GS
[1 0 0 1 298.00031 26.22501] CT
/Helvetica 23 F
GS
[1 0 0 1 0 0] CT
-76.5 -6 moveto 
1 -1 scale
(Cost functional) t 
GR
GR
%%Trailer
%%BoundingBox: 9 0 539 429
%%Pages: 1
%%EOF
