%!PS-Adobe-3.0 EPSF-3.0
%%Creator: (MATLAB, The Mathworks, Inc. Version 8.5.0.197613 \(R2015a\). Operating System: Mac OS X)
%%Title: ./RBoptim-mParam_scat-adjoint55.eps
%%CreationDate: 2015-05-27T12:10:19
%%Pages: (atend)
%%BoundingBox: (atend)
%%LanguageLevel: 3
%%EndComments
%%BeginProlog
%%BeginResource: procset (Apache XML Graphics Std ProcSet) 1.2 0
%%Version: 1.2 0
%%Copyright: (Copyright 2001-2003,2010 The Apache Software Foundation. License terms: http://www.apache.org/licenses/LICENSE-2.0)
/bd{bind def}bind def
/ld{load def}bd
/GR/grestore ld
/M/moveto ld
/LJ/setlinejoin ld
/C/curveto ld
/f/fill ld
/LW/setlinewidth ld
/GC/setgray ld
/t/show ld
/N/newpath ld
/CT/concat ld
/cp/closepath ld
/S/stroke ld
/L/lineto ld
/CC/setcmykcolor ld
/A/ashow ld
/GS/gsave ld
/RC/setrgbcolor ld
/RM/rmoveto ld
/ML/setmiterlimit ld
/re {4 2 roll M
1 index 0 rlineto
0 exch rlineto
neg 0 rlineto
cp } bd
/_ctm matrix def
/_tm matrix def
/BT { _ctm currentmatrix pop matrix _tm copy pop 0 0 moveto } bd
/ET { _ctm setmatrix } bd
/iTm { _ctm setmatrix _tm concat } bd
/Tm { _tm astore pop iTm 0 0 moveto } bd
/ux 0.0 def
/uy 0.0 def
/F {
  /Tp exch def
  /Tf exch def
  Tf findfont Tp scalefont setfont
  /cf Tf def  /cs Tp def
} bd
/ULS {currentpoint /uy exch def /ux exch def} bd
/ULE {
  /Tcx currentpoint pop def
  gsave
  newpath
  cf findfont cs scalefont dup
  /FontMatrix get 0 get /Ts exch def /FontInfo get dup
  /UnderlinePosition get Ts mul /To exch def
  /UnderlineThickness get Ts mul /Tt exch def
  ux uy To add moveto  Tcx uy To add lineto
  Tt setlinewidth stroke
  grestore
} bd
/OLE {
  /Tcx currentpoint pop def
  gsave
  newpath
  cf findfont cs scalefont dup
  /FontMatrix get 0 get /Ts exch def /FontInfo get dup
  /UnderlinePosition get Ts mul /To exch def
  /UnderlineThickness get Ts mul /Tt exch def
  ux uy To add cs add moveto Tcx uy To add cs add lineto
  Tt setlinewidth stroke
  grestore
} bd
/SOE {
  /Tcx currentpoint pop def
  gsave
  newpath
  cf findfont cs scalefont dup
  /FontMatrix get 0 get /Ts exch def /FontInfo get dup
  /UnderlinePosition get Ts mul /To exch def
  /UnderlineThickness get Ts mul /Tt exch def
  ux uy To add cs 10 mul 26 idiv add moveto Tcx uy To add cs 10 mul 26 idiv add lineto
  Tt setlinewidth stroke
  grestore
} bd
/QT {
/Y22 exch store
/X22 exch store
/Y21 exch store
/X21 exch store
currentpoint
/Y21 load 2 mul add 3 div exch
/X21 load 2 mul add 3 div exch
/X21 load 2 mul /X22 load add 3 div
/Y21 load 2 mul /Y22 load add 3 div
/X22 load /Y22 load curveto
} bd
/SSPD {
dup length /d exch dict def
{
/v exch def
/k exch def
currentpagedevice k known {
/cpdv currentpagedevice k get def
v cpdv ne {
/upd false def
/nullv v type /nulltype eq def
/nullcpdv cpdv type /nulltype eq def
nullv nullcpdv or
{
/upd true def
} {
/sametype v type cpdv type eq def
sametype {
v type /arraytype eq {
/vlen v length def
/cpdvlen cpdv length def
vlen cpdvlen eq {
0 1 vlen 1 sub {
/i exch def
/obj v i get def
/cpdobj cpdv i get def
obj cpdobj ne {
/upd true def
exit
} if
} for
} {
/upd true def
} ifelse
} {
v type /dicttype eq {
v {
/dv exch def
/dk exch def
/cpddv cpdv dk get def
dv cpddv ne {
/upd true def
exit
} if
} forall
} {
/upd true def
} ifelse
} ifelse
} if
} ifelse
upd true eq {
d k v put
} if
} if
} if
} forall
d length 0 gt {
d setpagedevice
} if
} bd
%%EndResource
%%BeginResource: procset (Apache XML Graphics EPS ProcSet) 1.0 0
%%Version: 1.0 0
%%Copyright: (Copyright 2002-2003 The Apache Software Foundation. License terms: http://www.apache.org/licenses/LICENSE-2.0)
/BeginEPSF { %def
/b4_Inc_state save def         % Save state for cleanup
/dict_count countdictstack def % Count objects on dict stack
/op_count count 1 sub def      % Count objects on operand stack
userdict begin                 % Push userdict on dict stack
/showpage { } def              % Redefine showpage, { } = null proc
0 setgray 0 setlinecap         % Prepare graphics state
1 setlinewidth 0 setlinejoin
10 setmiterlimit [ ] 0 setdash newpath
/languagelevel where           % If level not equal to 1 then
{pop languagelevel             % set strokeadjust and
1 ne                           % overprint to their defaults.
{false setstrokeadjust false setoverprint
} if
} if
} bd
/EndEPSF { %def
count op_count sub {pop} repeat            % Clean up stacks
countdictstack dict_count sub {end} repeat
b4_Inc_state restore
} bd
%%EndResource
%FOPBeginFontDict
%%IncludeResource: font Courier-Bold
%%IncludeResource: font Helvetica
%%IncludeResource: font Courier-BoldOblique
%%IncludeResource: font Courier-Oblique
%%IncludeResource: font Times-Roman
%%IncludeResource: font Helvetica-BoldOblique
%%IncludeResource: font Helvetica-Bold
%%IncludeResource: font Helvetica-Oblique
%%IncludeResource: font Times-BoldItalic
%%IncludeResource: font Courier
%%IncludeResource: font Times-Italic
%%IncludeResource: font Times-Bold
%%IncludeResource: font Symbol
%%IncludeResource: font ZapfDingbats
%FOPEndFontDict
%%BeginResource: encoding WinAnsiEncoding
/WinAnsiEncoding [
/.notdef /.notdef /.notdef /.notdef /.notdef
/.notdef /.notdef /.notdef /.notdef /.notdef
/.notdef /.notdef /.notdef /.notdef /.notdef
/.notdef /.notdef /.notdef /.notdef /.notdef
/.notdef /.notdef /.notdef /.notdef /.notdef
/.notdef /.notdef /.notdef /.notdef /.notdef
/.notdef /.notdef /space /exclam /quotedbl
/numbersign /dollar /percent /ampersand /quotesingle
/parenleft /parenright /asterisk /plus /comma
/hyphen /period /slash /zero /one
/two /three /four /five /six
/seven /eight /nine /colon /semicolon
/less /equal /greater /question /at
/A /B /C /D /E
/F /G /H /I /J
/K /L /M /N /O
/P /Q /R /S /T
/U /V /W /X /Y
/Z /bracketleft /backslash /bracketright /asciicircum
/underscore /quoteleft /a /b /c
/d /e /f /g /h
/i /j /k /l /m
/n /o /p /q /r
/s /t /u /v /w
/x /y /z /braceleft /bar
/braceright /asciitilde /bullet /Euro /bullet
/quotesinglbase /florin /quotedblbase /ellipsis /dagger
/daggerdbl /circumflex /perthousand /Scaron /guilsinglleft
/OE /bullet /Zcaron /bullet /bullet
/quoteleft /quoteright /quotedblleft /quotedblright /bullet
/endash /emdash /asciitilde /trademark /scaron
/guilsinglright /oe /bullet /zcaron /Ydieresis
/space /exclamdown /cent /sterling /currency
/yen /brokenbar /section /dieresis /copyright
/ordfeminine /guillemotleft /logicalnot /sfthyphen /registered
/macron /degree /plusminus /twosuperior /threesuperior
/acute /mu /paragraph /middot /cedilla
/onesuperior /ordmasculine /guillemotright /onequarter /onehalf
/threequarters /questiondown /Agrave /Aacute /Acircumflex
/Atilde /Adieresis /Aring /AE /Ccedilla
/Egrave /Eacute /Ecircumflex /Edieresis /Igrave
/Iacute /Icircumflex /Idieresis /Eth /Ntilde
/Ograve /Oacute /Ocircumflex /Otilde /Odieresis
/multiply /Oslash /Ugrave /Uacute /Ucircumflex
/Udieresis /Yacute /Thorn /germandbls /agrave
/aacute /acircumflex /atilde /adieresis /aring
/ae /ccedilla /egrave /eacute /ecircumflex
/edieresis /igrave /iacute /icircumflex /idieresis
/eth /ntilde /ograve /oacute /ocircumflex
/otilde /odieresis /divide /oslash /ugrave
/uacute /ucircumflex /udieresis /yacute /thorn
/ydieresis
] def
%%EndResource
%FOPBeginFontReencode
/Courier-Bold findfont
dup length dict begin
  {1 index /FID ne {def} {pop pop} ifelse} forall
  /Encoding WinAnsiEncoding def
  currentdict
end
/Courier-Bold exch definefont pop
/Helvetica findfont
dup length dict begin
  {1 index /FID ne {def} {pop pop} ifelse} forall
  /Encoding WinAnsiEncoding def
  currentdict
end
/Helvetica exch definefont pop
/Courier-BoldOblique findfont
dup length dict begin
  {1 index /FID ne {def} {pop pop} ifelse} forall
  /Encoding WinAnsiEncoding def
  currentdict
end
/Courier-BoldOblique exch definefont pop
/Courier-Oblique findfont
dup length dict begin
  {1 index /FID ne {def} {pop pop} ifelse} forall
  /Encoding WinAnsiEncoding def
  currentdict
end
/Courier-Oblique exch definefont pop
/Times-Roman findfont
dup length dict begin
  {1 index /FID ne {def} {pop pop} ifelse} forall
  /Encoding WinAnsiEncoding def
  currentdict
end
/Times-Roman exch definefont pop
/Helvetica-BoldOblique findfont
dup length dict begin
  {1 index /FID ne {def} {pop pop} ifelse} forall
  /Encoding WinAnsiEncoding def
  currentdict
end
/Helvetica-BoldOblique exch definefont pop
/Helvetica-Bold findfont
dup length dict begin
  {1 index /FID ne {def} {pop pop} ifelse} forall
  /Encoding WinAnsiEncoding def
  currentdict
end
/Helvetica-Bold exch definefont pop
/Helvetica-Oblique findfont
dup length dict begin
  {1 index /FID ne {def} {pop pop} ifelse} forall
  /Encoding WinAnsiEncoding def
  currentdict
end
/Helvetica-Oblique exch definefont pop
/Times-BoldItalic findfont
dup length dict begin
  {1 index /FID ne {def} {pop pop} ifelse} forall
  /Encoding WinAnsiEncoding def
  currentdict
end
/Times-BoldItalic exch definefont pop
/Courier findfont
dup length dict begin
  {1 index /FID ne {def} {pop pop} ifelse} forall
  /Encoding WinAnsiEncoding def
  currentdict
end
/Courier exch definefont pop
/Times-Italic findfont
dup length dict begin
  {1 index /FID ne {def} {pop pop} ifelse} forall
  /Encoding WinAnsiEncoding def
  currentdict
end
/Times-Italic exch definefont pop
/Times-Bold findfont
dup length dict begin
  {1 index /FID ne {def} {pop pop} ifelse} forall
  /Encoding WinAnsiEncoding def
  currentdict
end
/Times-Bold exch definefont pop
%FOPEndFontReencode
%%EndProlog
%%Page: 1 1
%%PageBoundingBox: 0 0 576 432
%%BeginPageSetup
[1 0 0 -1 0 432] CT
%%EndPageSetup
GS
1 GC
N
0 0 576 432 re
f
GR
GS
1 GC
N
0 0 576 432 re
f
GR
GS
1 GC
N
75 373 M
521 373 L
521 32 L
75 32 L
cp
f
GR
GS
0.149 GC
2 setlinecap
10.0 ML
N
119.753 373 M
119.753 370.77 L
S
GR
GS
0.149 GC
2 setlinecap
10.0 ML
N
145.932 373 M
145.932 370.77 L
S
GR
GS
0.149 GC
2 setlinecap
10.0 ML
N
164.506 373 M
164.506 370.77 L
S
GR
GS
0.149 GC
2 setlinecap
10.0 ML
N
178.914 373 M
178.914 370.77 L
S
GR
GS
0.149 GC
2 setlinecap
10.0 ML
N
190.685 373 M
190.685 370.77 L
S
GR
GS
0.149 GC
2 setlinecap
10.0 ML
N
200.638 373 M
200.638 370.77 L
S
GR
GS
0.149 GC
2 setlinecap
10.0 ML
N
209.259 373 M
209.259 370.77 L
S
GR
GS
0.149 GC
2 setlinecap
10.0 ML
N
216.864 373 M
216.864 370.77 L
S
GR
GS
0.149 GC
2 setlinecap
10.0 ML
N
268.42 373 M
268.42 370.77 L
S
GR
GS
0.149 GC
2 setlinecap
10.0 ML
N
294.599 373 M
294.599 370.77 L
S
GR
GS
0.149 GC
2 setlinecap
10.0 ML
N
313.173 373 M
313.173 370.77 L
S
GR
GS
0.149 GC
2 setlinecap
10.0 ML
N
327.58 373 M
327.58 370.77 L
S
GR
GS
0.149 GC
2 setlinecap
10.0 ML
N
339.352 373 M
339.352 370.77 L
S
GR
GS
0.149 GC
2 setlinecap
10.0 ML
N
349.305 373 M
349.305 370.77 L
S
GR
GS
0.149 GC
2 setlinecap
10.0 ML
N
357.926 373 M
357.926 370.77 L
S
GR
GS
0.149 GC
2 setlinecap
10.0 ML
N
365.531 373 M
365.531 370.77 L
S
GR
GS
0.149 GC
2 setlinecap
10.0 ML
N
417.086 373 M
417.086 370.77 L
S
GR
GS
0.149 GC
2 setlinecap
10.0 ML
N
443.265 373 M
443.265 370.77 L
S
GR
GS
0.149 GC
2 setlinecap
10.0 ML
N
461.84 373 M
461.84 370.77 L
S
GR
GS
0.149 GC
2 setlinecap
10.0 ML
N
476.247 373 M
476.247 370.77 L
S
GR
GS
0.149 GC
2 setlinecap
10.0 ML
N
488.018 373 M
488.018 370.77 L
S
GR
GS
0.149 GC
2 setlinecap
10.0 ML
N
497.971 373 M
497.971 370.77 L
S
GR
GS
0.149 GC
2 setlinecap
10.0 ML
N
506.593 373 M
506.593 370.77 L
S
GR
GS
0.149 GC
2 setlinecap
10.0 ML
N
514.197 373 M
514.197 370.77 L
S
GR
GS
[1 0 0 1 298.00021 408.20001] CT
0.149 GC
/Helvetica 23 F
GS
[1 0 0 1 0 0] CT
-26 18 moveto 
1 -1 scale
(Error) t 
GR
GR
GS
0.149 GC
2 setlinecap
10.0 ML
N
75 373 M
521 373 L
S
GR
GS
0.149 GC
2 setlinecap
10.0 ML
N
75 373 M
75 368.54 L
S
GR
GS
0.149 GC
2 setlinecap
10.0 ML
N
223.667 373 M
223.667 368.54 L
S
GR
GS
0.149 GC
2 setlinecap
10.0 ML
N
372.333 373 M
372.333 368.54 L
S
GR
GS
0.149 GC
2 setlinecap
10.0 ML
N
521 373 M
521 368.54 L
S
GR
GS
[1 0 0 1 51 402] CT
0.149 GC
/Helvetica 21 F
GS
[1 0 0 1 0 0] CT
0 0 moveto 
1 -1 scale
(10) t 
GR
GR
GS
[1 0 0 1 75 392] CT
0.149 GC
/Helvetica 16 F
GS
[1 0 0 1 0 0] CT
0 0 moveto 
1 -1 scale
(-11) t 
GR
GR
GS
[1 0 0 1 200 402] CT
0.149 GC
/Helvetica 21 F
GS
[1 0 0 1 0 0] CT
0 0 moveto 
1 -1 scale
(10) t 
GR
GR
GS
[1 0 0 1 224 392] CT
0.149 GC
/Helvetica 16 F
GS
[1 0 0 1 0 0] CT
0 0 moveto 
1 -1 scale
(-10) t 
GR
GR
GS
[1 0 0 1 352 402] CT
0.149 GC
/Helvetica 21 F
GS
[1 0 0 1 0 0] CT
0 0 moveto 
1 -1 scale
(10) t 
GR
GR
GS
[1 0 0 1 376 392] CT
0.149 GC
/Helvetica 16 F
GS
[1 0 0 1 0 0] CT
0 0 moveto 
1 -1 scale
(-9) t 
GR
GR
GS
[1 0 0 1 501 402] CT
0.149 GC
/Helvetica 21 F
GS
[1 0 0 1 0 0] CT
0 0 moveto 
1 -1 scale
(10) t 
GR
GR
GS
[1 0 0 1 525 392] CT
0.149 GC
/Helvetica 16 F
GS
[1 0 0 1 0 0] CT
0 0 moveto 
1 -1 scale
(-8) t 
GR
GR
GS
0.149 GC
2 setlinecap
10.0 ML
N
75 321.674 M
77.23 321.674 L
S
GR
GS
0.149 GC
2 setlinecap
10.0 ML
N
75 291.651 M
77.23 291.651 L
S
GR
GS
0.149 GC
2 setlinecap
10.0 ML
N
75 270.349 M
77.23 270.349 L
S
GR
GS
0.149 GC
2 setlinecap
10.0 ML
N
75 253.826 M
77.23 253.826 L
S
GR
GS
0.149 GC
2 setlinecap
10.0 ML
N
75 240.325 M
77.23 240.325 L
S
GR
GS
0.149 GC
2 setlinecap
10.0 ML
N
75 228.911 M
77.23 228.911 L
S
GR
GS
0.149 GC
2 setlinecap
10.0 ML
N
75 219.023 M
77.23 219.023 L
S
GR
GS
0.149 GC
2 setlinecap
10.0 ML
N
75 210.302 M
77.23 210.302 L
S
GR
GS
0.149 GC
2 setlinecap
10.0 ML
N
75 151.174 M
77.23 151.174 L
S
GR
GS
0.149 GC
2 setlinecap
10.0 ML
N
75 121.151 M
77.23 121.151 L
S
GR
GS
0.149 GC
2 setlinecap
10.0 ML
N
75 99.849 M
77.23 99.849 L
S
GR
GS
0.149 GC
2 setlinecap
10.0 ML
N
75 83.326 M
77.23 83.326 L
S
GR
GS
0.149 GC
2 setlinecap
10.0 ML
N
75 69.825 M
77.23 69.825 L
S
GR
GS
0.149 GC
2 setlinecap
10.0 ML
N
75 58.411 M
77.23 58.411 L
S
GR
GS
0.149 GC
2 setlinecap
10.0 ML
N
75 48.523 M
77.23 48.523 L
S
GR
GS
0.149 GC
2 setlinecap
10.0 ML
N
75 39.802 M
77.23 39.802 L
S
GR
GS
[0 -1 1 0 32.8 202.49983] CT
0.149 GC
/Helvetica 23 F
GS
[1 0 0 1 0 0] CT
-49.5 -6 moveto 
1 -1 scale
(Effectivity) t 
GR
GR
GS
0.149 GC
2 setlinecap
10.0 ML
N
75 373 M
75 32 L
S
GR
GS
0.149 GC
2 setlinecap
10.0 ML
N
75 373 M
79.46 373 L
S
GR
GS
0.149 GC
2 setlinecap
10.0 ML
N
75 202.5 M
79.46 202.5 L
S
GR
GS
0.149 GC
2 setlinecap
10.0 ML
N
75 32 M
79.46 32 L
S
GR
GS
[1 0 0 1 36 382] CT
0.149 GC
/Helvetica 21 F
GS
[1 0 0 1 0 0] CT
0 0 moveto 
1 -1 scale
(10) t 
GR
GR
GS
[1 0 0 1 60 372] CT
0.149 GC
/Helvetica 16 F
GS
[1 0 0 1 0 0] CT
0 0 moveto 
1 -1 scale
(3) t 
GR
GR
GS
[1 0 0 1 36 212] CT
0.149 GC
/Helvetica 21 F
GS
[1 0 0 1 0 0] CT
0 0 moveto 
1 -1 scale
(10) t 
GR
GR
GS
[1 0 0 1 60 202] CT
0.149 GC
/Helvetica 16 F
GS
[1 0 0 1 0 0] CT
0 0 moveto 
1 -1 scale
(4) t 
GR
GR
GS
[1 0 0 1 36 41] CT
0.149 GC
/Helvetica 21 F
GS
[1 0 0 1 0 0] CT
0 0 moveto 
1 -1 scale
(10) t 
GR
GR
GS
[1 0 0 1 60 31] CT
0.149 GC
/Helvetica 16 F
GS
[1 0 0 1 0 0] CT
0 0 moveto 
1 -1 scale
(5) t 
GR
GR
GS
0 0.447 0.741 RC
2 setlinecap
10.0 ML
2 LW
N
343.373 155.5 M
342.633 153.224 L
340.697 151.817 L
338.303 151.817 L
336.367 153.224 L
335.627 155.5 L
336.367 157.776 L
338.303 159.183 L
340.697 159.183 L
342.633 157.776 L
343.373 155.5 L
S
GR
GS
0 0.447 0.741 RC
2 setlinecap
10.0 ML
2 LW
N
266.373 186.5 M
265.633 184.224 L
263.697 182.817 L
261.303 182.817 L
259.367 184.224 L
258.627 186.5 L
259.367 188.776 L
261.303 190.183 L
263.697 190.183 L
265.633 188.776 L
266.373 186.5 L
S
GR
GS
0 0.447 0.741 RC
2 setlinecap
10.0 ML
2 LW
N
186.373 162.5 M
185.633 160.224 L
183.697 158.817 L
181.303 158.817 L
179.367 160.224 L
178.627 162.5 L
179.367 164.776 L
181.303 166.183 L
183.697 166.183 L
185.633 164.776 L
186.373 162.5 L
S
GR
GS
0 0.447 0.741 RC
2 setlinecap
10.0 ML
2 LW
N
244.373 190.5 M
243.633 188.224 L
241.697 186.817 L
239.303 186.817 L
237.367 188.224 L
236.627 190.5 L
237.367 192.776 L
239.303 194.183 L
241.697 194.183 L
243.633 192.776 L
244.373 190.5 L
S
GR
GS
0 0.447 0.741 RC
2 setlinecap
10.0 ML
2 LW
N
333.373 199.5 M
332.633 197.224 L
330.697 195.817 L
328.303 195.817 L
326.367 197.224 L
325.627 199.5 L
326.367 201.776 L
328.303 203.183 L
330.697 203.183 L
332.633 201.776 L
333.373 199.5 L
S
GR
GS
0 0.447 0.741 RC
2 setlinecap
10.0 ML
2 LW
N
216.373 159.5 M
215.633 157.224 L
213.697 155.817 L
211.303 155.817 L
209.367 157.224 L
208.627 159.5 L
209.367 161.776 L
211.303 163.183 L
213.697 163.183 L
215.633 161.776 L
216.373 159.5 L
S
GR
GS
0 0.447 0.741 RC
2 setlinecap
10.0 ML
2 LW
N
184.373 203.5 M
183.633 201.224 L
181.697 199.817 L
179.303 199.817 L
177.367 201.224 L
176.627 203.5 L
177.367 205.776 L
179.303 207.183 L
181.697 207.183 L
183.633 205.776 L
184.373 203.5 L
S
GR
GS
0 0.447 0.741 RC
2 setlinecap
10.0 ML
2 LW
N
319.373 132.5 M
318.633 130.224 L
316.697 128.817 L
314.303 128.817 L
312.367 130.224 L
311.627 132.5 L
312.367 134.776 L
314.303 136.183 L
316.697 136.183 L
318.633 134.776 L
319.373 132.5 L
S
GR
GS
0 0.447 0.741 RC
2 setlinecap
10.0 ML
2 LW
N
235.373 172.5 M
234.633 170.224 L
232.697 168.817 L
230.303 168.817 L
228.367 170.224 L
227.627 172.5 L
228.367 174.776 L
230.303 176.183 L
232.697 176.183 L
234.633 174.776 L
235.373 172.5 L
S
GR
GS
0 0.447 0.741 RC
2 setlinecap
10.0 ML
2 LW
N
245.373 182.5 M
244.633 180.224 L
242.697 178.817 L
240.303 178.817 L
238.367 180.224 L
237.627 182.5 L
238.367 184.776 L
240.303 186.183 L
242.697 186.183 L
244.633 184.776 L
245.373 182.5 L
S
GR
GS
0 0.447 0.741 RC
2 setlinecap
10.0 ML
2 LW
N
220.373 178.5 M
219.633 176.224 L
217.697 174.817 L
215.303 174.817 L
213.367 176.224 L
212.627 178.5 L
213.367 180.776 L
215.303 182.183 L
217.697 182.183 L
219.633 180.776 L
220.373 178.5 L
S
GR
GS
0 0.447 0.741 RC
2 setlinecap
10.0 ML
2 LW
N
226.373 205.5 M
225.633 203.224 L
223.697 201.817 L
221.303 201.817 L
219.367 203.224 L
218.627 205.5 L
219.367 207.776 L
221.303 209.183 L
223.697 209.183 L
225.633 207.776 L
226.373 205.5 L
S
GR
GS
0 0.447 0.741 RC
2 setlinecap
10.0 ML
2 LW
N
252.373 170.5 M
251.633 168.224 L
249.697 166.817 L
247.303 166.817 L
245.367 168.224 L
244.627 170.5 L
245.367 172.776 L
247.303 174.183 L
249.697 174.183 L
251.633 172.776 L
252.373 170.5 L
S
GR
GS
0 0.447 0.741 RC
2 setlinecap
10.0 ML
2 LW
N
233.373 220.5 M
232.633 218.224 L
230.697 216.817 L
228.303 216.817 L
226.367 218.224 L
225.627 220.5 L
226.367 222.776 L
228.303 224.183 L
230.697 224.183 L
232.633 222.776 L
233.373 220.5 L
S
GR
GS
0 0.447 0.741 RC
2 setlinecap
10.0 ML
2 LW
N
279.373 161.5 M
278.633 159.224 L
276.697 157.817 L
274.303 157.817 L
272.367 159.224 L
271.627 161.5 L
272.367 163.776 L
274.303 165.183 L
276.697 165.183 L
278.633 163.776 L
279.373 161.5 L
S
GR
GS
0 0.447 0.741 RC
2 setlinecap
10.0 ML
2 LW
N
232.373 205.5 M
231.633 203.224 L
229.697 201.817 L
227.303 201.817 L
225.367 203.224 L
224.627 205.5 L
225.367 207.776 L
227.303 209.183 L
229.697 209.183 L
231.633 207.776 L
232.373 205.5 L
S
GR
GS
0 0.447 0.741 RC
2 setlinecap
10.0 ML
2 LW
N
252.373 167.5 M
251.633 165.224 L
249.697 163.817 L
247.303 163.817 L
245.367 165.224 L
244.627 167.5 L
245.367 169.776 L
247.303 171.183 L
249.697 171.183 L
251.633 169.776 L
252.373 167.5 L
S
GR
GS
0 0.447 0.741 RC
2 setlinecap
10.0 ML
2 LW
N
212.373 192.5 M
211.633 190.224 L
209.697 188.817 L
207.303 188.817 L
205.367 190.224 L
204.627 192.5 L
205.367 194.776 L
207.303 196.183 L
209.697 196.183 L
211.633 194.776 L
212.373 192.5 L
S
GR
GS
0 0.447 0.741 RC
2 setlinecap
10.0 ML
2 LW
N
210.373 171.5 M
209.633 169.224 L
207.697 167.817 L
205.303 167.817 L
203.367 169.224 L
202.627 171.5 L
203.367 173.776 L
205.303 175.183 L
207.697 175.183 L
209.633 173.776 L
210.373 171.5 L
S
GR
GS
0 0.447 0.741 RC
2 setlinecap
10.0 ML
2 LW
N
337.373 192.5 M
336.633 190.224 L
334.697 188.817 L
332.303 188.817 L
330.367 190.224 L
329.627 192.5 L
330.367 194.776 L
332.303 196.183 L
334.697 196.183 L
336.633 194.776 L
337.373 192.5 L
S
GR
GS
0 0.447 0.741 RC
2 setlinecap
10.0 ML
2 LW
N
252.373 176.5 M
251.633 174.224 L
249.697 172.817 L
247.303 172.817 L
245.367 174.224 L
244.627 176.5 L
245.367 178.776 L
247.303 180.183 L
249.697 180.183 L
251.633 178.776 L
252.373 176.5 L
S
GR
GS
0 0.447 0.741 RC
2 setlinecap
10.0 ML
2 LW
N
223.373 190.5 M
222.633 188.224 L
220.697 186.817 L
218.303 186.817 L
216.367 188.224 L
215.627 190.5 L
216.367 192.776 L
218.303 194.183 L
220.697 194.183 L
222.633 192.776 L
223.373 190.5 L
S
GR
GS
0 0.447 0.741 RC
2 setlinecap
10.0 ML
2 LW
N
213.373 190.5 M
212.633 188.224 L
210.697 186.817 L
208.303 186.817 L
206.367 188.224 L
205.627 190.5 L
206.367 192.776 L
208.303 194.183 L
210.697 194.183 L
212.633 192.776 L
213.373 190.5 L
S
GR
GS
0 0.447 0.741 RC
2 setlinecap
10.0 ML
2 LW
N
210.373 198.5 M
209.633 196.224 L
207.697 194.817 L
205.303 194.817 L
203.367 196.224 L
202.627 198.5 L
203.367 200.776 L
205.303 202.183 L
207.697 202.183 L
209.633 200.776 L
210.373 198.5 L
S
GR
GS
0 0.447 0.741 RC
2 setlinecap
10.0 ML
2 LW
N
208.373 169.5 M
207.633 167.224 L
205.697 165.817 L
203.303 165.817 L
201.367 167.224 L
200.627 169.5 L
201.367 171.776 L
203.303 173.183 L
205.697 173.183 L
207.633 171.776 L
208.373 169.5 L
S
GR
GS
0 0.447 0.741 RC
2 setlinecap
10.0 ML
2 LW
N
305.373 183.5 M
304.633 181.224 L
302.697 179.817 L
300.303 179.817 L
298.367 181.224 L
297.627 183.5 L
298.367 185.776 L
300.303 187.183 L
302.697 187.183 L
304.633 185.776 L
305.373 183.5 L
S
GR
GS
0 0.447 0.741 RC
2 setlinecap
10.0 ML
2 LW
N
256.373 185.5 M
255.633 183.224 L
253.697 181.817 L
251.303 181.817 L
249.367 183.224 L
248.627 185.5 L
249.367 187.776 L
251.303 189.183 L
253.697 189.183 L
255.633 187.776 L
256.373 185.5 L
S
GR
GS
0 0.447 0.741 RC
2 setlinecap
10.0 ML
2 LW
N
208.373 155.5 M
207.633 153.224 L
205.697 151.817 L
203.303 151.817 L
201.367 153.224 L
200.627 155.5 L
201.367 157.776 L
203.303 159.183 L
205.697 159.183 L
207.633 157.776 L
208.373 155.5 L
S
GR
GS
0 0.447 0.741 RC
2 setlinecap
10.0 ML
2 LW
N
247.373 199.5 M
246.633 197.224 L
244.697 195.817 L
242.303 195.817 L
240.367 197.224 L
239.627 199.5 L
240.367 201.776 L
242.303 203.183 L
244.697 203.183 L
246.633 201.776 L
247.373 199.5 L
S
GR
GS
0 0.447 0.741 RC
2 setlinecap
10.0 ML
2 LW
N
247.373 254.5 M
246.633 252.224 L
244.697 250.817 L
242.303 250.817 L
240.367 252.224 L
239.627 254.5 L
240.367 256.776 L
242.303 258.183 L
244.697 258.183 L
246.633 256.776 L
247.373 254.5 L
S
GR
GS
0 0.447 0.741 RC
2 setlinecap
10.0 ML
2 LW
N
192.373 166.5 M
191.633 164.224 L
189.697 162.817 L
187.303 162.817 L
185.367 164.224 L
184.627 166.5 L
185.367 168.776 L
187.303 170.183 L
189.697 170.183 L
191.633 168.776 L
192.373 166.5 L
S
GR
GS
0 0.447 0.741 RC
2 setlinecap
10.0 ML
2 LW
N
231.373 192.5 M
230.633 190.224 L
228.697 188.817 L
226.303 188.817 L
224.367 190.224 L
223.627 192.5 L
224.367 194.776 L
226.303 196.183 L
228.697 196.183 L
230.633 194.776 L
231.373 192.5 L
S
GR
GS
0 0.447 0.741 RC
2 setlinecap
10.0 ML
2 LW
N
177.373 167.5 M
176.633 165.224 L
174.697 163.817 L
172.303 163.817 L
170.367 165.224 L
169.627 167.5 L
170.367 169.776 L
172.303 171.183 L
174.697 171.183 L
176.633 169.776 L
177.373 167.5 L
S
GR
GS
0 0.447 0.741 RC
2 setlinecap
10.0 ML
2 LW
N
234.373 206.5 M
233.633 204.224 L
231.697 202.817 L
229.303 202.817 L
227.367 204.224 L
226.627 206.5 L
227.367 208.776 L
229.303 210.183 L
231.697 210.183 L
233.633 208.776 L
234.373 206.5 L
S
GR
GS
0 0.447 0.741 RC
2 setlinecap
10.0 ML
2 LW
N
218.373 163.5 M
217.633 161.224 L
215.697 159.817 L
213.303 159.817 L
211.367 161.224 L
210.627 163.5 L
211.367 165.776 L
213.303 167.183 L
215.697 167.183 L
217.633 165.776 L
218.373 163.5 L
S
GR
GS
0 0.447 0.741 RC
2 setlinecap
10.0 ML
2 LW
N
323.373 173.5 M
322.633 171.224 L
320.697 169.817 L
318.303 169.817 L
316.367 171.224 L
315.627 173.5 L
316.367 175.776 L
318.303 177.183 L
320.697 177.183 L
322.633 175.776 L
323.373 173.5 L
S
GR
GS
0 0.447 0.741 RC
2 setlinecap
10.0 ML
2 LW
N
315.373 153.5 M
314.633 151.224 L
312.697 149.817 L
310.303 149.817 L
308.367 151.224 L
307.627 153.5 L
308.367 155.776 L
310.303 157.183 L
312.697 157.183 L
314.633 155.776 L
315.373 153.5 L
S
GR
GS
0 0.447 0.741 RC
2 setlinecap
10.0 ML
2 LW
N
244.373 202.5 M
243.633 200.224 L
241.697 198.817 L
239.303 198.817 L
237.367 200.224 L
236.627 202.5 L
237.367 204.776 L
239.303 206.183 L
241.697 206.183 L
243.633 204.776 L
244.373 202.5 L
S
GR
GS
0 0.447 0.741 RC
2 setlinecap
10.0 ML
2 LW
N
174.373 146.5 M
173.633 144.224 L
171.697 142.817 L
169.303 142.817 L
167.367 144.224 L
166.627 146.5 L
167.367 148.776 L
169.303 150.183 L
171.697 150.183 L
173.633 148.776 L
174.373 146.5 L
S
GR
GS
0 0.447 0.741 RC
2 setlinecap
10.0 ML
2 LW
N
226.373 188.5 M
225.633 186.224 L
223.697 184.817 L
221.303 184.817 L
219.367 186.224 L
218.627 188.5 L
219.367 190.776 L
221.303 192.183 L
223.697 192.183 L
225.633 190.776 L
226.373 188.5 L
S
GR
GS
0 0.447 0.741 RC
2 setlinecap
10.0 ML
2 LW
N
226.373 202.5 M
225.633 200.224 L
223.697 198.817 L
221.303 198.817 L
219.367 200.224 L
218.627 202.5 L
219.367 204.776 L
221.303 206.183 L
223.697 206.183 L
225.633 204.776 L
226.373 202.5 L
S
GR
GS
0 0.447 0.741 RC
2 setlinecap
10.0 ML
2 LW
N
205.373 171.5 M
204.633 169.224 L
202.697 167.817 L
200.303 167.817 L
198.367 169.224 L
197.627 171.5 L
198.367 173.776 L
200.303 175.183 L
202.697 175.183 L
204.633 173.776 L
205.373 171.5 L
S
GR
GS
0 0.447 0.741 RC
2 setlinecap
10.0 ML
2 LW
N
382.373 187.5 M
381.633 185.224 L
379.697 183.817 L
377.303 183.817 L
375.367 185.224 L
374.627 187.5 L
375.367 189.776 L
377.303 191.183 L
379.697 191.183 L
381.633 189.776 L
382.373 187.5 L
S
GR
GS
0 0.447 0.741 RC
2 setlinecap
10.0 ML
2 LW
N
198.373 184.5 M
197.633 182.224 L
195.697 180.817 L
193.303 180.817 L
191.367 182.224 L
190.627 184.5 L
191.367 186.776 L
193.303 188.183 L
195.697 188.183 L
197.633 186.776 L
198.373 184.5 L
S
GR
GS
0 0.447 0.741 RC
2 setlinecap
10.0 ML
2 LW
N
209.373 151.5 M
208.633 149.224 L
206.697 147.817 L
204.303 147.817 L
202.367 149.224 L
201.627 151.5 L
202.367 153.776 L
204.303 155.183 L
206.697 155.183 L
208.633 153.776 L
209.373 151.5 L
S
GR
GS
0 0.447 0.741 RC
2 setlinecap
10.0 ML
2 LW
N
313.373 196.5 M
312.633 194.224 L
310.697 192.817 L
308.303 192.817 L
306.367 194.224 L
305.627 196.5 L
306.367 198.776 L
308.303 200.183 L
310.697 200.183 L
312.633 198.776 L
313.373 196.5 L
S
GR
GS
0 0.447 0.741 RC
2 setlinecap
10.0 ML
2 LW
N
204.373 161.5 M
203.633 159.224 L
201.697 157.817 L
199.303 157.817 L
197.367 159.224 L
196.627 161.5 L
197.367 163.776 L
199.303 165.183 L
201.697 165.183 L
203.633 163.776 L
204.373 161.5 L
S
GR
GS
0 0.447 0.741 RC
2 setlinecap
10.0 ML
2 LW
N
195.373 186.5 M
194.633 184.224 L
192.697 182.817 L
190.303 182.817 L
188.367 184.224 L
187.627 186.5 L
188.367 188.776 L
190.303 190.183 L
192.697 190.183 L
194.633 188.776 L
195.373 186.5 L
S
GR
GS
0 0.447 0.741 RC
2 setlinecap
10.0 ML
2 LW
N
331.373 182.5 M
330.633 180.224 L
328.697 178.817 L
326.303 178.817 L
324.367 180.224 L
323.627 182.5 L
324.367 184.776 L
326.303 186.183 L
328.697 186.183 L
330.633 184.776 L
331.373 182.5 L
S
GR
GS
0 0.447 0.741 RC
2 setlinecap
10.0 ML
2 LW
N
322.373 189.5 M
321.633 187.224 L
319.697 185.817 L
317.303 185.817 L
315.367 187.224 L
314.627 189.5 L
315.367 191.776 L
317.303 193.183 L
319.697 193.183 L
321.633 191.776 L
322.373 189.5 L
S
GR
GS
0 0.447 0.741 RC
2 setlinecap
10.0 ML
2 LW
N
277.373 205.5 M
276.633 203.224 L
274.697 201.817 L
272.303 201.817 L
270.367 203.224 L
269.627 205.5 L
270.367 207.776 L
272.303 209.183 L
274.697 209.183 L
276.633 207.776 L
277.373 205.5 L
S
GR
GS
0 0.447 0.741 RC
2 setlinecap
10.0 ML
2 LW
N
271.373 200.5 M
270.633 198.224 L
268.697 196.817 L
266.303 196.817 L
264.367 198.224 L
263.627 200.5 L
264.367 202.776 L
266.303 204.183 L
268.697 204.183 L
270.633 202.776 L
271.373 200.5 L
S
GR
GS
0 0.447 0.741 RC
2 setlinecap
10.0 ML
2 LW
N
265.373 160.5 M
264.633 158.224 L
262.697 156.817 L
260.303 156.817 L
258.367 158.224 L
257.627 160.5 L
258.367 162.776 L
260.303 164.183 L
262.697 164.183 L
264.633 162.776 L
265.373 160.5 L
S
GR
GS
0 0.447 0.741 RC
2 setlinecap
10.0 ML
2 LW
N
338.373 179.5 M
337.633 177.224 L
335.697 175.817 L
333.303 175.817 L
331.367 177.224 L
330.627 179.5 L
331.367 181.776 L
333.303 183.183 L
335.697 183.183 L
337.633 181.776 L
338.373 179.5 L
S
GR
GS
0 0.447 0.741 RC
2 setlinecap
10.0 ML
2 LW
N
244.373 163.5 M
243.633 161.224 L
241.697 159.817 L
239.303 159.817 L
237.367 161.224 L
236.627 163.5 L
237.367 165.776 L
239.303 167.183 L
241.697 167.183 L
243.633 165.776 L
244.373 163.5 L
S
GR
GS
0 0.447 0.741 RC
2 setlinecap
10.0 ML
2 LW
N
259.373 189.5 M
258.633 187.224 L
256.697 185.817 L
254.303 185.817 L
252.367 187.224 L
251.627 189.5 L
252.367 191.776 L
254.303 193.183 L
256.697 193.183 L
258.633 191.776 L
259.373 189.5 L
S
GR
GS
0 0.447 0.741 RC
2 setlinecap
10.0 ML
2 LW
N
324.373 149.5 M
323.633 147.224 L
321.697 145.817 L
319.303 145.817 L
317.367 147.224 L
316.627 149.5 L
317.367 151.776 L
319.303 153.183 L
321.697 153.183 L
323.633 151.776 L
324.373 149.5 L
S
GR
GS
0 0.447 0.741 RC
2 setlinecap
10.0 ML
2 LW
N
258.373 188.5 M
257.633 186.224 L
255.697 184.817 L
253.303 184.817 L
251.367 186.224 L
250.627 188.5 L
251.367 190.776 L
253.303 192.183 L
255.697 192.183 L
257.633 190.776 L
258.373 188.5 L
S
GR
GS
0 0.447 0.741 RC
2 setlinecap
10.0 ML
2 LW
N
226.373 166.5 M
225.633 164.224 L
223.697 162.817 L
221.303 162.817 L
219.367 164.224 L
218.627 166.5 L
219.367 168.776 L
221.303 170.183 L
223.697 170.183 L
225.633 168.776 L
226.373 166.5 L
S
GR
GS
0 0.447 0.741 RC
2 setlinecap
10.0 ML
2 LW
N
240.373 202.5 M
239.633 200.224 L
237.697 198.817 L
235.303 198.817 L
233.367 200.224 L
232.627 202.5 L
233.367 204.776 L
235.303 206.183 L
237.697 206.183 L
239.633 204.776 L
240.373 202.5 L
S
GR
GS
0 0.447 0.741 RC
2 setlinecap
10.0 ML
2 LW
N
218.373 180.5 M
217.633 178.224 L
215.697 176.817 L
213.303 176.817 L
211.367 178.224 L
210.627 180.5 L
211.367 182.776 L
213.303 184.183 L
215.697 184.183 L
217.633 182.776 L
218.373 180.5 L
S
GR
GS
0 0.447 0.741 RC
2 setlinecap
10.0 ML
2 LW
N
216.373 162.5 M
215.633 160.224 L
213.697 158.817 L
211.303 158.817 L
209.367 160.224 L
208.627 162.5 L
209.367 164.776 L
211.303 166.183 L
213.697 166.183 L
215.633 164.776 L
216.373 162.5 L
S
GR
GS
0 0.447 0.741 RC
2 setlinecap
10.0 ML
2 LW
N
241.373 172.5 M
240.633 170.224 L
238.697 168.817 L
236.303 168.817 L
234.367 170.224 L
233.627 172.5 L
234.367 174.776 L
236.303 176.183 L
238.697 176.183 L
240.633 174.776 L
241.373 172.5 L
S
GR
GS
0 0.447 0.741 RC
2 setlinecap
10.0 ML
2 LW
N
363.373 174.5 M
362.633 172.224 L
360.697 170.817 L
358.303 170.817 L
356.367 172.224 L
355.627 174.5 L
356.367 176.776 L
358.303 178.183 L
360.697 178.183 L
362.633 176.776 L
363.373 174.5 L
S
GR
GS
0 0.447 0.741 RC
2 setlinecap
10.0 ML
2 LW
N
252.373 189.5 M
251.633 187.224 L
249.697 185.817 L
247.303 185.817 L
245.367 187.224 L
244.627 189.5 L
245.367 191.776 L
247.303 193.183 L
249.697 193.183 L
251.633 191.776 L
252.373 189.5 L
S
GR
GS
0 0.447 0.741 RC
2 setlinecap
10.0 ML
2 LW
N
234.373 173.5 M
233.633 171.224 L
231.697 169.817 L
229.303 169.817 L
227.367 171.224 L
226.627 173.5 L
227.367 175.776 L
229.303 177.183 L
231.697 177.183 L
233.633 175.776 L
234.373 173.5 L
S
GR
GS
0 0.447 0.741 RC
2 setlinecap
10.0 ML
2 LW
N
255.373 191.5 M
254.633 189.224 L
252.697 187.817 L
250.303 187.817 L
248.367 189.224 L
247.627 191.5 L
248.367 193.776 L
250.303 195.183 L
252.697 195.183 L
254.633 193.776 L
255.373 191.5 L
S
GR
GS
0 0.447 0.741 RC
2 setlinecap
10.0 ML
2 LW
N
226.373 266.5 M
225.633 264.224 L
223.697 262.817 L
221.303 262.817 L
219.367 264.224 L
218.627 266.5 L
219.367 268.776 L
221.303 270.183 L
223.697 270.183 L
225.633 268.776 L
226.373 266.5 L
S
GR
GS
0 0.447 0.741 RC
2 setlinecap
10.0 ML
2 LW
N
243.373 185.5 M
242.633 183.224 L
240.697 181.817 L
238.303 181.817 L
236.367 183.224 L
235.627 185.5 L
236.367 187.776 L
238.303 189.183 L
240.697 189.183 L
242.633 187.776 L
243.373 185.5 L
S
GR
GS
0 0.447 0.741 RC
2 setlinecap
10.0 ML
2 LW
N
210.373 183.5 M
209.633 181.224 L
207.697 179.817 L
205.303 179.817 L
203.367 181.224 L
202.627 183.5 L
203.367 185.776 L
205.303 187.183 L
207.697 187.183 L
209.633 185.776 L
210.373 183.5 L
S
GR
GS
0 0.447 0.741 RC
2 setlinecap
10.0 ML
2 LW
N
237.373 215.5 M
236.633 213.224 L
234.697 211.817 L
232.303 211.817 L
230.367 213.224 L
229.627 215.5 L
230.367 217.776 L
232.303 219.183 L
234.697 219.183 L
236.633 217.776 L
237.373 215.5 L
S
GR
GS
0 0.447 0.741 RC
2 setlinecap
10.0 ML
2 LW
N
323.373 178.5 M
322.633 176.224 L
320.697 174.817 L
318.303 174.817 L
316.367 176.224 L
315.627 178.5 L
316.367 180.776 L
318.303 182.183 L
320.697 182.183 L
322.633 180.776 L
323.373 178.5 L
S
GR
GS
0 0.447 0.741 RC
2 setlinecap
10.0 ML
2 LW
N
372.373 195.5 M
371.633 193.224 L
369.697 191.817 L
367.303 191.817 L
365.367 193.224 L
364.627 195.5 L
365.367 197.776 L
367.303 199.183 L
369.697 199.183 L
371.633 197.776 L
372.373 195.5 L
S
GR
GS
0 0.447 0.741 RC
2 setlinecap
10.0 ML
2 LW
N
289.373 143.5 M
288.633 141.224 L
286.697 139.817 L
284.303 139.817 L
282.367 141.224 L
281.627 143.5 L
282.367 145.776 L
284.303 147.183 L
286.697 147.183 L
288.633 145.776 L
289.373 143.5 L
S
GR
GS
0 0.447 0.741 RC
2 setlinecap
10.0 ML
2 LW
N
248.373 194.5 M
247.633 192.224 L
245.697 190.817 L
243.303 190.817 L
241.367 192.224 L
240.627 194.5 L
241.367 196.776 L
243.303 198.183 L
245.697 198.183 L
247.633 196.776 L
248.373 194.5 L
S
GR
GS
0 0.447 0.741 RC
2 setlinecap
10.0 ML
2 LW
N
309.373 161.5 M
308.633 159.224 L
306.697 157.817 L
304.303 157.817 L
302.367 159.224 L
301.627 161.5 L
302.367 163.776 L
304.303 165.183 L
306.697 165.183 L
308.633 163.776 L
309.373 161.5 L
S
GR
GS
0 0.447 0.741 RC
2 setlinecap
10.0 ML
2 LW
N
355.373 188.5 M
354.633 186.224 L
352.697 184.817 L
350.303 184.817 L
348.367 186.224 L
347.627 188.5 L
348.367 190.776 L
350.303 192.183 L
352.697 192.183 L
354.633 190.776 L
355.373 188.5 L
S
GR
GS
0 0.447 0.741 RC
2 setlinecap
10.0 ML
2 LW
N
218.373 154.5 M
217.633 152.224 L
215.697 150.817 L
213.303 150.817 L
211.367 152.224 L
210.627 154.5 L
211.367 156.776 L
213.303 158.183 L
215.697 158.183 L
217.633 156.776 L
218.373 154.5 L
S
GR
GS
0 0.447 0.741 RC
2 setlinecap
10.0 ML
2 LW
N
191.373 194.5 M
190.633 192.224 L
188.697 190.817 L
186.303 190.817 L
184.367 192.224 L
183.627 194.5 L
184.367 196.776 L
186.303 198.183 L
188.697 198.183 L
190.633 196.776 L
191.373 194.5 L
S
GR
GS
0 0.447 0.741 RC
2 setlinecap
10.0 ML
2 LW
N
273.373 192.5 M
272.633 190.224 L
270.697 188.817 L
268.303 188.817 L
266.367 190.224 L
265.627 192.5 L
266.367 194.776 L
268.303 196.183 L
270.697 196.183 L
272.633 194.776 L
273.373 192.5 L
S
GR
GS
0 0.447 0.741 RC
2 setlinecap
10.0 ML
2 LW
N
245.373 186.5 M
244.633 184.224 L
242.697 182.817 L
240.303 182.817 L
238.367 184.224 L
237.627 186.5 L
238.367 188.776 L
240.303 190.183 L
242.697 190.183 L
244.633 188.776 L
245.373 186.5 L
S
GR
GS
0 0.447 0.741 RC
2 setlinecap
10.0 ML
2 LW
N
222.373 184.5 M
221.633 182.224 L
219.697 180.817 L
217.303 180.817 L
215.367 182.224 L
214.627 184.5 L
215.367 186.776 L
217.303 188.183 L
219.697 188.183 L
221.633 186.776 L
222.373 184.5 L
S
GR
GS
0 0.447 0.741 RC
2 setlinecap
10.0 ML
2 LW
N
265.373 201.5 M
264.633 199.224 L
262.697 197.817 L
260.303 197.817 L
258.367 199.224 L
257.627 201.5 L
258.367 203.776 L
260.303 205.183 L
262.697 205.183 L
264.633 203.776 L
265.373 201.5 L
S
GR
GS
0 0.447 0.741 RC
2 setlinecap
10.0 ML
2 LW
N
255.373 198.5 M
254.633 196.224 L
252.697 194.817 L
250.303 194.817 L
248.367 196.224 L
247.627 198.5 L
248.367 200.776 L
250.303 202.183 L
252.697 202.183 L
254.633 200.776 L
255.373 198.5 L
S
GR
GS
0 0.447 0.741 RC
2 setlinecap
10.0 ML
2 LW
N
242.373 177.5 M
241.633 175.224 L
239.697 173.817 L
237.303 173.817 L
235.367 175.224 L
234.627 177.5 L
235.367 179.776 L
237.303 181.183 L
239.697 181.183 L
241.633 179.776 L
242.373 177.5 L
S
GR
GS
0 0.447 0.741 RC
2 setlinecap
10.0 ML
2 LW
N
249.373 186.5 M
248.633 184.224 L
246.697 182.817 L
244.303 182.817 L
242.367 184.224 L
241.627 186.5 L
242.367 188.776 L
244.303 190.183 L
246.697 190.183 L
248.633 188.776 L
249.373 186.5 L
S
GR
GS
0 0.447 0.741 RC
2 setlinecap
10.0 ML
2 LW
N
245.373 172.5 M
244.633 170.224 L
242.697 168.817 L
240.303 168.817 L
238.367 170.224 L
237.627 172.5 L
238.367 174.776 L
240.303 176.183 L
242.697 176.183 L
244.633 174.776 L
245.373 172.5 L
S
GR
GS
0 0.447 0.741 RC
2 setlinecap
10.0 ML
2 LW
N
169.373 179.5 M
168.633 177.224 L
166.697 175.817 L
164.303 175.817 L
162.367 177.224 L
161.627 179.5 L
162.367 181.776 L
164.303 183.183 L
166.697 183.183 L
168.633 181.776 L
169.373 179.5 L
S
GR
GS
0 0.447 0.741 RC
2 setlinecap
10.0 ML
2 LW
N
182.373 196.5 M
181.633 194.224 L
179.697 192.817 L
177.303 192.817 L
175.367 194.224 L
174.627 196.5 L
175.367 198.776 L
177.303 200.183 L
179.697 200.183 L
181.633 198.776 L
182.373 196.5 L
S
GR
GS
0 0.447 0.741 RC
2 setlinecap
10.0 ML
2 LW
N
213.373 195.5 M
212.633 193.224 L
210.697 191.817 L
208.303 191.817 L
206.367 193.224 L
205.627 195.5 L
206.367 197.776 L
208.303 199.183 L
210.697 199.183 L
212.633 197.776 L
213.373 195.5 L
S
GR
GS
0 0.447 0.741 RC
2 setlinecap
10.0 ML
2 LW
N
245.373 176.5 M
244.633 174.224 L
242.697 172.817 L
240.303 172.817 L
238.367 174.224 L
237.627 176.5 L
238.367 178.776 L
240.303 180.183 L
242.697 180.183 L
244.633 178.776 L
245.373 176.5 L
S
GR
GS
0 0.447 0.741 RC
2 setlinecap
10.0 ML
2 LW
N
264.373 202.5 M
263.633 200.224 L
261.697 198.817 L
259.303 198.817 L
257.367 200.224 L
256.627 202.5 L
257.367 204.776 L
259.303 206.183 L
261.697 206.183 L
263.633 204.776 L
264.373 202.5 L
S
GR
GS
0 0.447 0.741 RC
2 setlinecap
10.0 ML
2 LW
N
223.373 191.5 M
222.633 189.224 L
220.697 187.817 L
218.303 187.817 L
216.367 189.224 L
215.627 191.5 L
216.367 193.776 L
218.303 195.183 L
220.697 195.183 L
222.633 193.776 L
223.373 191.5 L
S
GR
GS
0 0.447 0.741 RC
2 setlinecap
10.0 ML
2 LW
N
278.373 191.5 M
277.633 189.224 L
275.697 187.817 L
273.303 187.817 L
271.367 189.224 L
270.627 191.5 L
271.367 193.776 L
273.303 195.183 L
275.697 195.183 L
277.633 193.776 L
278.373 191.5 L
S
GR
GS
0 0.447 0.741 RC
2 setlinecap
10.0 ML
2 LW
N
231.373 170.5 M
230.633 168.224 L
228.697 166.817 L
226.303 166.817 L
224.367 168.224 L
223.627 170.5 L
224.367 172.776 L
226.303 174.183 L
228.697 174.183 L
230.633 172.776 L
231.373 170.5 L
S
GR
GS
0 0.447 0.741 RC
2 setlinecap
10.0 ML
2 LW
N
258.373 169.5 M
257.633 167.224 L
255.697 165.817 L
253.303 165.817 L
251.367 167.224 L
250.627 169.5 L
251.367 171.776 L
253.303 173.183 L
255.697 173.183 L
257.633 171.776 L
258.373 169.5 L
S
GR
GS
0 0.447 0.741 RC
2 setlinecap
10.0 ML
2 LW
N
289.373 127.5 M
288.633 125.224 L
286.697 123.817 L
284.303 123.817 L
282.367 125.224 L
281.627 127.5 L
282.367 129.776 L
284.303 131.183 L
286.697 131.183 L
288.633 129.776 L
289.373 127.5 L
S
GR
GS
0 0.447 0.741 RC
2 setlinecap
10.0 ML
2 LW
N
244.373 184.5 M
243.633 182.224 L
241.697 180.817 L
239.303 180.817 L
237.367 182.224 L
236.627 184.5 L
237.367 186.776 L
239.303 188.183 L
241.697 188.183 L
243.633 186.776 L
244.373 184.5 L
S
GR
GS
0 0.447 0.741 RC
2 setlinecap
10.0 ML
2 LW
N
147.373 155.5 M
146.633 153.224 L
144.697 151.817 L
142.303 151.817 L
140.367 153.224 L
139.627 155.5 L
140.367 157.776 L
142.303 159.183 L
144.697 159.183 L
146.633 157.776 L
147.373 155.5 L
S
GR
GS
0 0.447 0.741 RC
2 setlinecap
10.0 ML
2 LW
N
249.373 165.5 M
248.633 163.224 L
246.697 161.817 L
244.303 161.817 L
242.367 163.224 L
241.627 165.5 L
242.367 167.776 L
244.303 169.183 L
246.697 169.183 L
248.633 167.776 L
249.373 165.5 L
S
GR
GS
[1 0 0 1 298.00031 26.22501] CT
/Helvetica 23 F
GS
[1 0 0 1 0 0] CT
-78 -6 moveto 
1 -1 scale
(Adjoint solution) t 
GR
GR
%%Trailer
%%BoundingBox: 9 0 539 429
%%Pages: 1
%%EOF
