%!PS-Adobe-3.0 EPSF-3.0
%%Creator: (MATLAB, The Mathworks, Inc. Version 8.5.0.197613 \(R2015a\). Operating System: Mac OS X)
%%Title: ./RBoptim-mParam_scat-forw30.eps
%%CreationDate: 2015-06-05T17:06:36
%%Pages: (atend)
%%BoundingBox: (atend)
%%LanguageLevel: 3
%%EndComments
%%BeginProlog
%%BeginResource: procset (Apache XML Graphics Std ProcSet) 1.2 0
%%Version: 1.2 0
%%Copyright: (Copyright 2001-2003,2010 The Apache Software Foundation. License terms: http://www.apache.org/licenses/LICENSE-2.0)
/bd{bind def}bind def
/ld{load def}bd
/GR/grestore ld
/M/moveto ld
/LJ/setlinejoin ld
/C/curveto ld
/f/fill ld
/LW/setlinewidth ld
/GC/setgray ld
/t/show ld
/N/newpath ld
/CT/concat ld
/cp/closepath ld
/S/stroke ld
/L/lineto ld
/CC/setcmykcolor ld
/A/ashow ld
/GS/gsave ld
/RC/setrgbcolor ld
/RM/rmoveto ld
/ML/setmiterlimit ld
/re {4 2 roll M
1 index 0 rlineto
0 exch rlineto
neg 0 rlineto
cp } bd
/_ctm matrix def
/_tm matrix def
/BT { _ctm currentmatrix pop matrix _tm copy pop 0 0 moveto } bd
/ET { _ctm setmatrix } bd
/iTm { _ctm setmatrix _tm concat } bd
/Tm { _tm astore pop iTm 0 0 moveto } bd
/ux 0.0 def
/uy 0.0 def
/F {
  /Tp exch def
  /Tf exch def
  Tf findfont Tp scalefont setfont
  /cf Tf def  /cs Tp def
} bd
/ULS {currentpoint /uy exch def /ux exch def} bd
/ULE {
  /Tcx currentpoint pop def
  gsave
  newpath
  cf findfont cs scalefont dup
  /FontMatrix get 0 get /Ts exch def /FontInfo get dup
  /UnderlinePosition get Ts mul /To exch def
  /UnderlineThickness get Ts mul /Tt exch def
  ux uy To add moveto  Tcx uy To add lineto
  Tt setlinewidth stroke
  grestore
} bd
/OLE {
  /Tcx currentpoint pop def
  gsave
  newpath
  cf findfont cs scalefont dup
  /FontMatrix get 0 get /Ts exch def /FontInfo get dup
  /UnderlinePosition get Ts mul /To exch def
  /UnderlineThickness get Ts mul /Tt exch def
  ux uy To add cs add moveto Tcx uy To add cs add lineto
  Tt setlinewidth stroke
  grestore
} bd
/SOE {
  /Tcx currentpoint pop def
  gsave
  newpath
  cf findfont cs scalefont dup
  /FontMatrix get 0 get /Ts exch def /FontInfo get dup
  /UnderlinePosition get Ts mul /To exch def
  /UnderlineThickness get Ts mul /Tt exch def
  ux uy To add cs 10 mul 26 idiv add moveto Tcx uy To add cs 10 mul 26 idiv add lineto
  Tt setlinewidth stroke
  grestore
} bd
/QT {
/Y22 exch store
/X22 exch store
/Y21 exch store
/X21 exch store
currentpoint
/Y21 load 2 mul add 3 div exch
/X21 load 2 mul add 3 div exch
/X21 load 2 mul /X22 load add 3 div
/Y21 load 2 mul /Y22 load add 3 div
/X22 load /Y22 load curveto
} bd
/SSPD {
dup length /d exch dict def
{
/v exch def
/k exch def
currentpagedevice k known {
/cpdv currentpagedevice k get def
v cpdv ne {
/upd false def
/nullv v type /nulltype eq def
/nullcpdv cpdv type /nulltype eq def
nullv nullcpdv or
{
/upd true def
} {
/sametype v type cpdv type eq def
sametype {
v type /arraytype eq {
/vlen v length def
/cpdvlen cpdv length def
vlen cpdvlen eq {
0 1 vlen 1 sub {
/i exch def
/obj v i get def
/cpdobj cpdv i get def
obj cpdobj ne {
/upd true def
exit
} if
} for
} {
/upd true def
} ifelse
} {
v type /dicttype eq {
v {
/dv exch def
/dk exch def
/cpddv cpdv dk get def
dv cpddv ne {
/upd true def
exit
} if
} forall
} {
/upd true def
} ifelse
} ifelse
} if
} ifelse
upd true eq {
d k v put
} if
} if
} if
} forall
d length 0 gt {
d setpagedevice
} if
} bd
%%EndResource
%%BeginResource: procset (Apache XML Graphics EPS ProcSet) 1.0 0
%%Version: 1.0 0
%%Copyright: (Copyright 2002-2003 The Apache Software Foundation. License terms: http://www.apache.org/licenses/LICENSE-2.0)
/BeginEPSF { %def
/b4_Inc_state save def         % Save state for cleanup
/dict_count countdictstack def % Count objects on dict stack
/op_count count 1 sub def      % Count objects on operand stack
userdict begin                 % Push userdict on dict stack
/showpage { } def              % Redefine showpage, { } = null proc
0 setgray 0 setlinecap         % Prepare graphics state
1 setlinewidth 0 setlinejoin
10 setmiterlimit [ ] 0 setdash newpath
/languagelevel where           % If level not equal to 1 then
{pop languagelevel             % set strokeadjust and
1 ne                           % overprint to their defaults.
{false setstrokeadjust false setoverprint
} if
} if
} bd
/EndEPSF { %def
count op_count sub {pop} repeat            % Clean up stacks
countdictstack dict_count sub {end} repeat
b4_Inc_state restore
} bd
%%EndResource
%FOPBeginFontDict
%%IncludeResource: font Courier-Bold
%%IncludeResource: font Helvetica
%%IncludeResource: font Courier-BoldOblique
%%IncludeResource: font Courier-Oblique
%%IncludeResource: font Times-Roman
%%IncludeResource: font Helvetica-BoldOblique
%%IncludeResource: font Helvetica-Bold
%%IncludeResource: font Helvetica-Oblique
%%IncludeResource: font Times-BoldItalic
%%IncludeResource: font Courier
%%IncludeResource: font Times-Italic
%%IncludeResource: font Times-Bold
%%IncludeResource: font Symbol
%%IncludeResource: font ZapfDingbats
%FOPEndFontDict
%%BeginResource: encoding WinAnsiEncoding
/WinAnsiEncoding [
/.notdef /.notdef /.notdef /.notdef /.notdef
/.notdef /.notdef /.notdef /.notdef /.notdef
/.notdef /.notdef /.notdef /.notdef /.notdef
/.notdef /.notdef /.notdef /.notdef /.notdef
/.notdef /.notdef /.notdef /.notdef /.notdef
/.notdef /.notdef /.notdef /.notdef /.notdef
/.notdef /.notdef /space /exclam /quotedbl
/numbersign /dollar /percent /ampersand /quotesingle
/parenleft /parenright /asterisk /plus /comma
/hyphen /period /slash /zero /one
/two /three /four /five /six
/seven /eight /nine /colon /semicolon
/less /equal /greater /question /at
/A /B /C /D /E
/F /G /H /I /J
/K /L /M /N /O
/P /Q /R /S /T
/U /V /W /X /Y
/Z /bracketleft /backslash /bracketright /asciicircum
/underscore /quoteleft /a /b /c
/d /e /f /g /h
/i /j /k /l /m
/n /o /p /q /r
/s /t /u /v /w
/x /y /z /braceleft /bar
/braceright /asciitilde /bullet /Euro /bullet
/quotesinglbase /florin /quotedblbase /ellipsis /dagger
/daggerdbl /circumflex /perthousand /Scaron /guilsinglleft
/OE /bullet /Zcaron /bullet /bullet
/quoteleft /quoteright /quotedblleft /quotedblright /bullet
/endash /emdash /asciitilde /trademark /scaron
/guilsinglright /oe /bullet /zcaron /Ydieresis
/space /exclamdown /cent /sterling /currency
/yen /brokenbar /section /dieresis /copyright
/ordfeminine /guillemotleft /logicalnot /sfthyphen /registered
/macron /degree /plusminus /twosuperior /threesuperior
/acute /mu /paragraph /middot /cedilla
/onesuperior /ordmasculine /guillemotright /onequarter /onehalf
/threequarters /questiondown /Agrave /Aacute /Acircumflex
/Atilde /Adieresis /Aring /AE /Ccedilla
/Egrave /Eacute /Ecircumflex /Edieresis /Igrave
/Iacute /Icircumflex /Idieresis /Eth /Ntilde
/Ograve /Oacute /Ocircumflex /Otilde /Odieresis
/multiply /Oslash /Ugrave /Uacute /Ucircumflex
/Udieresis /Yacute /Thorn /germandbls /agrave
/aacute /acircumflex /atilde /adieresis /aring
/ae /ccedilla /egrave /eacute /ecircumflex
/edieresis /igrave /iacute /icircumflex /idieresis
/eth /ntilde /ograve /oacute /ocircumflex
/otilde /odieresis /divide /oslash /ugrave
/uacute /ucircumflex /udieresis /yacute /thorn
/ydieresis
] def
%%EndResource
%FOPBeginFontReencode
/Courier-Bold findfont
dup length dict begin
  {1 index /FID ne {def} {pop pop} ifelse} forall
  /Encoding WinAnsiEncoding def
  currentdict
end
/Courier-Bold exch definefont pop
/Helvetica findfont
dup length dict begin
  {1 index /FID ne {def} {pop pop} ifelse} forall
  /Encoding WinAnsiEncoding def
  currentdict
end
/Helvetica exch definefont pop
/Courier-BoldOblique findfont
dup length dict begin
  {1 index /FID ne {def} {pop pop} ifelse} forall
  /Encoding WinAnsiEncoding def
  currentdict
end
/Courier-BoldOblique exch definefont pop
/Courier-Oblique findfont
dup length dict begin
  {1 index /FID ne {def} {pop pop} ifelse} forall
  /Encoding WinAnsiEncoding def
  currentdict
end
/Courier-Oblique exch definefont pop
/Times-Roman findfont
dup length dict begin
  {1 index /FID ne {def} {pop pop} ifelse} forall
  /Encoding WinAnsiEncoding def
  currentdict
end
/Times-Roman exch definefont pop
/Helvetica-BoldOblique findfont
dup length dict begin
  {1 index /FID ne {def} {pop pop} ifelse} forall
  /Encoding WinAnsiEncoding def
  currentdict
end
/Helvetica-BoldOblique exch definefont pop
/Helvetica-Bold findfont
dup length dict begin
  {1 index /FID ne {def} {pop pop} ifelse} forall
  /Encoding WinAnsiEncoding def
  currentdict
end
/Helvetica-Bold exch definefont pop
/Helvetica-Oblique findfont
dup length dict begin
  {1 index /FID ne {def} {pop pop} ifelse} forall
  /Encoding WinAnsiEncoding def
  currentdict
end
/Helvetica-Oblique exch definefont pop
/Times-BoldItalic findfont
dup length dict begin
  {1 index /FID ne {def} {pop pop} ifelse} forall
  /Encoding WinAnsiEncoding def
  currentdict
end
/Times-BoldItalic exch definefont pop
/Courier findfont
dup length dict begin
  {1 index /FID ne {def} {pop pop} ifelse} forall
  /Encoding WinAnsiEncoding def
  currentdict
end
/Courier exch definefont pop
/Times-Italic findfont
dup length dict begin
  {1 index /FID ne {def} {pop pop} ifelse} forall
  /Encoding WinAnsiEncoding def
  currentdict
end
/Times-Italic exch definefont pop
/Times-Bold findfont
dup length dict begin
  {1 index /FID ne {def} {pop pop} ifelse} forall
  /Encoding WinAnsiEncoding def
  currentdict
end
/Times-Bold exch definefont pop
%FOPEndFontReencode
%%EndProlog
%%Page: 1 1
%%PageBoundingBox: 0 0 576 432
%%BeginPageSetup
[1 0 0 -1 0 432] CT
%%EndPageSetup
GS
1 GC
N
0 0 576 432 re
f
GR
GS
1 GC
N
0 0 576 432 re
f
GR
GS
1 GC
N
75 373 M
521 373 L
521 32 L
75 32 L
cp
f
GR
GS
0.149 GC
2 setlinecap
10.0 ML
N
142.13 373 M
142.13 370.77 L
S
GR
GS
0.149 GC
2 setlinecap
10.0 ML
N
181.398 373 M
181.398 370.77 L
S
GR
GS
0.149 GC
2 setlinecap
10.0 ML
N
209.259 373 M
209.259 370.77 L
S
GR
GS
0.149 GC
2 setlinecap
10.0 ML
N
230.87 373 M
230.87 370.77 L
S
GR
GS
0.149 GC
2 setlinecap
10.0 ML
N
248.528 373 M
248.528 370.77 L
S
GR
GS
0.149 GC
2 setlinecap
10.0 ML
N
263.457 373 M
263.457 370.77 L
S
GR
GS
0.149 GC
2 setlinecap
10.0 ML
N
276.389 373 M
276.389 370.77 L
S
GR
GS
0.149 GC
2 setlinecap
10.0 ML
N
287.796 373 M
287.796 370.77 L
S
GR
GS
0.149 GC
2 setlinecap
10.0 ML
N
365.13 373 M
365.13 370.77 L
S
GR
GS
0.149 GC
2 setlinecap
10.0 ML
N
404.398 373 M
404.398 370.77 L
S
GR
GS
0.149 GC
2 setlinecap
10.0 ML
N
432.259 373 M
432.259 370.77 L
S
GR
GS
0.149 GC
2 setlinecap
10.0 ML
N
453.87 373 M
453.87 370.77 L
S
GR
GS
0.149 GC
2 setlinecap
10.0 ML
N
471.528 373 M
471.528 370.77 L
S
GR
GS
0.149 GC
2 setlinecap
10.0 ML
N
486.457 373 M
486.457 370.77 L
S
GR
GS
0.149 GC
2 setlinecap
10.0 ML
N
499.389 373 M
499.389 370.77 L
S
GR
GS
0.149 GC
2 setlinecap
10.0 ML
N
510.796 373 M
510.796 370.77 L
S
GR
GS
[1 0 0 1 298.00021 408.20001] CT
0.149 GC
/Helvetica 23 F
GS
[1 0 0 1 0 0] CT
-26 18 moveto 
1 -1 scale
(Error) t 
GR
GR
GS
0.149 GC
2 setlinecap
10.0 ML
N
75 373 M
521 373 L
S
GR
GS
0.149 GC
2 setlinecap
10.0 ML
N
75 373 M
75 368.54 L
S
GR
GS
0.149 GC
2 setlinecap
10.0 ML
N
298 373 M
298 368.54 L
S
GR
GS
0.149 GC
2 setlinecap
10.0 ML
N
521 373 M
521 368.54 L
S
GR
GS
[1 0 0 1 55 402] CT
0.149 GC
/Helvetica 21 F
GS
[1 0 0 1 0 0] CT
0 0 moveto 
1 -1 scale
(10) t 
GR
GR
GS
[1 0 0 1 79 392] CT
0.149 GC
/Helvetica 16 F
GS
[1 0 0 1 0 0] CT
0 0 moveto 
1 -1 scale
(-4) t 
GR
GR
GS
[1 0 0 1 278 402] CT
0.149 GC
/Helvetica 21 F
GS
[1 0 0 1 0 0] CT
0 0 moveto 
1 -1 scale
(10) t 
GR
GR
GS
[1 0 0 1 302 392] CT
0.149 GC
/Helvetica 16 F
GS
[1 0 0 1 0 0] CT
0 0 moveto 
1 -1 scale
(-3) t 
GR
GR
GS
[1 0 0 1 501 402] CT
0.149 GC
/Helvetica 21 F
GS
[1 0 0 1 0 0] CT
0 0 moveto 
1 -1 scale
(10) t 
GR
GR
GS
[1 0 0 1 525 392] CT
0.149 GC
/Helvetica 16 F
GS
[1 0 0 1 0 0] CT
0 0 moveto 
1 -1 scale
(-2) t 
GR
GR
GS
0.149 GC
2 setlinecap
10.0 ML
N
75 321.674 M
77.23 321.674 L
S
GR
GS
0.149 GC
2 setlinecap
10.0 ML
N
75 291.651 M
77.23 291.651 L
S
GR
GS
0.149 GC
2 setlinecap
10.0 ML
N
75 270.349 M
77.23 270.349 L
S
GR
GS
0.149 GC
2 setlinecap
10.0 ML
N
75 253.826 M
77.23 253.826 L
S
GR
GS
0.149 GC
2 setlinecap
10.0 ML
N
75 240.325 M
77.23 240.325 L
S
GR
GS
0.149 GC
2 setlinecap
10.0 ML
N
75 228.911 M
77.23 228.911 L
S
GR
GS
0.149 GC
2 setlinecap
10.0 ML
N
75 219.023 M
77.23 219.023 L
S
GR
GS
0.149 GC
2 setlinecap
10.0 ML
N
75 210.302 M
77.23 210.302 L
S
GR
GS
0.149 GC
2 setlinecap
10.0 ML
N
75 151.174 M
77.23 151.174 L
S
GR
GS
0.149 GC
2 setlinecap
10.0 ML
N
75 121.151 M
77.23 121.151 L
S
GR
GS
0.149 GC
2 setlinecap
10.0 ML
N
75 99.849 M
77.23 99.849 L
S
GR
GS
0.149 GC
2 setlinecap
10.0 ML
N
75 83.326 M
77.23 83.326 L
S
GR
GS
0.149 GC
2 setlinecap
10.0 ML
N
75 69.825 M
77.23 69.825 L
S
GR
GS
0.149 GC
2 setlinecap
10.0 ML
N
75 58.411 M
77.23 58.411 L
S
GR
GS
0.149 GC
2 setlinecap
10.0 ML
N
75 48.523 M
77.23 48.523 L
S
GR
GS
0.149 GC
2 setlinecap
10.0 ML
N
75 39.802 M
77.23 39.802 L
S
GR
GS
[0 -1 1 0 32.8 202.49983] CT
0.149 GC
/Helvetica 23 F
GS
[1 0 0 1 0 0] CT
-49.5 -6 moveto 
1 -1 scale
(Effectivity) t 
GR
GR
GS
0.149 GC
2 setlinecap
10.0 ML
N
75 373 M
75 32 L
S
GR
GS
0.149 GC
2 setlinecap
10.0 ML
N
75 373 M
79.46 373 L
S
GR
GS
0.149 GC
2 setlinecap
10.0 ML
N
75 202.5 M
79.46 202.5 L
S
GR
GS
0.149 GC
2 setlinecap
10.0 ML
N
75 32 M
79.46 32 L
S
GR
GS
[1 0 0 1 36 382] CT
0.149 GC
/Helvetica 21 F
GS
[1 0 0 1 0 0] CT
0 0 moveto 
1 -1 scale
(10) t 
GR
GR
GS
[1 0 0 1 60 372] CT
0.149 GC
/Helvetica 16 F
GS
[1 0 0 1 0 0] CT
0 0 moveto 
1 -1 scale
(2) t 
GR
GR
GS
[1 0 0 1 36 212] CT
0.149 GC
/Helvetica 21 F
GS
[1 0 0 1 0 0] CT
0 0 moveto 
1 -1 scale
(10) t 
GR
GR
GS
[1 0 0 1 60 202] CT
0.149 GC
/Helvetica 16 F
GS
[1 0 0 1 0 0] CT
0 0 moveto 
1 -1 scale
(3) t 
GR
GR
GS
[1 0 0 1 36 41] CT
0.149 GC
/Helvetica 21 F
GS
[1 0 0 1 0 0] CT
0 0 moveto 
1 -1 scale
(10) t 
GR
GR
GS
[1 0 0 1 60 31] CT
0.149 GC
/Helvetica 16 F
GS
[1 0 0 1 0 0] CT
0 0 moveto 
1 -1 scale
(4) t 
GR
GR
GS
0 0.447 0.741 RC
2 setlinecap
10.0 ML
2 LW
N
323.373 276.5 M
322.633 274.224 L
320.697 272.817 L
318.303 272.817 L
316.367 274.224 L
315.627 276.5 L
316.367 278.776 L
318.303 280.183 L
320.697 280.183 L
322.633 278.776 L
323.373 276.5 L
S
GR
GS
0 0.447 0.741 RC
2 setlinecap
10.0 ML
2 LW
N
311.373 262.5 M
310.633 260.224 L
308.697 258.817 L
306.303 258.817 L
304.367 260.224 L
303.627 262.5 L
304.367 264.776 L
306.303 266.183 L
308.697 266.183 L
310.633 264.776 L
311.373 262.5 L
S
GR
GS
0 0.447 0.741 RC
2 setlinecap
10.0 ML
2 LW
N
196.373 197.5 M
195.633 195.224 L
193.697 193.817 L
191.303 193.817 L
189.367 195.224 L
188.627 197.5 L
189.367 199.776 L
191.303 201.183 L
193.697 201.183 L
195.633 199.776 L
196.373 197.5 L
S
GR
GS
0 0.447 0.741 RC
2 setlinecap
10.0 ML
2 LW
N
312.373 273.5 M
311.633 271.224 L
309.697 269.817 L
307.303 269.817 L
305.367 271.224 L
304.627 273.5 L
305.367 275.776 L
307.303 277.183 L
309.697 277.183 L
311.633 275.776 L
312.373 273.5 L
S
GR
GS
0 0.447 0.741 RC
2 setlinecap
10.0 ML
2 LW
N
252.373 242.5 M
251.633 240.224 L
249.697 238.817 L
247.303 238.817 L
245.367 240.224 L
244.627 242.5 L
245.367 244.776 L
247.303 246.183 L
249.697 246.183 L
251.633 244.776 L
252.373 242.5 L
S
GR
GS
0 0.447 0.741 RC
2 setlinecap
10.0 ML
2 LW
N
270.373 237.5 M
269.633 235.224 L
267.697 233.817 L
265.303 233.817 L
263.367 235.224 L
262.627 237.5 L
263.367 239.776 L
265.303 241.183 L
267.697 241.183 L
269.633 239.776 L
270.373 237.5 L
S
GR
GS
0 0.447 0.741 RC
2 setlinecap
10.0 ML
2 LW
N
308.373 274.5 M
307.633 272.224 L
305.697 270.817 L
303.303 270.817 L
301.367 272.224 L
300.627 274.5 L
301.367 276.776 L
303.303 278.183 L
305.697 278.183 L
307.633 276.776 L
308.373 274.5 L
S
GR
GS
0 0.447 0.741 RC
2 setlinecap
10.0 ML
2 LW
N
284.373 258.5 M
283.633 256.224 L
281.697 254.817 L
279.303 254.817 L
277.367 256.224 L
276.627 258.5 L
277.367 260.776 L
279.303 262.183 L
281.697 262.183 L
283.633 260.776 L
284.373 258.5 L
S
GR
GS
0 0.447 0.741 RC
2 setlinecap
10.0 ML
2 LW
N
337.373 275.5 M
336.633 273.224 L
334.697 271.817 L
332.303 271.817 L
330.367 273.224 L
329.627 275.5 L
330.367 277.776 L
332.303 279.183 L
334.697 279.183 L
336.633 277.776 L
337.373 275.5 L
S
GR
GS
0 0.447 0.741 RC
2 setlinecap
10.0 ML
2 LW
N
175.373 192.5 M
174.633 190.224 L
172.697 188.817 L
170.303 188.817 L
168.367 190.224 L
167.627 192.5 L
168.367 194.776 L
170.303 196.183 L
172.697 196.183 L
174.633 194.776 L
175.373 192.5 L
S
GR
GS
0 0.447 0.741 RC
2 setlinecap
10.0 ML
2 LW
N
197.373 199.5 M
196.633 197.224 L
194.697 195.817 L
192.303 195.817 L
190.367 197.224 L
189.627 199.5 L
190.367 201.776 L
192.303 203.183 L
194.697 203.183 L
196.633 201.776 L
197.373 199.5 L
S
GR
GS
0 0.447 0.741 RC
2 setlinecap
10.0 ML
2 LW
N
280.373 249.5 M
279.633 247.224 L
277.697 245.817 L
275.303 245.817 L
273.367 247.224 L
272.627 249.5 L
273.367 251.776 L
275.303 253.183 L
277.697 253.183 L
279.633 251.776 L
280.373 249.5 L
S
GR
GS
0 0.447 0.741 RC
2 setlinecap
10.0 ML
2 LW
N
359.373 280.5 M
358.633 278.224 L
356.697 276.817 L
354.303 276.817 L
352.367 278.224 L
351.627 280.5 L
352.367 282.776 L
354.303 284.183 L
356.697 284.183 L
358.633 282.776 L
359.373 280.5 L
S
GR
GS
0 0.447 0.741 RC
2 setlinecap
10.0 ML
2 LW
N
277.373 254.5 M
276.633 252.224 L
274.697 250.817 L
272.303 250.817 L
270.367 252.224 L
269.627 254.5 L
270.367 256.776 L
272.303 258.183 L
274.697 258.183 L
276.633 256.776 L
277.373 254.5 L
S
GR
GS
0 0.447 0.741 RC
2 setlinecap
10.0 ML
2 LW
N
259.373 227.5 M
258.633 225.224 L
256.697 223.817 L
254.303 223.817 L
252.367 225.224 L
251.627 227.5 L
252.367 229.776 L
254.303 231.183 L
256.697 231.183 L
258.633 229.776 L
259.373 227.5 L
S
GR
GS
0 0.447 0.741 RC
2 setlinecap
10.0 ML
2 LW
N
278.373 260.5 M
277.633 258.224 L
275.697 256.817 L
273.303 256.817 L
271.367 258.224 L
270.627 260.5 L
271.367 262.776 L
273.303 264.183 L
275.697 264.183 L
277.633 262.776 L
278.373 260.5 L
S
GR
GS
0 0.447 0.741 RC
2 setlinecap
10.0 ML
2 LW
N
164.373 186.5 M
163.633 184.224 L
161.697 182.817 L
159.303 182.817 L
157.367 184.224 L
156.627 186.5 L
157.367 188.776 L
159.303 190.183 L
161.697 190.183 L
163.633 188.776 L
164.373 186.5 L
S
GR
GS
0 0.447 0.741 RC
2 setlinecap
10.0 ML
2 LW
N
186.373 196.5 M
185.633 194.224 L
183.697 192.817 L
181.303 192.817 L
179.367 194.224 L
178.627 196.5 L
179.367 198.776 L
181.303 200.183 L
183.697 200.183 L
185.633 198.776 L
186.373 196.5 L
S
GR
GS
0 0.447 0.741 RC
2 setlinecap
10.0 ML
2 LW
N
207.373 189.5 M
206.633 187.224 L
204.697 185.817 L
202.303 185.817 L
200.367 187.224 L
199.627 189.5 L
200.367 191.776 L
202.303 193.183 L
204.697 193.183 L
206.633 191.776 L
207.373 189.5 L
S
GR
GS
0 0.447 0.741 RC
2 setlinecap
10.0 ML
2 LW
N
312.373 269.5 M
311.633 267.224 L
309.697 265.817 L
307.303 265.817 L
305.367 267.224 L
304.627 269.5 L
305.367 271.776 L
307.303 273.183 L
309.697 273.183 L
311.633 271.776 L
312.373 269.5 L
S
GR
GS
0 0.447 0.741 RC
2 setlinecap
10.0 ML
2 LW
N
226.373 233.5 M
225.633 231.224 L
223.697 229.817 L
221.303 229.817 L
219.367 231.224 L
218.627 233.5 L
219.367 235.776 L
221.303 237.183 L
223.697 237.183 L
225.633 235.776 L
226.373 233.5 L
S
GR
GS
0 0.447 0.741 RC
2 setlinecap
10.0 ML
2 LW
N
173.373 186.5 M
172.633 184.224 L
170.697 182.817 L
168.303 182.817 L
166.367 184.224 L
165.627 186.5 L
166.367 188.776 L
168.303 190.183 L
170.697 190.183 L
172.633 188.776 L
173.373 186.5 L
S
GR
GS
0 0.447 0.741 RC
2 setlinecap
10.0 ML
2 LW
N
299.373 273.5 M
298.633 271.224 L
296.697 269.817 L
294.303 269.817 L
292.367 271.224 L
291.627 273.5 L
292.367 275.776 L
294.303 277.183 L
296.697 277.183 L
298.633 275.776 L
299.373 273.5 L
S
GR
GS
0 0.447 0.741 RC
2 setlinecap
10.0 ML
2 LW
N
284.373 250.5 M
283.633 248.224 L
281.697 246.817 L
279.303 246.817 L
277.367 248.224 L
276.627 250.5 L
277.367 252.776 L
279.303 254.183 L
281.697 254.183 L
283.633 252.776 L
284.373 250.5 L
S
GR
GS
0 0.447 0.741 RC
2 setlinecap
10.0 ML
2 LW
N
265.373 256.5 M
264.633 254.224 L
262.697 252.817 L
260.303 252.817 L
258.367 254.224 L
257.627 256.5 L
258.367 258.776 L
260.303 260.183 L
262.697 260.183 L
264.633 258.776 L
265.373 256.5 L
S
GR
GS
0 0.447 0.741 RC
2 setlinecap
10.0 ML
2 LW
N
303.373 255.5 M
302.633 253.224 L
300.697 251.817 L
298.303 251.817 L
296.367 253.224 L
295.627 255.5 L
296.367 257.776 L
298.303 259.183 L
300.697 259.183 L
302.633 257.776 L
303.373 255.5 L
S
GR
GS
0 0.447 0.741 RC
2 setlinecap
10.0 ML
2 LW
N
178.373 195.5 M
177.633 193.224 L
175.697 191.817 L
173.303 191.817 L
171.367 193.224 L
170.627 195.5 L
171.367 197.776 L
173.303 199.183 L
175.697 199.183 L
177.633 197.776 L
178.373 195.5 L
S
GR
GS
0 0.447 0.741 RC
2 setlinecap
10.0 ML
2 LW
N
304.373 253.5 M
303.633 251.224 L
301.697 249.817 L
299.303 249.817 L
297.367 251.224 L
296.627 253.5 L
297.367 255.776 L
299.303 257.183 L
301.697 257.183 L
303.633 255.776 L
304.373 253.5 L
S
GR
GS
0 0.447 0.741 RC
2 setlinecap
10.0 ML
2 LW
N
195.373 206.5 M
194.633 204.224 L
192.697 202.817 L
190.303 202.817 L
188.367 204.224 L
187.627 206.5 L
188.367 208.776 L
190.303 210.183 L
192.697 210.183 L
194.633 208.776 L
195.373 206.5 L
S
GR
GS
0 0.447 0.741 RC
2 setlinecap
10.0 ML
2 LW
N
260.373 237.5 M
259.633 235.224 L
257.697 233.817 L
255.303 233.817 L
253.367 235.224 L
252.627 237.5 L
253.367 239.776 L
255.303 241.183 L
257.697 241.183 L
259.633 239.776 L
260.373 237.5 L
S
GR
GS
0 0.447 0.741 RC
2 setlinecap
10.0 ML
2 LW
N
264.373 247.5 M
263.633 245.224 L
261.697 243.817 L
259.303 243.817 L
257.367 245.224 L
256.627 247.5 L
257.367 249.776 L
259.303 251.183 L
261.697 251.183 L
263.633 249.776 L
264.373 247.5 L
S
GR
GS
0 0.447 0.741 RC
2 setlinecap
10.0 ML
2 LW
N
295.373 253.5 M
294.633 251.224 L
292.697 249.817 L
290.303 249.817 L
288.367 251.224 L
287.627 253.5 L
288.367 255.776 L
290.303 257.183 L
292.697 257.183 L
294.633 255.776 L
295.373 253.5 L
S
GR
GS
0 0.447 0.741 RC
2 setlinecap
10.0 ML
2 LW
N
281.373 264.5 M
280.633 262.224 L
278.697 260.817 L
276.303 260.817 L
274.367 262.224 L
273.627 264.5 L
274.367 266.776 L
276.303 268.183 L
278.697 268.183 L
280.633 266.776 L
281.373 264.5 L
S
GR
GS
0 0.447 0.741 RC
2 setlinecap
10.0 ML
2 LW
N
303.373 274.5 M
302.633 272.224 L
300.697 270.817 L
298.303 270.817 L
296.367 272.224 L
295.627 274.5 L
296.367 276.776 L
298.303 278.183 L
300.697 278.183 L
302.633 276.776 L
303.373 274.5 L
S
GR
GS
0 0.447 0.741 RC
2 setlinecap
10.0 ML
2 LW
N
268.373 252.5 M
267.633 250.224 L
265.697 248.817 L
263.303 248.817 L
261.367 250.224 L
260.627 252.5 L
261.367 254.776 L
263.303 256.183 L
265.697 256.183 L
267.633 254.776 L
268.373 252.5 L
S
GR
GS
0 0.447 0.741 RC
2 setlinecap
10.0 ML
2 LW
N
316.373 271.5 M
315.633 269.224 L
313.697 267.817 L
311.303 267.817 L
309.367 269.224 L
308.627 271.5 L
309.367 273.776 L
311.303 275.183 L
313.697 275.183 L
315.633 273.776 L
316.373 271.5 L
S
GR
GS
0 0.447 0.741 RC
2 setlinecap
10.0 ML
2 LW
N
304.373 271.5 M
303.633 269.224 L
301.697 267.817 L
299.303 267.817 L
297.367 269.224 L
296.627 271.5 L
297.367 273.776 L
299.303 275.183 L
301.697 275.183 L
303.633 273.776 L
304.373 271.5 L
S
GR
GS
0 0.447 0.741 RC
2 setlinecap
10.0 ML
2 LW
N
277.373 250.5 M
276.633 248.224 L
274.697 246.817 L
272.303 246.817 L
270.367 248.224 L
269.627 250.5 L
270.367 252.776 L
272.303 254.183 L
274.697 254.183 L
276.633 252.776 L
277.373 250.5 L
S
GR
GS
0 0.447 0.741 RC
2 setlinecap
10.0 ML
2 LW
N
276.373 260.5 M
275.633 258.224 L
273.697 256.817 L
271.303 256.817 L
269.367 258.224 L
268.627 260.5 L
269.367 262.776 L
271.303 264.183 L
273.697 264.183 L
275.633 262.776 L
276.373 260.5 L
S
GR
GS
0 0.447 0.741 RC
2 setlinecap
10.0 ML
2 LW
N
245.373 236.5 M
244.633 234.224 L
242.697 232.817 L
240.303 232.817 L
238.367 234.224 L
237.627 236.5 L
238.367 238.776 L
240.303 240.183 L
242.697 240.183 L
244.633 238.776 L
245.373 236.5 L
S
GR
GS
0 0.447 0.741 RC
2 setlinecap
10.0 ML
2 LW
N
237.373 236.5 M
236.633 234.224 L
234.697 232.817 L
232.303 232.817 L
230.367 234.224 L
229.627 236.5 L
230.367 238.776 L
232.303 240.183 L
234.697 240.183 L
236.633 238.776 L
237.373 236.5 L
S
GR
GS
0 0.447 0.741 RC
2 setlinecap
10.0 ML
2 LW
N
324.373 277.5 M
323.633 275.224 L
321.697 273.817 L
319.303 273.817 L
317.367 275.224 L
316.627 277.5 L
317.367 279.776 L
319.303 281.183 L
321.697 281.183 L
323.633 279.776 L
324.373 277.5 L
S
GR
GS
0 0.447 0.741 RC
2 setlinecap
10.0 ML
2 LW
N
285.373 267.5 M
284.633 265.224 L
282.697 263.817 L
280.303 263.817 L
278.367 265.224 L
277.627 267.5 L
278.367 269.776 L
280.303 271.183 L
282.697 271.183 L
284.633 269.776 L
285.373 267.5 L
S
GR
GS
0 0.447 0.741 RC
2 setlinecap
10.0 ML
2 LW
N
266.373 232.5 M
265.633 230.224 L
263.697 228.817 L
261.303 228.817 L
259.367 230.224 L
258.627 232.5 L
259.367 234.776 L
261.303 236.183 L
263.697 236.183 L
265.633 234.776 L
266.373 232.5 L
S
GR
GS
0 0.447 0.741 RC
2 setlinecap
10.0 ML
2 LW
N
210.373 212.5 M
209.633 210.224 L
207.697 208.817 L
205.303 208.817 L
203.367 210.224 L
202.627 212.5 L
203.367 214.776 L
205.303 216.183 L
207.697 216.183 L
209.633 214.776 L
210.373 212.5 L
S
GR
GS
0 0.447 0.741 RC
2 setlinecap
10.0 ML
2 LW
N
176.373 190.5 M
175.633 188.224 L
173.697 186.817 L
171.303 186.817 L
169.367 188.224 L
168.627 190.5 L
169.367 192.776 L
171.303 194.183 L
173.697 194.183 L
175.633 192.776 L
176.373 190.5 L
S
GR
GS
0 0.447 0.741 RC
2 setlinecap
10.0 ML
2 LW
N
304.373 277.5 M
303.633 275.224 L
301.697 273.817 L
299.303 273.817 L
297.367 275.224 L
296.627 277.5 L
297.367 279.776 L
299.303 281.183 L
301.697 281.183 L
303.633 279.776 L
304.373 277.5 L
S
GR
GS
0 0.447 0.741 RC
2 setlinecap
10.0 ML
2 LW
N
325.373 277.5 M
324.633 275.224 L
322.697 273.817 L
320.303 273.817 L
318.367 275.224 L
317.627 277.5 L
318.367 279.776 L
320.303 281.183 L
322.697 281.183 L
324.633 279.776 L
325.373 277.5 L
S
GR
GS
0 0.447 0.741 RC
2 setlinecap
10.0 ML
2 LW
N
243.373 247.5 M
242.633 245.224 L
240.697 243.817 L
238.303 243.817 L
236.367 245.224 L
235.627 247.5 L
236.367 249.776 L
238.303 251.183 L
240.697 251.183 L
242.633 249.776 L
243.373 247.5 L
S
GR
GS
0 0.447 0.741 RC
2 setlinecap
10.0 ML
2 LW
N
221.373 218.5 M
220.633 216.224 L
218.697 214.817 L
216.303 214.817 L
214.367 216.224 L
213.627 218.5 L
214.367 220.776 L
216.303 222.183 L
218.697 222.183 L
220.633 220.776 L
221.373 218.5 L
S
GR
GS
0 0.447 0.741 RC
2 setlinecap
10.0 ML
2 LW
N
315.373 271.5 M
314.633 269.224 L
312.697 267.817 L
310.303 267.817 L
308.367 269.224 L
307.627 271.5 L
308.367 273.776 L
310.303 275.183 L
312.697 275.183 L
314.633 273.776 L
315.373 271.5 L
S
GR
GS
0 0.447 0.741 RC
2 setlinecap
10.0 ML
2 LW
N
299.373 270.5 M
298.633 268.224 L
296.697 266.817 L
294.303 266.817 L
292.367 268.224 L
291.627 270.5 L
292.367 272.776 L
294.303 274.183 L
296.697 274.183 L
298.633 272.776 L
299.373 270.5 L
S
GR
GS
0 0.447 0.741 RC
2 setlinecap
10.0 ML
2 LW
N
293.373 270.5 M
292.633 268.224 L
290.697 266.817 L
288.303 266.817 L
286.367 268.224 L
285.627 270.5 L
286.367 272.776 L
288.303 274.183 L
290.697 274.183 L
292.633 272.776 L
293.373 270.5 L
S
GR
GS
0 0.447 0.741 RC
2 setlinecap
10.0 ML
2 LW
N
266.373 247.5 M
265.633 245.224 L
263.697 243.817 L
261.303 243.817 L
259.367 245.224 L
258.627 247.5 L
259.367 249.776 L
261.303 251.183 L
263.697 251.183 L
265.633 249.776 L
266.373 247.5 L
S
GR
GS
0 0.447 0.741 RC
2 setlinecap
10.0 ML
2 LW
N
298.373 275.5 M
297.633 273.224 L
295.697 271.817 L
293.303 271.817 L
291.367 273.224 L
290.627 275.5 L
291.367 277.776 L
293.303 279.183 L
295.697 279.183 L
297.633 277.776 L
298.373 275.5 L
S
GR
GS
0 0.447 0.741 RC
2 setlinecap
10.0 ML
2 LW
N
330.373 286.5 M
329.633 284.224 L
327.697 282.817 L
325.303 282.817 L
323.367 284.224 L
322.627 286.5 L
323.367 288.776 L
325.303 290.183 L
327.697 290.183 L
329.633 288.776 L
330.373 286.5 L
S
GR
GS
0 0.447 0.741 RC
2 setlinecap
10.0 ML
2 LW
N
244.373 231.5 M
243.633 229.224 L
241.697 227.817 L
239.303 227.817 L
237.367 229.224 L
236.627 231.5 L
237.367 233.776 L
239.303 235.183 L
241.697 235.183 L
243.633 233.776 L
244.373 231.5 L
S
GR
GS
0 0.447 0.741 RC
2 setlinecap
10.0 ML
2 LW
N
315.373 268.5 M
314.633 266.224 L
312.697 264.817 L
310.303 264.817 L
308.367 266.224 L
307.627 268.5 L
308.367 270.776 L
310.303 272.183 L
312.697 272.183 L
314.633 270.776 L
315.373 268.5 L
S
GR
GS
0 0.447 0.741 RC
2 setlinecap
10.0 ML
2 LW
N
323.373 274.5 M
322.633 272.224 L
320.697 270.817 L
318.303 270.817 L
316.367 272.224 L
315.627 274.5 L
316.367 276.776 L
318.303 278.183 L
320.697 278.183 L
322.633 276.776 L
323.373 274.5 L
S
GR
GS
0 0.447 0.741 RC
2 setlinecap
10.0 ML
2 LW
N
204.373 191.5 M
203.633 189.224 L
201.697 187.817 L
199.303 187.817 L
197.367 189.224 L
196.627 191.5 L
197.367 193.776 L
199.303 195.183 L
201.697 195.183 L
203.633 193.776 L
204.373 191.5 L
S
GR
GS
0 0.447 0.741 RC
2 setlinecap
10.0 ML
2 LW
N
353.373 287.5 M
352.633 285.224 L
350.697 283.817 L
348.303 283.817 L
346.367 285.224 L
345.627 287.5 L
346.367 289.776 L
348.303 291.183 L
350.697 291.183 L
352.633 289.776 L
353.373 287.5 L
S
GR
GS
0 0.447 0.741 RC
2 setlinecap
10.0 ML
2 LW
N
218.373 211.5 M
217.633 209.224 L
215.697 207.817 L
213.303 207.817 L
211.367 209.224 L
210.627 211.5 L
211.367 213.776 L
213.303 215.183 L
215.697 215.183 L
217.633 213.776 L
218.373 211.5 L
S
GR
GS
0 0.447 0.741 RC
2 setlinecap
10.0 ML
2 LW
N
318.373 273.5 M
317.633 271.224 L
315.697 269.817 L
313.303 269.817 L
311.367 271.224 L
310.627 273.5 L
311.367 275.776 L
313.303 277.183 L
315.697 277.183 L
317.633 275.776 L
318.373 273.5 L
S
GR
GS
0 0.447 0.741 RC
2 setlinecap
10.0 ML
2 LW
N
291.373 251.5 M
290.633 249.224 L
288.697 247.817 L
286.303 247.817 L
284.367 249.224 L
283.627 251.5 L
284.367 253.776 L
286.303 255.183 L
288.697 255.183 L
290.633 253.776 L
291.373 251.5 L
S
GR
GS
0 0.447 0.741 RC
2 setlinecap
10.0 ML
2 LW
N
218.373 223.5 M
217.633 221.224 L
215.697 219.817 L
213.303 219.817 L
211.367 221.224 L
210.627 223.5 L
211.367 225.776 L
213.303 227.183 L
215.697 227.183 L
217.633 225.776 L
218.373 223.5 L
S
GR
GS
0 0.447 0.741 RC
2 setlinecap
10.0 ML
2 LW
N
264.373 253.5 M
263.633 251.224 L
261.697 249.817 L
259.303 249.817 L
257.367 251.224 L
256.627 253.5 L
257.367 255.776 L
259.303 257.183 L
261.697 257.183 L
263.633 255.776 L
264.373 253.5 L
S
GR
GS
0 0.447 0.741 RC
2 setlinecap
10.0 ML
2 LW
N
190.373 195.5 M
189.633 193.224 L
187.697 191.817 L
185.303 191.817 L
183.367 193.224 L
182.627 195.5 L
183.367 197.776 L
185.303 199.183 L
187.697 199.183 L
189.633 197.776 L
190.373 195.5 L
S
GR
GS
0 0.447 0.741 RC
2 setlinecap
10.0 ML
2 LW
N
317.373 272.5 M
316.633 270.224 L
314.697 268.817 L
312.303 268.817 L
310.367 270.224 L
309.627 272.5 L
310.367 274.776 L
312.303 276.183 L
314.697 276.183 L
316.633 274.776 L
317.373 272.5 L
S
GR
GS
0 0.447 0.741 RC
2 setlinecap
10.0 ML
2 LW
N
304.373 268.5 M
303.633 266.224 L
301.697 264.817 L
299.303 264.817 L
297.367 266.224 L
296.627 268.5 L
297.367 270.776 L
299.303 272.183 L
301.697 272.183 L
303.633 270.776 L
304.373 268.5 L
S
GR
GS
0 0.447 0.741 RC
2 setlinecap
10.0 ML
2 LW
N
261.373 258.5 M
260.633 256.224 L
258.697 254.817 L
256.303 254.817 L
254.367 256.224 L
253.627 258.5 L
254.367 260.776 L
256.303 262.183 L
258.697 262.183 L
260.633 260.776 L
261.373 258.5 L
S
GR
GS
0 0.447 0.741 RC
2 setlinecap
10.0 ML
2 LW
N
314.373 277.5 M
313.633 275.224 L
311.697 273.817 L
309.303 273.817 L
307.367 275.224 L
306.627 277.5 L
307.367 279.776 L
309.303 281.183 L
311.697 281.183 L
313.633 279.776 L
314.373 277.5 L
S
GR
GS
0 0.447 0.741 RC
2 setlinecap
10.0 ML
2 LW
N
217.373 211.5 M
216.633 209.224 L
214.697 207.817 L
212.303 207.817 L
210.367 209.224 L
209.627 211.5 L
210.367 213.776 L
212.303 215.183 L
214.697 215.183 L
216.633 213.776 L
217.373 211.5 L
S
GR
GS
0 0.447 0.741 RC
2 setlinecap
10.0 ML
2 LW
N
235.373 228.5 M
234.633 226.224 L
232.697 224.817 L
230.303 224.817 L
228.367 226.224 L
227.627 228.5 L
228.367 230.776 L
230.303 232.183 L
232.697 232.183 L
234.633 230.776 L
235.373 228.5 L
S
GR
GS
0 0.447 0.741 RC
2 setlinecap
10.0 ML
2 LW
N
156.373 179.5 M
155.633 177.224 L
153.697 175.817 L
151.303 175.817 L
149.367 177.224 L
148.627 179.5 L
149.367 181.776 L
151.303 183.183 L
153.697 183.183 L
155.633 181.776 L
156.373 179.5 L
S
GR
GS
0 0.447 0.741 RC
2 setlinecap
10.0 ML
2 LW
N
321.373 276.5 M
320.633 274.224 L
318.697 272.817 L
316.303 272.817 L
314.367 274.224 L
313.627 276.5 L
314.367 278.776 L
316.303 280.183 L
318.697 280.183 L
320.633 278.776 L
321.373 276.5 L
S
GR
GS
0 0.447 0.741 RC
2 setlinecap
10.0 ML
2 LW
N
270.373 255.5 M
269.633 253.224 L
267.697 251.817 L
265.303 251.817 L
263.367 253.224 L
262.627 255.5 L
263.367 257.776 L
265.303 259.183 L
267.697 259.183 L
269.633 257.776 L
270.373 255.5 L
S
GR
GS
0 0.447 0.741 RC
2 setlinecap
10.0 ML
2 LW
N
192.373 203.5 M
191.633 201.224 L
189.697 199.817 L
187.303 199.817 L
185.367 201.224 L
184.627 203.5 L
185.367 205.776 L
187.303 207.183 L
189.697 207.183 L
191.633 205.776 L
192.373 203.5 L
S
GR
GS
0 0.447 0.741 RC
2 setlinecap
10.0 ML
2 LW
N
313.373 271.5 M
312.633 269.224 L
310.697 267.817 L
308.303 267.817 L
306.367 269.224 L
305.627 271.5 L
306.367 273.776 L
308.303 275.183 L
310.697 275.183 L
312.633 273.776 L
313.373 271.5 L
S
GR
GS
0 0.447 0.741 RC
2 setlinecap
10.0 ML
2 LW
N
293.373 268.5 M
292.633 266.224 L
290.697 264.817 L
288.303 264.817 L
286.367 266.224 L
285.627 268.5 L
286.367 270.776 L
288.303 272.183 L
290.697 272.183 L
292.633 270.776 L
293.373 268.5 L
S
GR
GS
0 0.447 0.741 RC
2 setlinecap
10.0 ML
2 LW
N
237.373 240.5 M
236.633 238.224 L
234.697 236.817 L
232.303 236.817 L
230.367 238.224 L
229.627 240.5 L
230.367 242.776 L
232.303 244.183 L
234.697 244.183 L
236.633 242.776 L
237.373 240.5 L
S
GR
GS
0 0.447 0.741 RC
2 setlinecap
10.0 ML
2 LW
N
257.373 253.5 M
256.633 251.224 L
254.697 249.817 L
252.303 249.817 L
250.367 251.224 L
249.627 253.5 L
250.367 255.776 L
252.303 257.183 L
254.697 257.183 L
256.633 255.776 L
257.373 253.5 L
S
GR
GS
0 0.447 0.741 RC
2 setlinecap
10.0 ML
2 LW
N
186.373 187.5 M
185.633 185.224 L
183.697 183.817 L
181.303 183.817 L
179.367 185.224 L
178.627 187.5 L
179.367 189.776 L
181.303 191.183 L
183.697 191.183 L
185.633 189.776 L
186.373 187.5 L
S
GR
GS
0 0.447 0.741 RC
2 setlinecap
10.0 ML
2 LW
N
222.373 217.5 M
221.633 215.224 L
219.697 213.817 L
217.303 213.817 L
215.367 215.224 L
214.627 217.5 L
215.367 219.776 L
217.303 221.183 L
219.697 221.183 L
221.633 219.776 L
222.373 217.5 L
S
GR
GS
0 0.447 0.741 RC
2 setlinecap
10.0 ML
2 LW
N
248.373 240.5 M
247.633 238.224 L
245.697 236.817 L
243.303 236.817 L
241.367 238.224 L
240.627 240.5 L
241.367 242.776 L
243.303 244.183 L
245.697 244.183 L
247.633 242.776 L
248.373 240.5 L
S
GR
GS
0 0.447 0.741 RC
2 setlinecap
10.0 ML
2 LW
N
294.373 269.5 M
293.633 267.224 L
291.697 265.817 L
289.303 265.817 L
287.367 267.224 L
286.627 269.5 L
287.367 271.776 L
289.303 273.183 L
291.697 273.183 L
293.633 271.776 L
294.373 269.5 L
S
GR
GS
0 0.447 0.741 RC
2 setlinecap
10.0 ML
2 LW
N
295.373 247.5 M
294.633 245.224 L
292.697 243.817 L
290.303 243.817 L
288.367 245.224 L
287.627 247.5 L
288.367 249.776 L
290.303 251.183 L
292.697 251.183 L
294.633 249.776 L
295.373 247.5 L
S
GR
GS
0 0.447 0.741 RC
2 setlinecap
10.0 ML
2 LW
N
271.373 237.5 M
270.633 235.224 L
268.697 233.817 L
266.303 233.817 L
264.367 235.224 L
263.627 237.5 L
264.367 239.776 L
266.303 241.183 L
268.697 241.183 L
270.633 239.776 L
271.373 237.5 L
S
GR
GS
0 0.447 0.741 RC
2 setlinecap
10.0 ML
2 LW
N
205.373 188.5 M
204.633 186.224 L
202.697 184.817 L
200.303 184.817 L
198.367 186.224 L
197.627 188.5 L
198.367 190.776 L
200.303 192.183 L
202.697 192.183 L
204.633 190.776 L
205.373 188.5 L
S
GR
GS
0 0.447 0.741 RC
2 setlinecap
10.0 ML
2 LW
N
217.373 221.5 M
216.633 219.224 L
214.697 217.817 L
212.303 217.817 L
210.367 219.224 L
209.627 221.5 L
210.367 223.776 L
212.303 225.183 L
214.697 225.183 L
216.633 223.776 L
217.373 221.5 L
S
GR
GS
0 0.447 0.741 RC
2 setlinecap
10.0 ML
2 LW
N
284.373 243.5 M
283.633 241.224 L
281.697 239.817 L
279.303 239.817 L
277.367 241.224 L
276.627 243.5 L
277.367 245.776 L
279.303 247.183 L
281.697 247.183 L
283.633 245.776 L
284.373 243.5 L
S
GR
GS
0 0.447 0.741 RC
2 setlinecap
10.0 ML
2 LW
N
314.373 272.5 M
313.633 270.224 L
311.697 268.817 L
309.303 268.817 L
307.367 270.224 L
306.627 272.5 L
307.367 274.776 L
309.303 276.183 L
311.697 276.183 L
313.633 274.776 L
314.373 272.5 L
S
GR
GS
0 0.447 0.741 RC
2 setlinecap
10.0 ML
2 LW
N
308.373 258.5 M
307.633 256.224 L
305.697 254.817 L
303.303 254.817 L
301.367 256.224 L
300.627 258.5 L
301.367 260.776 L
303.303 262.183 L
305.697 262.183 L
307.633 260.776 L
308.373 258.5 L
S
GR
GS
0 0.447 0.741 RC
2 setlinecap
10.0 ML
2 LW
N
182.373 202.5 M
181.633 200.224 L
179.697 198.817 L
177.303 198.817 L
175.367 200.224 L
174.627 202.5 L
175.367 204.776 L
177.303 206.183 L
179.697 206.183 L
181.633 204.776 L
182.373 202.5 L
S
GR
GS
0 0.447 0.741 RC
2 setlinecap
10.0 ML
2 LW
N
261.373 248.5 M
260.633 246.224 L
258.697 244.817 L
256.303 244.817 L
254.367 246.224 L
253.627 248.5 L
254.367 250.776 L
256.303 252.183 L
258.697 252.183 L
260.633 250.776 L
261.373 248.5 L
S
GR
GS
0 0.447 0.741 RC
2 setlinecap
10.0 ML
2 LW
N
275.373 255.5 M
274.633 253.224 L
272.697 251.817 L
270.303 251.817 L
268.367 253.224 L
267.627 255.5 L
268.367 257.776 L
270.303 259.183 L
272.697 259.183 L
274.633 257.776 L
275.373 255.5 L
S
GR
GS
0 0.447 0.741 RC
2 setlinecap
10.0 ML
2 LW
N
171.373 189.5 M
170.633 187.224 L
168.697 185.817 L
166.303 185.817 L
164.367 187.224 L
163.627 189.5 L
164.367 191.776 L
166.303 193.183 L
168.697 193.183 L
170.633 191.776 L
171.373 189.5 L
S
GR
GS
0 0.447 0.741 RC
2 setlinecap
10.0 ML
2 LW
N
187.373 188.5 M
186.633 186.224 L
184.697 184.817 L
182.303 184.817 L
180.367 186.224 L
179.627 188.5 L
180.367 190.776 L
182.303 192.183 L
184.697 192.183 L
186.633 190.776 L
187.373 188.5 L
S
GR
GS
0 0.447 0.741 RC
2 setlinecap
10.0 ML
2 LW
N
223.373 235.5 M
222.633 233.224 L
220.697 231.817 L
218.303 231.817 L
216.367 233.224 L
215.627 235.5 L
216.367 237.776 L
218.303 239.183 L
220.697 239.183 L
222.633 237.776 L
223.373 235.5 L
S
GR
GS
0 0.447 0.741 RC
2 setlinecap
10.0 ML
2 LW
N
292.373 264.5 M
291.633 262.224 L
289.697 260.817 L
287.303 260.817 L
285.367 262.224 L
284.627 264.5 L
285.367 266.776 L
287.303 268.183 L
289.697 268.183 L
291.633 266.776 L
292.373 264.5 L
S
GR
GS
0 0.447 0.741 RC
2 setlinecap
10.0 ML
2 LW
N
248.373 250.5 M
247.633 248.224 L
245.697 246.817 L
243.303 246.817 L
241.367 248.224 L
240.627 250.5 L
241.367 252.776 L
243.303 254.183 L
245.697 254.183 L
247.633 252.776 L
248.373 250.5 L
S
GR
GS
[1 0 0 1 298.00031 26.22501] CT
/Helvetica 23 F
GS
[1 0 0 1 0 0] CT
-70 -6 moveto 
1 -1 scale
(State solution) t 
GR
GR
%%Trailer
%%BoundingBox: 9 0 539 429
%%Pages: 1
%%EOF
