%!PS-Adobe-3.0 EPSF-3.0
%%Creator: (MATLAB, The Mathworks, Inc. Version 8.5.0.197613 \(R2015a\). Operating System: Mac OS X)
%%Title: ./RBoptim-mParam_scat-control55.eps
%%CreationDate: 2015-05-27T12:10:18
%%Pages: (atend)
%%BoundingBox: (atend)
%%LanguageLevel: 3
%%EndComments
%%BeginProlog
%%BeginResource: procset (Apache XML Graphics Std ProcSet) 1.2 0
%%Version: 1.2 0
%%Copyright: (Copyright 2001-2003,2010 The Apache Software Foundation. License terms: http://www.apache.org/licenses/LICENSE-2.0)
/bd{bind def}bind def
/ld{load def}bd
/GR/grestore ld
/M/moveto ld
/LJ/setlinejoin ld
/C/curveto ld
/f/fill ld
/LW/setlinewidth ld
/GC/setgray ld
/t/show ld
/N/newpath ld
/CT/concat ld
/cp/closepath ld
/S/stroke ld
/L/lineto ld
/CC/setcmykcolor ld
/A/ashow ld
/GS/gsave ld
/RC/setrgbcolor ld
/RM/rmoveto ld
/ML/setmiterlimit ld
/re {4 2 roll M
1 index 0 rlineto
0 exch rlineto
neg 0 rlineto
cp } bd
/_ctm matrix def
/_tm matrix def
/BT { _ctm currentmatrix pop matrix _tm copy pop 0 0 moveto } bd
/ET { _ctm setmatrix } bd
/iTm { _ctm setmatrix _tm concat } bd
/Tm { _tm astore pop iTm 0 0 moveto } bd
/ux 0.0 def
/uy 0.0 def
/F {
  /Tp exch def
  /Tf exch def
  Tf findfont Tp scalefont setfont
  /cf Tf def  /cs Tp def
} bd
/ULS {currentpoint /uy exch def /ux exch def} bd
/ULE {
  /Tcx currentpoint pop def
  gsave
  newpath
  cf findfont cs scalefont dup
  /FontMatrix get 0 get /Ts exch def /FontInfo get dup
  /UnderlinePosition get Ts mul /To exch def
  /UnderlineThickness get Ts mul /Tt exch def
  ux uy To add moveto  Tcx uy To add lineto
  Tt setlinewidth stroke
  grestore
} bd
/OLE {
  /Tcx currentpoint pop def
  gsave
  newpath
  cf findfont cs scalefont dup
  /FontMatrix get 0 get /Ts exch def /FontInfo get dup
  /UnderlinePosition get Ts mul /To exch def
  /UnderlineThickness get Ts mul /Tt exch def
  ux uy To add cs add moveto Tcx uy To add cs add lineto
  Tt setlinewidth stroke
  grestore
} bd
/SOE {
  /Tcx currentpoint pop def
  gsave
  newpath
  cf findfont cs scalefont dup
  /FontMatrix get 0 get /Ts exch def /FontInfo get dup
  /UnderlinePosition get Ts mul /To exch def
  /UnderlineThickness get Ts mul /Tt exch def
  ux uy To add cs 10 mul 26 idiv add moveto Tcx uy To add cs 10 mul 26 idiv add lineto
  Tt setlinewidth stroke
  grestore
} bd
/QT {
/Y22 exch store
/X22 exch store
/Y21 exch store
/X21 exch store
currentpoint
/Y21 load 2 mul add 3 div exch
/X21 load 2 mul add 3 div exch
/X21 load 2 mul /X22 load add 3 div
/Y21 load 2 mul /Y22 load add 3 div
/X22 load /Y22 load curveto
} bd
/SSPD {
dup length /d exch dict def
{
/v exch def
/k exch def
currentpagedevice k known {
/cpdv currentpagedevice k get def
v cpdv ne {
/upd false def
/nullv v type /nulltype eq def
/nullcpdv cpdv type /nulltype eq def
nullv nullcpdv or
{
/upd true def
} {
/sametype v type cpdv type eq def
sametype {
v type /arraytype eq {
/vlen v length def
/cpdvlen cpdv length def
vlen cpdvlen eq {
0 1 vlen 1 sub {
/i exch def
/obj v i get def
/cpdobj cpdv i get def
obj cpdobj ne {
/upd true def
exit
} if
} for
} {
/upd true def
} ifelse
} {
v type /dicttype eq {
v {
/dv exch def
/dk exch def
/cpddv cpdv dk get def
dv cpddv ne {
/upd true def
exit
} if
} forall
} {
/upd true def
} ifelse
} ifelse
} if
} ifelse
upd true eq {
d k v put
} if
} if
} if
} forall
d length 0 gt {
d setpagedevice
} if
} bd
%%EndResource
%%BeginResource: procset (Apache XML Graphics EPS ProcSet) 1.0 0
%%Version: 1.0 0
%%Copyright: (Copyright 2002-2003 The Apache Software Foundation. License terms: http://www.apache.org/licenses/LICENSE-2.0)
/BeginEPSF { %def
/b4_Inc_state save def         % Save state for cleanup
/dict_count countdictstack def % Count objects on dict stack
/op_count count 1 sub def      % Count objects on operand stack
userdict begin                 % Push userdict on dict stack
/showpage { } def              % Redefine showpage, { } = null proc
0 setgray 0 setlinecap         % Prepare graphics state
1 setlinewidth 0 setlinejoin
10 setmiterlimit [ ] 0 setdash newpath
/languagelevel where           % If level not equal to 1 then
{pop languagelevel             % set strokeadjust and
1 ne                           % overprint to their defaults.
{false setstrokeadjust false setoverprint
} if
} if
} bd
/EndEPSF { %def
count op_count sub {pop} repeat            % Clean up stacks
countdictstack dict_count sub {end} repeat
b4_Inc_state restore
} bd
%%EndResource
%FOPBeginFontDict
%%IncludeResource: font Courier-Bold
%%IncludeResource: font Helvetica
%%IncludeResource: font Courier-BoldOblique
%%IncludeResource: font Courier-Oblique
%%IncludeResource: font Times-Roman
%%IncludeResource: font Helvetica-BoldOblique
%%IncludeResource: font Helvetica-Bold
%%IncludeResource: font Helvetica-Oblique
%%IncludeResource: font Times-BoldItalic
%%IncludeResource: font Courier
%%IncludeResource: font Times-Italic
%%IncludeResource: font Times-Bold
%%IncludeResource: font Symbol
%%IncludeResource: font ZapfDingbats
%FOPEndFontDict
%%BeginResource: encoding WinAnsiEncoding
/WinAnsiEncoding [
/.notdef /.notdef /.notdef /.notdef /.notdef
/.notdef /.notdef /.notdef /.notdef /.notdef
/.notdef /.notdef /.notdef /.notdef /.notdef
/.notdef /.notdef /.notdef /.notdef /.notdef
/.notdef /.notdef /.notdef /.notdef /.notdef
/.notdef /.notdef /.notdef /.notdef /.notdef
/.notdef /.notdef /space /exclam /quotedbl
/numbersign /dollar /percent /ampersand /quotesingle
/parenleft /parenright /asterisk /plus /comma
/hyphen /period /slash /zero /one
/two /three /four /five /six
/seven /eight /nine /colon /semicolon
/less /equal /greater /question /at
/A /B /C /D /E
/F /G /H /I /J
/K /L /M /N /O
/P /Q /R /S /T
/U /V /W /X /Y
/Z /bracketleft /backslash /bracketright /asciicircum
/underscore /quoteleft /a /b /c
/d /e /f /g /h
/i /j /k /l /m
/n /o /p /q /r
/s /t /u /v /w
/x /y /z /braceleft /bar
/braceright /asciitilde /bullet /Euro /bullet
/quotesinglbase /florin /quotedblbase /ellipsis /dagger
/daggerdbl /circumflex /perthousand /Scaron /guilsinglleft
/OE /bullet /Zcaron /bullet /bullet
/quoteleft /quoteright /quotedblleft /quotedblright /bullet
/endash /emdash /asciitilde /trademark /scaron
/guilsinglright /oe /bullet /zcaron /Ydieresis
/space /exclamdown /cent /sterling /currency
/yen /brokenbar /section /dieresis /copyright
/ordfeminine /guillemotleft /logicalnot /sfthyphen /registered
/macron /degree /plusminus /twosuperior /threesuperior
/acute /mu /paragraph /middot /cedilla
/onesuperior /ordmasculine /guillemotright /onequarter /onehalf
/threequarters /questiondown /Agrave /Aacute /Acircumflex
/Atilde /Adieresis /Aring /AE /Ccedilla
/Egrave /Eacute /Ecircumflex /Edieresis /Igrave
/Iacute /Icircumflex /Idieresis /Eth /Ntilde
/Ograve /Oacute /Ocircumflex /Otilde /Odieresis
/multiply /Oslash /Ugrave /Uacute /Ucircumflex
/Udieresis /Yacute /Thorn /germandbls /agrave
/aacute /acircumflex /atilde /adieresis /aring
/ae /ccedilla /egrave /eacute /ecircumflex
/edieresis /igrave /iacute /icircumflex /idieresis
/eth /ntilde /ograve /oacute /ocircumflex
/otilde /odieresis /divide /oslash /ugrave
/uacute /ucircumflex /udieresis /yacute /thorn
/ydieresis
] def
%%EndResource
%FOPBeginFontReencode
/Courier-Bold findfont
dup length dict begin
  {1 index /FID ne {def} {pop pop} ifelse} forall
  /Encoding WinAnsiEncoding def
  currentdict
end
/Courier-Bold exch definefont pop
/Helvetica findfont
dup length dict begin
  {1 index /FID ne {def} {pop pop} ifelse} forall
  /Encoding WinAnsiEncoding def
  currentdict
end
/Helvetica exch definefont pop
/Courier-BoldOblique findfont
dup length dict begin
  {1 index /FID ne {def} {pop pop} ifelse} forall
  /Encoding WinAnsiEncoding def
  currentdict
end
/Courier-BoldOblique exch definefont pop
/Courier-Oblique findfont
dup length dict begin
  {1 index /FID ne {def} {pop pop} ifelse} forall
  /Encoding WinAnsiEncoding def
  currentdict
end
/Courier-Oblique exch definefont pop
/Times-Roman findfont
dup length dict begin
  {1 index /FID ne {def} {pop pop} ifelse} forall
  /Encoding WinAnsiEncoding def
  currentdict
end
/Times-Roman exch definefont pop
/Helvetica-BoldOblique findfont
dup length dict begin
  {1 index /FID ne {def} {pop pop} ifelse} forall
  /Encoding WinAnsiEncoding def
  currentdict
end
/Helvetica-BoldOblique exch definefont pop
/Helvetica-Bold findfont
dup length dict begin
  {1 index /FID ne {def} {pop pop} ifelse} forall
  /Encoding WinAnsiEncoding def
  currentdict
end
/Helvetica-Bold exch definefont pop
/Helvetica-Oblique findfont
dup length dict begin
  {1 index /FID ne {def} {pop pop} ifelse} forall
  /Encoding WinAnsiEncoding def
  currentdict
end
/Helvetica-Oblique exch definefont pop
/Times-BoldItalic findfont
dup length dict begin
  {1 index /FID ne {def} {pop pop} ifelse} forall
  /Encoding WinAnsiEncoding def
  currentdict
end
/Times-BoldItalic exch definefont pop
/Courier findfont
dup length dict begin
  {1 index /FID ne {def} {pop pop} ifelse} forall
  /Encoding WinAnsiEncoding def
  currentdict
end
/Courier exch definefont pop
/Times-Italic findfont
dup length dict begin
  {1 index /FID ne {def} {pop pop} ifelse} forall
  /Encoding WinAnsiEncoding def
  currentdict
end
/Times-Italic exch definefont pop
/Times-Bold findfont
dup length dict begin
  {1 index /FID ne {def} {pop pop} ifelse} forall
  /Encoding WinAnsiEncoding def
  currentdict
end
/Times-Bold exch definefont pop
%FOPEndFontReencode
%%EndProlog
%%Page: 1 1
%%PageBoundingBox: 0 0 576 432
%%BeginPageSetup
[1 0 0 -1 0 432] CT
%%EndPageSetup
GS
1 GC
N
0 0 576 432 re
f
GR
GS
1 GC
N
0 0 576 432 re
f
GR
GS
1 GC
N
75 373 M
521 373 L
521 32 L
75 32 L
cp
f
GR
GS
0.149 GC
2 setlinecap
10.0 ML
N
119.753 373 M
119.753 370.77 L
S
GR
GS
0.149 GC
2 setlinecap
10.0 ML
N
145.932 373 M
145.932 370.77 L
S
GR
GS
0.149 GC
2 setlinecap
10.0 ML
N
164.506 373 M
164.506 370.77 L
S
GR
GS
0.149 GC
2 setlinecap
10.0 ML
N
178.914 373 M
178.914 370.77 L
S
GR
GS
0.149 GC
2 setlinecap
10.0 ML
N
190.685 373 M
190.685 370.77 L
S
GR
GS
0.149 GC
2 setlinecap
10.0 ML
N
200.638 373 M
200.638 370.77 L
S
GR
GS
0.149 GC
2 setlinecap
10.0 ML
N
209.259 373 M
209.259 370.77 L
S
GR
GS
0.149 GC
2 setlinecap
10.0 ML
N
216.864 373 M
216.864 370.77 L
S
GR
GS
0.149 GC
2 setlinecap
10.0 ML
N
268.42 373 M
268.42 370.77 L
S
GR
GS
0.149 GC
2 setlinecap
10.0 ML
N
294.599 373 M
294.599 370.77 L
S
GR
GS
0.149 GC
2 setlinecap
10.0 ML
N
313.173 373 M
313.173 370.77 L
S
GR
GS
0.149 GC
2 setlinecap
10.0 ML
N
327.58 373 M
327.58 370.77 L
S
GR
GS
0.149 GC
2 setlinecap
10.0 ML
N
339.352 373 M
339.352 370.77 L
S
GR
GS
0.149 GC
2 setlinecap
10.0 ML
N
349.305 373 M
349.305 370.77 L
S
GR
GS
0.149 GC
2 setlinecap
10.0 ML
N
357.926 373 M
357.926 370.77 L
S
GR
GS
0.149 GC
2 setlinecap
10.0 ML
N
365.531 373 M
365.531 370.77 L
S
GR
GS
0.149 GC
2 setlinecap
10.0 ML
N
417.086 373 M
417.086 370.77 L
S
GR
GS
0.149 GC
2 setlinecap
10.0 ML
N
443.265 373 M
443.265 370.77 L
S
GR
GS
0.149 GC
2 setlinecap
10.0 ML
N
461.84 373 M
461.84 370.77 L
S
GR
GS
0.149 GC
2 setlinecap
10.0 ML
N
476.247 373 M
476.247 370.77 L
S
GR
GS
0.149 GC
2 setlinecap
10.0 ML
N
488.018 373 M
488.018 370.77 L
S
GR
GS
0.149 GC
2 setlinecap
10.0 ML
N
497.971 373 M
497.971 370.77 L
S
GR
GS
0.149 GC
2 setlinecap
10.0 ML
N
506.593 373 M
506.593 370.77 L
S
GR
GS
0.149 GC
2 setlinecap
10.0 ML
N
514.197 373 M
514.197 370.77 L
S
GR
GS
[1 0 0 1 298.00021 408.20001] CT
0.149 GC
/Helvetica 23 F
GS
[1 0 0 1 0 0] CT
-26 18 moveto 
1 -1 scale
(Error) t 
GR
GR
GS
0.149 GC
2 setlinecap
10.0 ML
N
75 373 M
521 373 L
S
GR
GS
0.149 GC
2 setlinecap
10.0 ML
N
75 373 M
75 368.54 L
S
GR
GS
0.149 GC
2 setlinecap
10.0 ML
N
223.667 373 M
223.667 368.54 L
S
GR
GS
0.149 GC
2 setlinecap
10.0 ML
N
372.333 373 M
372.333 368.54 L
S
GR
GS
0.149 GC
2 setlinecap
10.0 ML
N
521 373 M
521 368.54 L
S
GR
GS
[1 0 0 1 51 402] CT
0.149 GC
/Helvetica 21 F
GS
[1 0 0 1 0 0] CT
0 0 moveto 
1 -1 scale
(10) t 
GR
GR
GS
[1 0 0 1 75 392] CT
0.149 GC
/Helvetica 16 F
GS
[1 0 0 1 0 0] CT
0 0 moveto 
1 -1 scale
(-10) t 
GR
GR
GS
[1 0 0 1 204 402] CT
0.149 GC
/Helvetica 21 F
GS
[1 0 0 1 0 0] CT
0 0 moveto 
1 -1 scale
(10) t 
GR
GR
GS
[1 0 0 1 228 392] CT
0.149 GC
/Helvetica 16 F
GS
[1 0 0 1 0 0] CT
0 0 moveto 
1 -1 scale
(-9) t 
GR
GR
GS
[1 0 0 1 352 402] CT
0.149 GC
/Helvetica 21 F
GS
[1 0 0 1 0 0] CT
0 0 moveto 
1 -1 scale
(10) t 
GR
GR
GS
[1 0 0 1 376 392] CT
0.149 GC
/Helvetica 16 F
GS
[1 0 0 1 0 0] CT
0 0 moveto 
1 -1 scale
(-8) t 
GR
GR
GS
[1 0 0 1 501 402] CT
0.149 GC
/Helvetica 21 F
GS
[1 0 0 1 0 0] CT
0 0 moveto 
1 -1 scale
(10) t 
GR
GR
GS
[1 0 0 1 525 392] CT
0.149 GC
/Helvetica 16 F
GS
[1 0 0 1 0 0] CT
0 0 moveto 
1 -1 scale
(-7) t 
GR
GR
GS
0.149 GC
2 setlinecap
10.0 ML
N
75 359.226 M
77.23 359.226 L
S
GR
GS
0.149 GC
2 setlinecap
10.0 ML
N
75 331.511 M
77.23 331.511 L
S
GR
GS
0.149 GC
2 setlinecap
10.0 ML
N
75 317.876 M
77.23 317.876 L
S
GR
GS
0.149 GC
2 setlinecap
10.0 ML
N
75 304.386 M
77.23 304.386 L
S
GR
GS
0.149 GC
2 setlinecap
10.0 ML
N
75 277.826 M
77.23 277.826 L
S
GR
GS
0.149 GC
2 setlinecap
10.0 ML
N
75 264.75 M
77.23 264.75 L
S
GR
GS
0.149 GC
2 setlinecap
10.0 ML
N
75 251.808 M
77.23 251.808 L
S
GR
GS
0.149 GC
2 setlinecap
10.0 ML
N
75 226.31 M
77.23 226.31 L
S
GR
GS
0.149 GC
2 setlinecap
10.0 ML
N
75 213.75 M
77.23 213.75 L
S
GR
GS
0.149 GC
2 setlinecap
10.0 ML
N
75 201.312 M
77.23 201.312 L
S
GR
GS
0.149 GC
2 setlinecap
10.0 ML
N
75 176.795 M
77.23 176.795 L
S
GR
GS
0.149 GC
2 setlinecap
10.0 ML
N
75 164.711 M
77.23 164.711 L
S
GR
GS
0.149 GC
2 setlinecap
10.0 ML
N
75 152.741 M
77.23 152.741 L
S
GR
GS
0.149 GC
2 setlinecap
10.0 ML
N
75 129.132 M
77.23 129.132 L
S
GR
GS
0.149 GC
2 setlinecap
10.0 ML
N
75 117.49 M
77.23 117.49 L
S
GR
GS
0.149 GC
2 setlinecap
10.0 ML
N
75 105.953 M
77.23 105.953 L
S
GR
GS
0.149 GC
2 setlinecap
10.0 ML
N
75 83.187 M
77.23 83.187 L
S
GR
GS
0.149 GC
2 setlinecap
10.0 ML
N
75 71.955 M
77.23 71.955 L
S
GR
GS
0.149 GC
2 setlinecap
10.0 ML
N
75 60.821 M
77.23 60.821 L
S
GR
GS
0.149 GC
2 setlinecap
10.0 ML
N
75 38.84 M
77.23 38.84 L
S
GR
GS
[0 -1 1 0 29.8 202.49983] CT
0.149 GC
/Helvetica 23 F
GS
[1 0 0 1 0 0] CT
-49.5 -6 moveto 
1 -1 scale
(Effectivity) t 
GR
GR
GS
0.149 GC
2 setlinecap
10.0 ML
N
75 373 M
75 32 L
S
GR
GS
0.149 GC
2 setlinecap
10.0 ML
N
75 345.293 M
79.46 345.293 L
S
GR
GS
0.149 GC
2 setlinecap
10.0 ML
N
75 291.037 M
79.46 291.037 L
S
GR
GS
0.149 GC
2 setlinecap
10.0 ML
N
75 238.995 M
79.46 238.995 L
S
GR
GS
0.149 GC
2 setlinecap
10.0 ML
N
75 188.995 M
79.46 188.995 L
S
GR
GS
0.149 GC
2 setlinecap
10.0 ML
N
75 140.882 M
79.46 140.882 L
S
GR
GS
0.149 GC
2 setlinecap
10.0 ML
N
75 94.519 M
79.46 94.519 L
S
GR
GS
0.149 GC
2 setlinecap
10.0 ML
N
75 49.783 M
79.46 49.783 L
S
GR
GS
[1 0 0 1 68.8 345.29337] CT
0.149 GC
/Helvetica 21 F
GS
[1 0 0 1 0 0] CT
-36 6 moveto 
1 -1 scale
(230) t 
GR
GR
GS
[1 0 0 1 68.8 291.03659] CT
0.149 GC
/Helvetica 21 F
GS
[1 0 0 1 0 0] CT
-36 6 moveto 
1 -1 scale
(240) t 
GR
GR
GS
[1 0 0 1 68.8 238.99501] CT
0.149 GC
/Helvetica 21 F
GS
[1 0 0 1 0 0] CT
-36 6 moveto 
1 -1 scale
(250) t 
GR
GR
GS
[1 0 0 1 68.8 188.99481] CT
0.149 GC
/Helvetica 21 F
GS
[1 0 0 1 0 0] CT
-36 6 moveto 
1 -1 scale
(260) t 
GR
GR
GS
[1 0 0 1 68.8 140.88187] CT
0.149 GC
/Helvetica 21 F
GS
[1 0 0 1 0 0] CT
-36 6 moveto 
1 -1 scale
(270) t 
GR
GR
GS
[1 0 0 1 68.8 94.51888] CT
0.149 GC
/Helvetica 21 F
GS
[1 0 0 1 0 0] CT
-36 6 moveto 
1 -1 scale
(280) t 
GR
GR
GS
[1 0 0 1 68.8 49.78301] CT
0.149 GC
/Helvetica 21 F
GS
[1 0 0 1 0 0] CT
-36 6 moveto 
1 -1 scale
(290) t 
GR
GR
GS
0 0.447 0.741 RC
2 setlinecap
10.0 ML
2 LW
N
398.373 165.5 M
397.633 163.224 L
395.697 161.817 L
393.303 161.817 L
391.367 163.224 L
390.627 165.5 L
391.367 167.776 L
393.303 169.183 L
395.697 169.183 L
397.633 167.776 L
398.373 165.5 L
S
GR
GS
0 0.447 0.741 RC
2 setlinecap
10.0 ML
2 LW
N
302.373 329.5 M
301.633 327.224 L
299.697 325.817 L
297.303 325.817 L
295.367 327.224 L
294.627 329.5 L
295.367 331.776 L
297.303 333.183 L
299.697 333.183 L
301.633 331.776 L
302.373 329.5 L
S
GR
GS
0 0.447 0.741 RC
2 setlinecap
10.0 ML
2 LW
N
233.373 125.5 M
232.633 123.224 L
230.697 121.817 L
228.303 121.817 L
226.367 123.224 L
225.627 125.5 L
226.367 127.776 L
228.303 129.183 L
230.697 129.183 L
232.633 127.776 L
233.373 125.5 L
S
GR
GS
0 0.447 0.741 RC
2 setlinecap
10.0 ML
2 LW
N
277.373 340.5 M
276.633 338.224 L
274.697 336.817 L
272.303 336.817 L
270.367 338.224 L
269.627 340.5 L
270.367 342.776 L
272.303 344.183 L
274.697 344.183 L
276.633 342.776 L
277.373 340.5 L
S
GR
GS
0 0.447 0.741 RC
2 setlinecap
10.0 ML
2 LW
N
357.373 323.5 M
356.633 321.224 L
354.697 319.817 L
352.303 319.817 L
350.367 321.224 L
349.627 323.5 L
350.367 325.776 L
352.303 327.183 L
354.697 327.183 L
356.633 325.776 L
357.373 323.5 L
S
GR
GS
0 0.447 0.741 RC
2 setlinecap
10.0 ML
2 LW
N
260.373 33.5 M
259.633 31.224 L
257.697 29.817 L
255.303 29.817 L
253.367 31.224 L
252.627 33.5 L
253.367 35.776 L
255.303 37.183 L
257.697 37.183 L
259.633 35.776 L
260.373 33.5 L
S
GR
GS
0 0.447 0.741 RC
2 setlinecap
10.0 ML
2 LW
N
208.373 372.5 M
207.633 370.224 L
205.697 368.817 L
203.303 368.817 L
201.367 370.224 L
200.627 372.5 L
201.367 374.776 L
203.303 376.183 L
205.697 376.183 L
207.633 374.776 L
208.373 372.5 L
S
GR
GS
0 0.447 0.741 RC
2 setlinecap
10.0 ML
2 LW
N
393.373 139.5 M
392.633 137.224 L
390.697 135.817 L
388.303 135.817 L
386.367 137.224 L
385.627 139.5 L
386.367 141.776 L
388.303 143.183 L
390.697 143.183 L
392.633 141.776 L
393.373 139.5 L
S
GR
GS
0 0.447 0.741 RC
2 setlinecap
10.0 ML
2 LW
N
285.373 361.5 M
284.633 359.224 L
282.697 357.817 L
280.303 357.817 L
278.367 359.224 L
277.627 361.5 L
278.367 363.776 L
280.303 365.183 L
282.697 365.183 L
284.633 363.776 L
285.373 361.5 L
S
GR
GS
0 0.447 0.741 RC
2 setlinecap
10.0 ML
2 LW
N
272.373 81.5 M
271.633 79.224 L
269.697 77.817 L
267.303 77.817 L
265.367 79.224 L
264.627 81.5 L
265.367 83.776 L
267.303 85.183 L
269.697 85.183 L
271.633 83.776 L
272.373 81.5 L
S
GR
GS
0 0.447 0.741 RC
2 setlinecap
10.0 ML
2 LW
N
259.373 229.5 M
258.633 227.224 L
256.697 225.817 L
254.303 225.817 L
252.367 227.224 L
251.627 229.5 L
252.367 231.776 L
254.303 233.183 L
256.697 233.183 L
258.633 231.776 L
259.373 229.5 L
S
GR
GS
0 0.447 0.741 RC
2 setlinecap
10.0 ML
2 LW
N
246.373 346.5 M
245.633 344.224 L
243.697 342.817 L
241.303 342.817 L
239.367 344.224 L
238.627 346.5 L
239.367 348.776 L
241.303 350.183 L
243.697 350.183 L
245.633 348.776 L
246.373 346.5 L
S
GR
GS
0 0.447 0.741 RC
2 setlinecap
10.0 ML
2 LW
N
303.373 349.5 M
302.633 347.224 L
300.697 345.817 L
298.303 345.817 L
296.367 347.224 L
295.627 349.5 L
296.367 351.776 L
298.303 353.183 L
300.697 353.183 L
302.633 351.776 L
303.373 349.5 L
S
GR
GS
0 0.447 0.741 RC
2 setlinecap
10.0 ML
2 LW
N
227.373 96.5 M
226.633 94.224 L
224.697 92.817 L
222.303 92.817 L
220.367 94.224 L
219.627 96.5 L
220.367 98.776 L
222.303 100.183 L
224.697 100.183 L
226.633 98.776 L
227.373 96.5 L
S
GR
GS
0 0.447 0.741 RC
2 setlinecap
10.0 ML
2 LW
N
334.373 277.5 M
333.633 275.224 L
331.697 273.817 L
329.303 273.817 L
327.367 275.224 L
326.627 277.5 L
327.367 279.776 L
329.303 281.183 L
331.697 281.183 L
333.633 279.776 L
334.373 277.5 L
S
GR
GS
0 0.447 0.741 RC
2 setlinecap
10.0 ML
2 LW
N
251.373 318.5 M
250.633 316.224 L
248.697 314.817 L
246.303 314.817 L
244.367 316.224 L
243.627 318.5 L
244.367 320.776 L
246.303 322.183 L
248.697 322.183 L
250.633 320.776 L
251.373 318.5 L
S
GR
GS
0 0.447 0.741 RC
2 setlinecap
10.0 ML
2 LW
N
303.373 274.5 M
302.633 272.224 L
300.697 270.817 L
298.303 270.817 L
296.367 272.224 L
295.627 274.5 L
296.367 276.776 L
298.303 278.183 L
300.697 278.183 L
302.633 276.776 L
303.373 274.5 L
S
GR
GS
0 0.447 0.741 RC
2 setlinecap
10.0 ML
2 LW
N
233.373 139.5 M
232.633 137.224 L
230.697 135.817 L
228.303 135.817 L
226.367 137.224 L
225.627 139.5 L
226.367 141.776 L
228.303 143.183 L
230.697 143.183 L
232.633 141.776 L
233.373 139.5 L
S
GR
GS
0 0.447 0.741 RC
2 setlinecap
10.0 ML
2 LW
N
247.373 72.5 M
246.633 70.224 L
244.697 68.817 L
242.303 68.817 L
240.367 70.224 L
239.627 72.5 L
240.367 74.776 L
242.303 76.183 L
244.697 76.183 L
246.633 74.776 L
247.373 72.5 L
S
GR
GS
0 0.447 0.741 RC
2 setlinecap
10.0 ML
2 LW
N
368.373 331.5 M
367.633 329.224 L
365.697 327.817 L
363.303 327.817 L
361.367 329.224 L
360.627 331.5 L
361.367 333.776 L
363.303 335.183 L
365.697 335.183 L
367.633 333.776 L
368.373 331.5 L
S
GR
GS
0 0.447 0.741 RC
2 setlinecap
10.0 ML
2 LW
N
292.373 240.5 M
291.633 238.224 L
289.697 236.817 L
287.303 236.817 L
285.367 238.224 L
284.627 240.5 L
285.367 242.776 L
287.303 244.183 L
289.697 244.183 L
291.633 242.776 L
292.373 240.5 L
S
GR
GS
0 0.447 0.741 RC
2 setlinecap
10.0 ML
2 LW
N
255.373 318.5 M
254.633 316.224 L
252.697 314.817 L
250.303 314.817 L
248.367 316.224 L
247.627 318.5 L
248.367 320.776 L
250.303 322.183 L
252.697 322.183 L
254.633 320.776 L
255.373 318.5 L
S
GR
GS
0 0.447 0.741 RC
2 setlinecap
10.0 ML
2 LW
N
242.373 246.5 M
241.633 244.224 L
239.697 242.817 L
237.303 242.817 L
235.367 244.224 L
234.627 246.5 L
235.367 248.776 L
237.303 250.183 L
239.697 250.183 L
241.633 248.776 L
242.373 246.5 L
S
GR
GS
0 0.447 0.741 RC
2 setlinecap
10.0 ML
2 LW
N
232.373 247.5 M
231.633 245.224 L
229.697 243.817 L
227.303 243.817 L
225.367 245.224 L
224.627 247.5 L
225.367 249.776 L
227.303 251.183 L
229.697 251.183 L
231.633 249.776 L
232.373 247.5 L
S
GR
GS
0 0.447 0.741 RC
2 setlinecap
10.0 ML
2 LW
N
261.373 367.5 M
260.633 365.224 L
258.697 363.817 L
256.303 363.817 L
254.367 365.224 L
253.627 367.5 L
254.367 369.776 L
256.303 371.183 L
258.697 371.183 L
260.633 369.776 L
261.373 367.5 L
S
GR
GS
0 0.447 0.741 RC
2 setlinecap
10.0 ML
2 LW
N
344.373 334.5 M
343.633 332.224 L
341.697 330.817 L
339.303 330.817 L
337.367 332.224 L
336.627 334.5 L
337.367 336.776 L
339.303 338.183 L
341.697 338.183 L
343.633 336.776 L
344.373 334.5 L
S
GR
GS
0 0.447 0.741 RC
2 setlinecap
10.0 ML
2 LW
N
291.373 276.5 M
290.633 274.224 L
288.697 272.817 L
286.303 272.817 L
284.367 274.224 L
283.627 276.5 L
284.367 278.776 L
286.303 280.183 L
288.697 280.183 L
290.633 278.776 L
291.373 276.5 L
S
GR
GS
0 0.447 0.741 RC
2 setlinecap
10.0 ML
2 LW
N
267.373 238.5 M
266.633 236.224 L
264.697 234.817 L
262.303 234.817 L
260.367 236.224 L
259.627 238.5 L
260.367 240.776 L
262.303 242.183 L
264.697 242.183 L
266.633 240.776 L
267.373 238.5 L
S
GR
GS
0 0.447 0.741 RC
2 setlinecap
10.0 ML
2 LW
N
272.373 328.5 M
271.633 326.224 L
269.697 324.817 L
267.303 324.817 L
265.367 326.224 L
264.627 328.5 L
265.367 330.776 L
267.303 332.183 L
269.697 332.183 L
271.633 330.776 L
272.373 328.5 L
S
GR
GS
0 0.447 0.741 RC
2 setlinecap
10.0 ML
2 LW
N
222.373 292.5 M
221.633 290.224 L
219.697 288.817 L
217.303 288.817 L
215.367 290.224 L
214.627 292.5 L
215.367 294.776 L
217.303 296.183 L
219.697 296.183 L
221.633 294.776 L
222.373 292.5 L
S
GR
GS
0 0.447 0.741 RC
2 setlinecap
10.0 ML
2 LW
N
235.373 113.5 M
234.633 111.224 L
232.697 109.817 L
230.303 109.817 L
228.367 111.224 L
227.627 113.5 L
228.367 115.776 L
230.303 117.183 L
232.697 117.183 L
234.633 115.776 L
235.373 113.5 L
S
GR
GS
0 0.447 0.741 RC
2 setlinecap
10.0 ML
2 LW
N
263.373 344.5 M
262.633 342.224 L
260.697 340.817 L
258.303 340.817 L
256.367 342.224 L
255.627 344.5 L
256.367 346.776 L
258.303 348.183 L
260.697 348.183 L
262.633 346.776 L
263.373 344.5 L
S
GR
GS
0 0.447 0.741 RC
2 setlinecap
10.0 ML
2 LW
N
218.373 87.5 M
217.633 85.224 L
215.697 83.817 L
213.303 83.817 L
211.367 85.224 L
210.627 87.5 L
211.367 89.776 L
213.303 91.183 L
215.697 91.183 L
217.633 89.776 L
218.373 87.5 L
S
GR
GS
0 0.447 0.741 RC
2 setlinecap
10.0 ML
2 LW
N
250.373 275.5 M
249.633 273.224 L
247.697 271.817 L
245.303 271.817 L
243.367 273.224 L
242.627 275.5 L
243.367 277.776 L
245.303 279.183 L
247.697 279.183 L
249.633 277.776 L
250.373 275.5 L
S
GR
GS
0 0.447 0.741 RC
2 setlinecap
10.0 ML
2 LW
N
260.373 43.5 M
259.633 41.224 L
257.697 39.817 L
255.303 39.817 L
253.367 41.224 L
252.627 43.5 L
253.367 45.776 L
255.303 47.183 L
257.697 47.183 L
259.633 45.776 L
260.373 43.5 L
S
GR
GS
0 0.447 0.741 RC
2 setlinecap
10.0 ML
2 LW
N
355.373 31.5 M
354.633 29.224 L
352.697 27.817 L
350.303 27.817 L
348.367 29.224 L
347.627 31.5 L
348.367 33.776 L
350.303 35.183 L
352.697 35.183 L
354.633 33.776 L
355.373 31.5 L
S
GR
GS
0 0.447 0.741 RC
2 setlinecap
10.0 ML
2 LW
N
375.373 218.5 M
374.633 216.224 L
372.697 214.817 L
370.303 214.817 L
368.367 216.224 L
367.627 218.5 L
368.367 220.776 L
370.303 222.183 L
372.697 222.183 L
374.633 220.776 L
375.373 218.5 L
S
GR
GS
0 0.447 0.741 RC
2 setlinecap
10.0 ML
2 LW
N
267.373 336.5 M
266.633 334.224 L
264.697 332.817 L
262.303 332.817 L
260.367 334.224 L
259.627 336.5 L
260.367 338.776 L
262.303 340.183 L
264.697 340.183 L
266.633 338.776 L
267.373 336.5 L
S
GR
GS
0 0.447 0.741 RC
2 setlinecap
10.0 ML
2 LW
N
235.373 117.5 M
234.633 115.224 L
232.697 113.817 L
230.303 113.817 L
228.367 115.224 L
227.627 117.5 L
228.367 119.776 L
230.303 121.183 L
232.697 121.183 L
234.633 119.776 L
235.373 117.5 L
S
GR
GS
0 0.447 0.741 RC
2 setlinecap
10.0 ML
2 LW
N
259.373 291.5 M
258.633 289.224 L
256.697 287.817 L
254.303 287.817 L
252.367 289.224 L
251.627 291.5 L
252.367 293.776 L
254.303 295.183 L
256.697 295.183 L
258.633 293.776 L
259.373 291.5 L
S
GR
GS
0 0.447 0.741 RC
2 setlinecap
10.0 ML
2 LW
N
240.373 169.5 M
239.633 167.224 L
237.697 165.817 L
235.303 165.817 L
233.367 167.224 L
232.627 169.5 L
233.367 171.776 L
235.303 173.183 L
237.697 173.183 L
239.633 171.776 L
240.373 169.5 L
S
GR
GS
0 0.447 0.741 RC
2 setlinecap
10.0 ML
2 LW
N
242.373 83.5 M
241.633 81.224 L
239.697 79.817 L
237.303 79.817 L
235.367 81.224 L
234.627 83.5 L
235.367 85.776 L
237.303 87.183 L
239.697 87.183 L
241.633 85.776 L
242.373 83.5 L
S
GR
GS
0 0.447 0.741 RC
2 setlinecap
10.0 ML
2 LW
N
418.373 345.5 M
417.633 343.224 L
415.697 341.817 L
413.303 341.817 L
411.367 343.224 L
410.627 345.5 L
411.367 347.776 L
413.303 349.183 L
415.697 349.183 L
417.633 347.776 L
418.373 345.5 L
S
GR
GS
0 0.447 0.741 RC
2 setlinecap
10.0 ML
2 LW
N
223.373 77.5 M
222.633 75.224 L
220.697 73.817 L
218.303 73.817 L
216.367 75.224 L
215.627 77.5 L
216.367 79.776 L
218.303 81.183 L
220.697 81.183 L
222.633 79.776 L
223.373 77.5 L
S
GR
GS
0 0.447 0.741 RC
2 setlinecap
10.0 ML
2 LW
N
261.373 56.5 M
260.633 54.224 L
258.697 52.817 L
256.303 52.817 L
254.367 54.224 L
253.627 56.5 L
254.367 58.776 L
256.303 60.183 L
258.697 60.183 L
260.633 58.776 L
261.373 56.5 L
S
GR
GS
0 0.447 0.741 RC
2 setlinecap
10.0 ML
2 LW
N
341.373 347.5 M
340.633 345.224 L
338.697 343.817 L
336.303 343.817 L
334.367 345.224 L
333.627 347.5 L
334.367 349.776 L
336.303 351.183 L
338.697 351.183 L
340.633 349.776 L
341.373 347.5 L
S
GR
GS
0 0.447 0.741 RC
2 setlinecap
10.0 ML
2 LW
N
257.373 228.5 M
256.633 226.224 L
254.697 224.817 L
252.303 224.817 L
250.367 226.224 L
249.627 228.5 L
250.367 230.776 L
252.303 232.183 L
254.697 232.183 L
256.633 230.776 L
257.373 228.5 L
S
GR
GS
0 0.447 0.741 RC
2 setlinecap
10.0 ML
2 LW
N
220.373 121.5 M
219.633 119.224 L
217.697 117.817 L
215.303 117.817 L
213.367 119.224 L
212.627 121.5 L
213.367 123.776 L
215.303 125.183 L
217.697 125.183 L
219.633 123.776 L
220.373 121.5 L
S
GR
GS
0 0.447 0.741 RC
2 setlinecap
10.0 ML
2 LW
N
371.373 338.5 M
370.633 336.224 L
368.697 334.817 L
366.303 334.817 L
364.367 336.224 L
363.627 338.5 L
364.367 340.776 L
366.303 342.183 L
368.697 342.183 L
370.633 340.776 L
371.373 338.5 L
S
GR
GS
0 0.447 0.741 RC
2 setlinecap
10.0 ML
2 LW
N
355.373 316.5 M
354.633 314.224 L
352.697 312.817 L
350.303 312.817 L
348.367 314.224 L
347.627 316.5 L
348.367 318.776 L
350.303 320.183 L
352.697 320.183 L
354.633 318.776 L
355.373 316.5 L
S
GR
GS
0 0.447 0.741 RC
2 setlinecap
10.0 ML
2 LW
N
297.373 320.5 M
296.633 318.224 L
294.697 316.817 L
292.303 316.817 L
290.367 318.224 L
289.627 320.5 L
290.367 322.776 L
292.303 324.183 L
294.697 324.183 L
296.633 322.776 L
297.373 320.5 L
S
GR
GS
0 0.447 0.741 RC
2 setlinecap
10.0 ML
2 LW
N
288.373 184.5 M
287.633 182.224 L
285.697 180.817 L
283.303 180.817 L
281.367 182.224 L
280.627 184.5 L
281.367 186.776 L
283.303 188.183 L
285.697 188.183 L
287.633 186.776 L
288.373 184.5 L
S
GR
GS
0 0.447 0.741 RC
2 setlinecap
10.0 ML
2 LW
N
314.373 138.5 M
313.633 136.224 L
311.697 134.817 L
309.303 134.817 L
307.367 136.224 L
306.627 138.5 L
307.367 140.776 L
309.303 142.183 L
311.697 142.183 L
313.633 140.776 L
314.373 138.5 L
S
GR
GS
0 0.447 0.741 RC
2 setlinecap
10.0 ML
2 LW
N
382.373 351.5 M
381.633 349.224 L
379.697 347.817 L
377.303 347.817 L
375.367 349.224 L
374.627 351.5 L
375.367 353.776 L
377.303 355.183 L
379.697 355.183 L
381.633 353.776 L
382.373 351.5 L
S
GR
GS
0 0.447 0.741 RC
2 setlinecap
10.0 ML
2 LW
N
297.373 269.5 M
296.633 267.224 L
294.697 265.817 L
292.303 265.817 L
290.367 267.224 L
289.627 269.5 L
290.367 271.776 L
292.303 273.183 L
294.697 273.183 L
296.633 271.776 L
297.373 269.5 L
S
GR
GS
0 0.447 0.741 RC
2 setlinecap
10.0 ML
2 LW
N
293.373 321.5 M
292.633 319.224 L
290.697 317.817 L
288.303 317.817 L
286.367 319.224 L
285.627 321.5 L
286.367 323.776 L
288.303 325.183 L
290.697 325.183 L
292.633 323.776 L
293.373 321.5 L
S
GR
GS
0 0.447 0.741 RC
2 setlinecap
10.0 ML
2 LW
N
386.373 205.5 M
385.633 203.224 L
383.697 201.817 L
381.303 201.817 L
379.367 203.224 L
378.627 205.5 L
379.367 207.776 L
381.303 209.183 L
383.697 209.183 L
385.633 207.776 L
386.373 205.5 L
S
GR
GS
0 0.447 0.741 RC
2 setlinecap
10.0 ML
2 LW
N
291.373 291.5 M
290.633 289.224 L
288.697 287.817 L
286.303 287.817 L
284.367 289.224 L
283.627 291.5 L
284.367 293.776 L
286.303 295.183 L
288.697 295.183 L
290.633 293.776 L
291.373 291.5 L
S
GR
GS
0 0.447 0.741 RC
2 setlinecap
10.0 ML
2 LW
N
271.373 160.5 M
270.633 158.224 L
268.697 156.817 L
266.303 156.817 L
264.367 158.224 L
263.627 160.5 L
264.367 162.776 L
266.303 164.183 L
268.697 164.183 L
270.633 162.776 L
271.373 160.5 L
S
GR
GS
0 0.447 0.741 RC
2 setlinecap
10.0 ML
2 LW
N
264.373 343.5 M
263.633 341.224 L
261.697 339.817 L
259.303 339.817 L
257.367 341.224 L
256.627 343.5 L
257.367 345.776 L
259.303 347.183 L
261.697 347.183 L
263.633 345.776 L
264.373 343.5 L
S
GR
GS
0 0.447 0.741 RC
2 setlinecap
10.0 ML
2 LW
N
260.373 324.5 M
259.633 322.224 L
257.697 320.817 L
255.303 320.817 L
253.367 322.224 L
252.627 324.5 L
253.367 326.776 L
255.303 328.183 L
257.697 328.183 L
259.633 326.776 L
260.373 324.5 L
S
GR
GS
0 0.447 0.741 RC
2 setlinecap
10.0 ML
2 LW
N
271.373 263.5 M
270.633 261.224 L
268.697 259.817 L
266.303 259.817 L
264.367 261.224 L
263.627 263.5 L
264.367 265.776 L
266.303 267.183 L
268.697 267.183 L
270.633 265.776 L
271.373 263.5 L
S
GR
GS
0 0.447 0.741 RC
2 setlinecap
10.0 ML
2 LW
N
290.373 339.5 M
289.633 337.224 L
287.697 335.817 L
285.303 335.817 L
283.367 337.224 L
282.627 339.5 L
283.367 341.776 L
285.303 343.183 L
287.697 343.183 L
289.633 341.776 L
290.373 339.5 L
S
GR
GS
0 0.447 0.741 RC
2 setlinecap
10.0 ML
2 LW
N
411.373 356.5 M
410.633 354.224 L
408.697 352.817 L
406.303 352.817 L
404.367 354.224 L
403.627 356.5 L
404.367 358.776 L
406.303 360.183 L
408.697 360.183 L
410.633 358.776 L
411.373 356.5 L
S
GR
GS
0 0.447 0.741 RC
2 setlinecap
10.0 ML
2 LW
N
286.373 343.5 M
285.633 341.224 L
283.697 339.817 L
281.303 339.817 L
279.367 341.224 L
278.627 343.5 L
279.367 345.776 L
281.303 347.183 L
283.697 347.183 L
285.633 345.776 L
286.373 343.5 L
S
GR
GS
0 0.447 0.741 RC
2 setlinecap
10.0 ML
2 LW
N
277.373 245.5 M
276.633 243.224 L
274.697 241.817 L
272.303 241.817 L
270.367 243.224 L
269.627 245.5 L
270.367 247.776 L
272.303 249.183 L
274.697 249.183 L
276.633 247.776 L
277.373 245.5 L
S
GR
GS
0 0.447 0.741 RC
2 setlinecap
10.0 ML
2 LW
N
288.373 348.5 M
287.633 346.224 L
285.697 344.817 L
283.303 344.817 L
281.367 346.224 L
280.627 348.5 L
281.367 350.776 L
283.303 352.183 L
285.697 352.183 L
287.633 350.776 L
288.373 348.5 L
S
GR
GS
0 0.447 0.741 RC
2 setlinecap
10.0 ML
2 LW
N
194.373 353.5 M
193.633 351.224 L
191.697 349.817 L
189.303 349.817 L
187.367 351.224 L
186.627 353.5 L
187.367 355.776 L
189.303 357.183 L
191.697 357.183 L
193.633 355.776 L
194.373 353.5 L
S
GR
GS
0 0.447 0.741 RC
2 setlinecap
10.0 ML
2 LW
N
279.373 295.5 M
278.633 293.224 L
276.697 291.817 L
274.303 291.817 L
272.367 293.224 L
271.627 295.5 L
272.367 297.776 L
274.303 299.183 L
276.697 299.183 L
278.633 297.776 L
279.373 295.5 L
S
GR
GS
0 0.447 0.741 RC
2 setlinecap
10.0 ML
2 LW
N
242.373 183.5 M
241.633 181.224 L
239.697 179.817 L
237.303 179.817 L
235.367 181.224 L
234.627 183.5 L
235.367 185.776 L
237.303 187.183 L
239.697 187.183 L
241.633 185.776 L
242.373 183.5 L
S
GR
GS
0 0.447 0.741 RC
2 setlinecap
10.0 ML
2 LW
N
249.373 347.5 M
248.633 345.224 L
246.697 343.817 L
244.303 343.817 L
242.367 345.224 L
241.627 347.5 L
242.367 349.776 L
244.303 351.183 L
246.697 351.183 L
248.633 349.776 L
249.373 347.5 L
S
GR
GS
0 0.447 0.741 RC
2 setlinecap
10.0 ML
2 LW
N
362.373 241.5 M
361.633 239.224 L
359.697 237.817 L
357.303 237.817 L
355.367 239.224 L
354.627 241.5 L
355.367 243.776 L
357.303 245.183 L
359.697 245.183 L
361.633 243.776 L
362.373 241.5 L
S
GR
GS
0 0.447 0.741 RC
2 setlinecap
10.0 ML
2 LW
N
402.373 346.5 M
401.633 344.224 L
399.697 342.817 L
397.303 342.817 L
395.367 344.224 L
394.627 346.5 L
395.367 348.776 L
397.303 350.183 L
399.697 350.183 L
401.633 348.776 L
402.373 346.5 L
S
GR
GS
0 0.447 0.741 RC
2 setlinecap
10.0 ML
2 LW
N
353.373 142.5 M
352.633 140.224 L
350.697 138.817 L
348.303 138.817 L
346.367 140.224 L
345.627 142.5 L
346.367 144.776 L
348.303 146.183 L
350.697 146.183 L
352.633 144.776 L
353.373 142.5 L
S
GR
GS
0 0.447 0.741 RC
2 setlinecap
10.0 ML
2 LW
N
270.373 197.5 M
269.633 195.224 L
267.697 193.817 L
265.303 193.817 L
263.367 195.224 L
262.627 197.5 L
263.367 199.776 L
265.303 201.183 L
267.697 201.183 L
269.633 199.776 L
270.373 197.5 L
S
GR
GS
0 0.447 0.741 RC
2 setlinecap
10.0 ML
2 LW
N
361.373 215.5 M
360.633 213.224 L
358.697 211.817 L
356.303 211.817 L
354.367 213.224 L
353.627 215.5 L
354.367 217.776 L
356.303 219.183 L
358.697 219.183 L
360.633 217.776 L
361.373 215.5 L
S
GR
GS
0 0.447 0.741 RC
2 setlinecap
10.0 ML
2 LW
N
390.373 342.5 M
389.633 340.224 L
387.697 338.817 L
385.303 338.817 L
383.367 340.224 L
382.627 342.5 L
383.367 344.776 L
385.303 346.183 L
387.697 346.183 L
389.633 344.776 L
390.373 342.5 L
S
GR
GS
0 0.447 0.741 RC
2 setlinecap
10.0 ML
2 LW
N
275.373 195.5 M
274.633 193.224 L
272.697 191.817 L
270.303 191.817 L
268.367 193.224 L
267.627 195.5 L
268.367 197.776 L
270.303 199.183 L
272.697 199.183 L
274.633 197.776 L
275.373 195.5 L
S
GR
GS
0 0.447 0.741 RC
2 setlinecap
10.0 ML
2 LW
N
219.373 303.5 M
218.633 301.224 L
216.697 299.817 L
214.303 299.817 L
212.367 301.224 L
211.627 303.5 L
212.367 305.776 L
214.303 307.183 L
216.697 307.183 L
218.633 305.776 L
219.373 303.5 L
S
GR
GS
0 0.447 0.741 RC
2 setlinecap
10.0 ML
2 LW
N
305.373 333.5 M
304.633 331.224 L
302.697 329.817 L
300.303 329.817 L
298.367 331.224 L
297.627 333.5 L
298.367 335.776 L
300.303 337.183 L
302.697 337.183 L
304.633 335.776 L
305.373 333.5 L
S
GR
GS
0 0.447 0.741 RC
2 setlinecap
10.0 ML
2 LW
N
280.373 301.5 M
279.633 299.224 L
277.697 297.817 L
275.303 297.817 L
273.367 299.224 L
272.627 301.5 L
273.367 303.776 L
275.303 305.183 L
277.697 305.183 L
279.633 303.776 L
280.373 301.5 L
S
GR
GS
0 0.447 0.741 RC
2 setlinecap
10.0 ML
2 LW
N
252.373 177.5 M
251.633 175.224 L
249.697 173.817 L
247.303 173.817 L
245.367 175.224 L
244.627 177.5 L
245.367 179.776 L
247.303 181.183 L
249.697 181.183 L
251.633 179.776 L
252.373 177.5 L
S
GR
GS
0 0.447 0.741 RC
2 setlinecap
10.0 ML
2 LW
N
289.373 341.5 M
288.633 339.224 L
286.697 337.817 L
284.303 337.817 L
282.367 339.224 L
281.627 341.5 L
282.367 343.776 L
284.303 345.183 L
286.697 345.183 L
288.633 343.776 L
289.373 341.5 L
S
GR
GS
0 0.447 0.741 RC
2 setlinecap
10.0 ML
2 LW
N
279.373 291.5 M
278.633 289.224 L
276.697 287.817 L
274.303 287.817 L
272.367 289.224 L
271.627 291.5 L
272.367 293.776 L
274.303 295.183 L
276.697 295.183 L
278.633 293.776 L
279.373 291.5 L
S
GR
GS
0 0.447 0.741 RC
2 setlinecap
10.0 ML
2 LW
N
275.373 119.5 M
274.633 117.224 L
272.697 115.817 L
270.303 115.817 L
268.367 117.224 L
267.627 119.5 L
268.367 121.776 L
270.303 123.183 L
272.697 123.183 L
274.633 121.776 L
275.373 119.5 L
S
GR
GS
0 0.447 0.741 RC
2 setlinecap
10.0 ML
2 LW
N
277.373 174.5 M
276.633 172.224 L
274.697 170.817 L
272.303 170.817 L
270.367 172.224 L
269.627 174.5 L
270.367 176.776 L
272.303 178.183 L
274.697 178.183 L
276.633 176.776 L
277.373 174.5 L
S
GR
GS
0 0.447 0.741 RC
2 setlinecap
10.0 ML
2 LW
N
288.373 225.5 M
287.633 223.224 L
285.697 221.817 L
283.303 221.817 L
281.367 223.224 L
280.627 225.5 L
281.367 227.776 L
283.303 229.183 L
285.697 229.183 L
287.633 227.776 L
288.373 225.5 L
S
GR
GS
0 0.447 0.741 RC
2 setlinecap
10.0 ML
2 LW
N
212.373 352.5 M
211.633 350.224 L
209.697 348.817 L
207.303 348.817 L
205.367 350.224 L
204.627 352.5 L
205.367 354.776 L
207.303 356.183 L
209.697 356.183 L
211.633 354.776 L
212.373 352.5 L
S
GR
GS
0 0.447 0.741 RC
2 setlinecap
10.0 ML
2 LW
N
210.373 354.5 M
209.633 352.224 L
207.697 350.817 L
205.303 350.817 L
203.367 352.224 L
202.627 354.5 L
203.367 356.776 L
205.303 358.183 L
207.697 358.183 L
209.633 356.776 L
210.373 354.5 L
S
GR
GS
0 0.447 0.741 RC
2 setlinecap
10.0 ML
2 LW
N
242.373 330.5 M
241.633 328.224 L
239.697 326.817 L
237.303 326.817 L
235.367 328.224 L
234.627 330.5 L
235.367 332.776 L
237.303 334.183 L
239.697 334.183 L
241.633 332.776 L
242.373 330.5 L
S
GR
GS
0 0.447 0.741 RC
2 setlinecap
10.0 ML
2 LW
N
291.373 350.5 M
290.633 348.224 L
288.697 346.817 L
286.303 346.817 L
284.367 348.224 L
283.627 350.5 L
284.367 352.776 L
286.303 354.183 L
288.697 354.183 L
290.633 352.776 L
291.373 350.5 L
S
GR
GS
0 0.447 0.741 RC
2 setlinecap
10.0 ML
2 LW
N
286.373 323.5 M
285.633 321.224 L
283.697 319.817 L
281.303 319.817 L
279.367 321.224 L
278.627 323.5 L
279.367 325.776 L
281.303 327.183 L
283.697 327.183 L
285.633 325.776 L
286.373 323.5 L
S
GR
GS
0 0.447 0.741 RC
2 setlinecap
10.0 ML
2 LW
N
257.373 353.5 M
256.633 351.224 L
254.697 349.817 L
252.303 349.817 L
250.367 351.224 L
249.627 353.5 L
250.367 355.776 L
252.303 357.183 L
254.697 357.183 L
256.633 355.776 L
257.373 353.5 L
S
GR
GS
0 0.447 0.741 RC
2 setlinecap
10.0 ML
2 LW
N
308.373 296.5 M
307.633 294.224 L
305.697 292.817 L
303.303 292.817 L
301.367 294.224 L
300.627 296.5 L
301.367 298.776 L
303.303 300.183 L
305.697 300.183 L
307.633 298.776 L
308.373 296.5 L
S
GR
GS
0 0.447 0.741 RC
2 setlinecap
10.0 ML
2 LW
N
279.373 301.5 M
278.633 299.224 L
276.697 297.817 L
274.303 297.817 L
272.367 299.224 L
271.627 301.5 L
272.367 303.776 L
274.303 305.183 L
276.697 305.183 L
278.633 303.776 L
279.373 301.5 L
S
GR
GS
0 0.447 0.741 RC
2 setlinecap
10.0 ML
2 LW
N
306.373 277.5 M
305.633 275.224 L
303.697 273.817 L
301.303 273.817 L
299.367 275.224 L
298.627 277.5 L
299.367 279.776 L
301.303 281.183 L
303.697 281.183 L
305.633 279.776 L
306.373 277.5 L
S
GR
GS
0 0.447 0.741 RC
2 setlinecap
10.0 ML
2 LW
N
366.373 127.5 M
365.633 125.224 L
363.697 123.817 L
361.303 123.817 L
359.367 125.224 L
358.627 127.5 L
359.367 129.776 L
361.303 131.183 L
363.697 131.183 L
365.633 129.776 L
366.373 127.5 L
S
GR
GS
0 0.447 0.741 RC
2 setlinecap
10.0 ML
2 LW
N
282.373 327.5 M
281.633 325.224 L
279.697 323.817 L
277.303 323.817 L
275.367 325.224 L
274.627 327.5 L
275.367 329.776 L
277.303 331.183 L
279.697 331.183 L
281.633 329.776 L
282.373 327.5 L
S
GR
GS
0 0.447 0.741 RC
2 setlinecap
10.0 ML
2 LW
N
197.373 77.5 M
196.633 75.224 L
194.697 73.817 L
192.303 73.817 L
190.367 75.224 L
189.627 77.5 L
190.367 79.776 L
192.303 81.183 L
194.697 81.183 L
196.633 79.776 L
197.373 77.5 L
S
GR
GS
0 0.447 0.741 RC
2 setlinecap
10.0 ML
2 LW
N
293.373 130.5 M
292.633 128.224 L
290.697 126.817 L
288.303 126.817 L
286.367 128.224 L
285.627 130.5 L
286.367 132.776 L
288.303 134.183 L
290.697 134.183 L
292.633 132.776 L
293.373 130.5 L
S
GR
GS
[1 0 0 1 298.00031 26.22501] CT
/Helvetica 23 F
GS
[1 0 0 1 0 0] CT
-37.5 -6 moveto 
1 -1 scale
(Control) t 
GR
GR
%%Trailer
%%BoundingBox: 6 0 539 429
%%Pages: 1
%%EOF
