%!PS-Adobe-3.0 EPSF-3.0
%%Creator: (MATLAB, The Mathworks, Inc. Version 8.5.0.197613 \(R2015a\). Operating System: Mac OS X)
%%Title: ./RBoptim-mParam_scat-costfun55.eps
%%CreationDate: 2015-05-27T12:10:19
%%Pages: (atend)
%%BoundingBox: (atend)
%%LanguageLevel: 3
%%EndComments
%%BeginProlog
%%BeginResource: procset (Apache XML Graphics Std ProcSet) 1.2 0
%%Version: 1.2 0
%%Copyright: (Copyright 2001-2003,2010 The Apache Software Foundation. License terms: http://www.apache.org/licenses/LICENSE-2.0)
/bd{bind def}bind def
/ld{load def}bd
/GR/grestore ld
/M/moveto ld
/LJ/setlinejoin ld
/C/curveto ld
/f/fill ld
/LW/setlinewidth ld
/GC/setgray ld
/t/show ld
/N/newpath ld
/CT/concat ld
/cp/closepath ld
/S/stroke ld
/L/lineto ld
/CC/setcmykcolor ld
/A/ashow ld
/GS/gsave ld
/RC/setrgbcolor ld
/RM/rmoveto ld
/ML/setmiterlimit ld
/re {4 2 roll M
1 index 0 rlineto
0 exch rlineto
neg 0 rlineto
cp } bd
/_ctm matrix def
/_tm matrix def
/BT { _ctm currentmatrix pop matrix _tm copy pop 0 0 moveto } bd
/ET { _ctm setmatrix } bd
/iTm { _ctm setmatrix _tm concat } bd
/Tm { _tm astore pop iTm 0 0 moveto } bd
/ux 0.0 def
/uy 0.0 def
/F {
  /Tp exch def
  /Tf exch def
  Tf findfont Tp scalefont setfont
  /cf Tf def  /cs Tp def
} bd
/ULS {currentpoint /uy exch def /ux exch def} bd
/ULE {
  /Tcx currentpoint pop def
  gsave
  newpath
  cf findfont cs scalefont dup
  /FontMatrix get 0 get /Ts exch def /FontInfo get dup
  /UnderlinePosition get Ts mul /To exch def
  /UnderlineThickness get Ts mul /Tt exch def
  ux uy To add moveto  Tcx uy To add lineto
  Tt setlinewidth stroke
  grestore
} bd
/OLE {
  /Tcx currentpoint pop def
  gsave
  newpath
  cf findfont cs scalefont dup
  /FontMatrix get 0 get /Ts exch def /FontInfo get dup
  /UnderlinePosition get Ts mul /To exch def
  /UnderlineThickness get Ts mul /Tt exch def
  ux uy To add cs add moveto Tcx uy To add cs add lineto
  Tt setlinewidth stroke
  grestore
} bd
/SOE {
  /Tcx currentpoint pop def
  gsave
  newpath
  cf findfont cs scalefont dup
  /FontMatrix get 0 get /Ts exch def /FontInfo get dup
  /UnderlinePosition get Ts mul /To exch def
  /UnderlineThickness get Ts mul /Tt exch def
  ux uy To add cs 10 mul 26 idiv add moveto Tcx uy To add cs 10 mul 26 idiv add lineto
  Tt setlinewidth stroke
  grestore
} bd
/QT {
/Y22 exch store
/X22 exch store
/Y21 exch store
/X21 exch store
currentpoint
/Y21 load 2 mul add 3 div exch
/X21 load 2 mul add 3 div exch
/X21 load 2 mul /X22 load add 3 div
/Y21 load 2 mul /Y22 load add 3 div
/X22 load /Y22 load curveto
} bd
/SSPD {
dup length /d exch dict def
{
/v exch def
/k exch def
currentpagedevice k known {
/cpdv currentpagedevice k get def
v cpdv ne {
/upd false def
/nullv v type /nulltype eq def
/nullcpdv cpdv type /nulltype eq def
nullv nullcpdv or
{
/upd true def
} {
/sametype v type cpdv type eq def
sametype {
v type /arraytype eq {
/vlen v length def
/cpdvlen cpdv length def
vlen cpdvlen eq {
0 1 vlen 1 sub {
/i exch def
/obj v i get def
/cpdobj cpdv i get def
obj cpdobj ne {
/upd true def
exit
} if
} for
} {
/upd true def
} ifelse
} {
v type /dicttype eq {
v {
/dv exch def
/dk exch def
/cpddv cpdv dk get def
dv cpddv ne {
/upd true def
exit
} if
} forall
} {
/upd true def
} ifelse
} ifelse
} if
} ifelse
upd true eq {
d k v put
} if
} if
} if
} forall
d length 0 gt {
d setpagedevice
} if
} bd
%%EndResource
%%BeginResource: procset (Apache XML Graphics EPS ProcSet) 1.0 0
%%Version: 1.0 0
%%Copyright: (Copyright 2002-2003 The Apache Software Foundation. License terms: http://www.apache.org/licenses/LICENSE-2.0)
/BeginEPSF { %def
/b4_Inc_state save def         % Save state for cleanup
/dict_count countdictstack def % Count objects on dict stack
/op_count count 1 sub def      % Count objects on operand stack
userdict begin                 % Push userdict on dict stack
/showpage { } def              % Redefine showpage, { } = null proc
0 setgray 0 setlinecap         % Prepare graphics state
1 setlinewidth 0 setlinejoin
10 setmiterlimit [ ] 0 setdash newpath
/languagelevel where           % If level not equal to 1 then
{pop languagelevel             % set strokeadjust and
1 ne                           % overprint to their defaults.
{false setstrokeadjust false setoverprint
} if
} if
} bd
/EndEPSF { %def
count op_count sub {pop} repeat            % Clean up stacks
countdictstack dict_count sub {end} repeat
b4_Inc_state restore
} bd
%%EndResource
%FOPBeginFontDict
%%IncludeResource: font Courier-Bold
%%IncludeResource: font Helvetica
%%IncludeResource: font Courier-BoldOblique
%%IncludeResource: font Courier-Oblique
%%IncludeResource: font Times-Roman
%%IncludeResource: font Helvetica-BoldOblique
%%IncludeResource: font Helvetica-Bold
%%IncludeResource: font Helvetica-Oblique
%%IncludeResource: font Times-BoldItalic
%%IncludeResource: font Courier
%%IncludeResource: font Times-Italic
%%IncludeResource: font Times-Bold
%%IncludeResource: font Symbol
%%IncludeResource: font ZapfDingbats
%FOPEndFontDict
%%BeginResource: encoding WinAnsiEncoding
/WinAnsiEncoding [
/.notdef /.notdef /.notdef /.notdef /.notdef
/.notdef /.notdef /.notdef /.notdef /.notdef
/.notdef /.notdef /.notdef /.notdef /.notdef
/.notdef /.notdef /.notdef /.notdef /.notdef
/.notdef /.notdef /.notdef /.notdef /.notdef
/.notdef /.notdef /.notdef /.notdef /.notdef
/.notdef /.notdef /space /exclam /quotedbl
/numbersign /dollar /percent /ampersand /quotesingle
/parenleft /parenright /asterisk /plus /comma
/hyphen /period /slash /zero /one
/two /three /four /five /six
/seven /eight /nine /colon /semicolon
/less /equal /greater /question /at
/A /B /C /D /E
/F /G /H /I /J
/K /L /M /N /O
/P /Q /R /S /T
/U /V /W /X /Y
/Z /bracketleft /backslash /bracketright /asciicircum
/underscore /quoteleft /a /b /c
/d /e /f /g /h
/i /j /k /l /m
/n /o /p /q /r
/s /t /u /v /w
/x /y /z /braceleft /bar
/braceright /asciitilde /bullet /Euro /bullet
/quotesinglbase /florin /quotedblbase /ellipsis /dagger
/daggerdbl /circumflex /perthousand /Scaron /guilsinglleft
/OE /bullet /Zcaron /bullet /bullet
/quoteleft /quoteright /quotedblleft /quotedblright /bullet
/endash /emdash /asciitilde /trademark /scaron
/guilsinglright /oe /bullet /zcaron /Ydieresis
/space /exclamdown /cent /sterling /currency
/yen /brokenbar /section /dieresis /copyright
/ordfeminine /guillemotleft /logicalnot /sfthyphen /registered
/macron /degree /plusminus /twosuperior /threesuperior
/acute /mu /paragraph /middot /cedilla
/onesuperior /ordmasculine /guillemotright /onequarter /onehalf
/threequarters /questiondown /Agrave /Aacute /Acircumflex
/Atilde /Adieresis /Aring /AE /Ccedilla
/Egrave /Eacute /Ecircumflex /Edieresis /Igrave
/Iacute /Icircumflex /Idieresis /Eth /Ntilde
/Ograve /Oacute /Ocircumflex /Otilde /Odieresis
/multiply /Oslash /Ugrave /Uacute /Ucircumflex
/Udieresis /Yacute /Thorn /germandbls /agrave
/aacute /acircumflex /atilde /adieresis /aring
/ae /ccedilla /egrave /eacute /ecircumflex
/edieresis /igrave /iacute /icircumflex /idieresis
/eth /ntilde /ograve /oacute /ocircumflex
/otilde /odieresis /divide /oslash /ugrave
/uacute /ucircumflex /udieresis /yacute /thorn
/ydieresis
] def
%%EndResource
%FOPBeginFontReencode
/Courier-Bold findfont
dup length dict begin
  {1 index /FID ne {def} {pop pop} ifelse} forall
  /Encoding WinAnsiEncoding def
  currentdict
end
/Courier-Bold exch definefont pop
/Helvetica findfont
dup length dict begin
  {1 index /FID ne {def} {pop pop} ifelse} forall
  /Encoding WinAnsiEncoding def
  currentdict
end
/Helvetica exch definefont pop
/Courier-BoldOblique findfont
dup length dict begin
  {1 index /FID ne {def} {pop pop} ifelse} forall
  /Encoding WinAnsiEncoding def
  currentdict
end
/Courier-BoldOblique exch definefont pop
/Courier-Oblique findfont
dup length dict begin
  {1 index /FID ne {def} {pop pop} ifelse} forall
  /Encoding WinAnsiEncoding def
  currentdict
end
/Courier-Oblique exch definefont pop
/Times-Roman findfont
dup length dict begin
  {1 index /FID ne {def} {pop pop} ifelse} forall
  /Encoding WinAnsiEncoding def
  currentdict
end
/Times-Roman exch definefont pop
/Helvetica-BoldOblique findfont
dup length dict begin
  {1 index /FID ne {def} {pop pop} ifelse} forall
  /Encoding WinAnsiEncoding def
  currentdict
end
/Helvetica-BoldOblique exch definefont pop
/Helvetica-Bold findfont
dup length dict begin
  {1 index /FID ne {def} {pop pop} ifelse} forall
  /Encoding WinAnsiEncoding def
  currentdict
end
/Helvetica-Bold exch definefont pop
/Helvetica-Oblique findfont
dup length dict begin
  {1 index /FID ne {def} {pop pop} ifelse} forall
  /Encoding WinAnsiEncoding def
  currentdict
end
/Helvetica-Oblique exch definefont pop
/Times-BoldItalic findfont
dup length dict begin
  {1 index /FID ne {def} {pop pop} ifelse} forall
  /Encoding WinAnsiEncoding def
  currentdict
end
/Times-BoldItalic exch definefont pop
/Courier findfont
dup length dict begin
  {1 index /FID ne {def} {pop pop} ifelse} forall
  /Encoding WinAnsiEncoding def
  currentdict
end
/Courier exch definefont pop
/Times-Italic findfont
dup length dict begin
  {1 index /FID ne {def} {pop pop} ifelse} forall
  /Encoding WinAnsiEncoding def
  currentdict
end
/Times-Italic exch definefont pop
/Times-Bold findfont
dup length dict begin
  {1 index /FID ne {def} {pop pop} ifelse} forall
  /Encoding WinAnsiEncoding def
  currentdict
end
/Times-Bold exch definefont pop
%FOPEndFontReencode
%%EndProlog
%%Page: 1 1
%%PageBoundingBox: 0 0 576 432
%%BeginPageSetup
[1 0 0 -1 0 432] CT
%%EndPageSetup
GS
1 GC
N
0 0 576 432 re
f
GR
GS
1 GC
N
0 0 576 432 re
f
GR
GS
1 GC
N
75 373 M
521 373 L
521 32 L
75 32 L
cp
f
GR
GS
0.149 GC
2 setlinecap
10.0 ML
N
119.753 373 M
119.753 370.77 L
S
GR
GS
0.149 GC
2 setlinecap
10.0 ML
N
145.932 373 M
145.932 370.77 L
S
GR
GS
0.149 GC
2 setlinecap
10.0 ML
N
164.506 373 M
164.506 370.77 L
S
GR
GS
0.149 GC
2 setlinecap
10.0 ML
N
178.914 373 M
178.914 370.77 L
S
GR
GS
0.149 GC
2 setlinecap
10.0 ML
N
190.685 373 M
190.685 370.77 L
S
GR
GS
0.149 GC
2 setlinecap
10.0 ML
N
200.638 373 M
200.638 370.77 L
S
GR
GS
0.149 GC
2 setlinecap
10.0 ML
N
209.259 373 M
209.259 370.77 L
S
GR
GS
0.149 GC
2 setlinecap
10.0 ML
N
216.864 373 M
216.864 370.77 L
S
GR
GS
0.149 GC
2 setlinecap
10.0 ML
N
268.42 373 M
268.42 370.77 L
S
GR
GS
0.149 GC
2 setlinecap
10.0 ML
N
294.599 373 M
294.599 370.77 L
S
GR
GS
0.149 GC
2 setlinecap
10.0 ML
N
313.173 373 M
313.173 370.77 L
S
GR
GS
0.149 GC
2 setlinecap
10.0 ML
N
327.58 373 M
327.58 370.77 L
S
GR
GS
0.149 GC
2 setlinecap
10.0 ML
N
339.352 373 M
339.352 370.77 L
S
GR
GS
0.149 GC
2 setlinecap
10.0 ML
N
349.305 373 M
349.305 370.77 L
S
GR
GS
0.149 GC
2 setlinecap
10.0 ML
N
357.926 373 M
357.926 370.77 L
S
GR
GS
0.149 GC
2 setlinecap
10.0 ML
N
365.531 373 M
365.531 370.77 L
S
GR
GS
0.149 GC
2 setlinecap
10.0 ML
N
417.086 373 M
417.086 370.77 L
S
GR
GS
0.149 GC
2 setlinecap
10.0 ML
N
443.265 373 M
443.265 370.77 L
S
GR
GS
0.149 GC
2 setlinecap
10.0 ML
N
461.84 373 M
461.84 370.77 L
S
GR
GS
0.149 GC
2 setlinecap
10.0 ML
N
476.247 373 M
476.247 370.77 L
S
GR
GS
0.149 GC
2 setlinecap
10.0 ML
N
488.018 373 M
488.018 370.77 L
S
GR
GS
0.149 GC
2 setlinecap
10.0 ML
N
497.971 373 M
497.971 370.77 L
S
GR
GS
0.149 GC
2 setlinecap
10.0 ML
N
506.593 373 M
506.593 370.77 L
S
GR
GS
0.149 GC
2 setlinecap
10.0 ML
N
514.197 373 M
514.197 370.77 L
S
GR
GS
[1 0 0 1 298.00021 408.20001] CT
0.149 GC
/Helvetica 23 F
GS
[1 0 0 1 0 0] CT
-26 18 moveto 
1 -1 scale
(Error) t 
GR
GR
GS
0.149 GC
2 setlinecap
10.0 ML
N
75 373 M
521 373 L
S
GR
GS
0.149 GC
2 setlinecap
10.0 ML
N
75 373 M
75 368.54 L
S
GR
GS
0.149 GC
2 setlinecap
10.0 ML
N
223.667 373 M
223.667 368.54 L
S
GR
GS
0.149 GC
2 setlinecap
10.0 ML
N
372.333 373 M
372.333 368.54 L
S
GR
GS
0.149 GC
2 setlinecap
10.0 ML
N
521 373 M
521 368.54 L
S
GR
GS
[1 0 0 1 51 402] CT
0.149 GC
/Helvetica 21 F
GS
[1 0 0 1 0 0] CT
0 0 moveto 
1 -1 scale
(10) t 
GR
GR
GS
[1 0 0 1 75 392] CT
0.149 GC
/Helvetica 16 F
GS
[1 0 0 1 0 0] CT
0 0 moveto 
1 -1 scale
(-15) t 
GR
GR
GS
[1 0 0 1 200 402] CT
0.149 GC
/Helvetica 21 F
GS
[1 0 0 1 0 0] CT
0 0 moveto 
1 -1 scale
(10) t 
GR
GR
GS
[1 0 0 1 224 392] CT
0.149 GC
/Helvetica 16 F
GS
[1 0 0 1 0 0] CT
0 0 moveto 
1 -1 scale
(-14) t 
GR
GR
GS
[1 0 0 1 348 402] CT
0.149 GC
/Helvetica 21 F
GS
[1 0 0 1 0 0] CT
0 0 moveto 
1 -1 scale
(10) t 
GR
GR
GS
[1 0 0 1 372 392] CT
0.149 GC
/Helvetica 16 F
GS
[1 0 0 1 0 0] CT
0 0 moveto 
1 -1 scale
(-13) t 
GR
GR
GS
[1 0 0 1 497 402] CT
0.149 GC
/Helvetica 21 F
GS
[1 0 0 1 0 0] CT
0 0 moveto 
1 -1 scale
(10) t 
GR
GR
GS
[1 0 0 1 521 392] CT
0.149 GC
/Helvetica 16 F
GS
[1 0 0 1 0 0] CT
0 0 moveto 
1 -1 scale
(-12) t 
GR
GR
GS
0.149 GC
2 setlinecap
10.0 ML
N
75 352.47 M
77.23 352.47 L
S
GR
GS
0.149 GC
2 setlinecap
10.0 ML
N
75 340.46 M
77.23 340.46 L
S
GR
GS
0.149 GC
2 setlinecap
10.0 ML
N
75 331.94 M
77.23 331.94 L
S
GR
GS
0.149 GC
2 setlinecap
10.0 ML
N
75 325.33 M
77.23 325.33 L
S
GR
GS
0.149 GC
2 setlinecap
10.0 ML
N
75 319.93 M
77.23 319.93 L
S
GR
GS
0.149 GC
2 setlinecap
10.0 ML
N
75 315.364 M
77.23 315.364 L
S
GR
GS
0.149 GC
2 setlinecap
10.0 ML
N
75 311.409 M
77.23 311.409 L
S
GR
GS
0.149 GC
2 setlinecap
10.0 ML
N
75 307.921 M
77.23 307.921 L
S
GR
GS
0.149 GC
2 setlinecap
10.0 ML
N
75 284.27 M
77.23 284.27 L
S
GR
GS
0.149 GC
2 setlinecap
10.0 ML
N
75 272.26 M
77.23 272.26 L
S
GR
GS
0.149 GC
2 setlinecap
10.0 ML
N
75 263.74 M
77.23 263.74 L
S
GR
GS
0.149 GC
2 setlinecap
10.0 ML
N
75 257.13 M
77.23 257.13 L
S
GR
GS
0.149 GC
2 setlinecap
10.0 ML
N
75 251.73 M
77.23 251.73 L
S
GR
GS
0.149 GC
2 setlinecap
10.0 ML
N
75 247.164 M
77.23 247.164 L
S
GR
GS
0.149 GC
2 setlinecap
10.0 ML
N
75 243.209 M
77.23 243.209 L
S
GR
GS
0.149 GC
2 setlinecap
10.0 ML
N
75 239.721 M
77.23 239.721 L
S
GR
GS
0.149 GC
2 setlinecap
10.0 ML
N
75 216.07 M
77.23 216.07 L
S
GR
GS
0.149 GC
2 setlinecap
10.0 ML
N
75 204.06 M
77.23 204.06 L
S
GR
GS
0.149 GC
2 setlinecap
10.0 ML
N
75 195.54 M
77.23 195.54 L
S
GR
GS
0.149 GC
2 setlinecap
10.0 ML
N
75 188.93 M
77.23 188.93 L
S
GR
GS
0.149 GC
2 setlinecap
10.0 ML
N
75 183.53 M
77.23 183.53 L
S
GR
GS
0.149 GC
2 setlinecap
10.0 ML
N
75 178.964 M
77.23 178.964 L
S
GR
GS
0.149 GC
2 setlinecap
10.0 ML
N
75 175.009 M
77.23 175.009 L
S
GR
GS
0.149 GC
2 setlinecap
10.0 ML
N
75 171.521 M
77.23 171.521 L
S
GR
GS
0.149 GC
2 setlinecap
10.0 ML
N
75 147.87 M
77.23 147.87 L
S
GR
GS
0.149 GC
2 setlinecap
10.0 ML
N
75 135.86 M
77.23 135.86 L
S
GR
GS
0.149 GC
2 setlinecap
10.0 ML
N
75 127.34 M
77.23 127.34 L
S
GR
GS
0.149 GC
2 setlinecap
10.0 ML
N
75 120.73 M
77.23 120.73 L
S
GR
GS
0.149 GC
2 setlinecap
10.0 ML
N
75 115.33 M
77.23 115.33 L
S
GR
GS
0.149 GC
2 setlinecap
10.0 ML
N
75 110.764 M
77.23 110.764 L
S
GR
GS
0.149 GC
2 setlinecap
10.0 ML
N
75 106.809 M
77.23 106.809 L
S
GR
GS
0.149 GC
2 setlinecap
10.0 ML
N
75 103.321 M
77.23 103.321 L
S
GR
GS
0.149 GC
2 setlinecap
10.0 ML
N
75 79.67 M
77.23 79.67 L
S
GR
GS
0.149 GC
2 setlinecap
10.0 ML
N
75 67.66 M
77.23 67.66 L
S
GR
GS
0.149 GC
2 setlinecap
10.0 ML
N
75 59.14 M
77.23 59.14 L
S
GR
GS
0.149 GC
2 setlinecap
10.0 ML
N
75 52.53 M
77.23 52.53 L
S
GR
GS
0.149 GC
2 setlinecap
10.0 ML
N
75 47.13 M
77.23 47.13 L
S
GR
GS
0.149 GC
2 setlinecap
10.0 ML
N
75 42.564 M
77.23 42.564 L
S
GR
GS
0.149 GC
2 setlinecap
10.0 ML
N
75 38.609 M
77.23 38.609 L
S
GR
GS
0.149 GC
2 setlinecap
10.0 ML
N
75 35.121 M
77.23 35.121 L
S
GR
GS
[0 -1 1 0 26.8 202.49983] CT
0.149 GC
/Helvetica 23 F
GS
[1 0 0 1 0 0] CT
-49.5 -6 moveto 
1 -1 scale
(Effectivity) t 
GR
GR
GS
0.149 GC
2 setlinecap
10.0 ML
N
75 373 M
75 32 L
S
GR
GS
0.149 GC
2 setlinecap
10.0 ML
N
75 373 M
79.46 373 L
S
GR
GS
0.149 GC
2 setlinecap
10.0 ML
N
75 304.8 M
79.46 304.8 L
S
GR
GS
0.149 GC
2 setlinecap
10.0 ML
N
75 236.6 M
79.46 236.6 L
S
GR
GS
0.149 GC
2 setlinecap
10.0 ML
N
75 168.4 M
79.46 168.4 L
S
GR
GS
0.149 GC
2 setlinecap
10.0 ML
N
75 100.2 M
79.46 100.2 L
S
GR
GS
0.149 GC
2 setlinecap
10.0 ML
N
75 32 M
79.46 32 L
S
GR
GS
[1 0 0 1 30 382] CT
0.149 GC
/Helvetica 21 F
GS
[1 0 0 1 0 0] CT
0 0 moveto 
1 -1 scale
(10) t 
GR
GR
GS
[1 0 0 1 54 372] CT
0.149 GC
/Helvetica 16 F
GS
[1 0 0 1 0 0] CT
0 0 moveto 
1 -1 scale
(-2) t 
GR
GR
GS
[1 0 0 1 30 314] CT
0.149 GC
/Helvetica 21 F
GS
[1 0 0 1 0 0] CT
0 0 moveto 
1 -1 scale
(10) t 
GR
GR
GS
[1 0 0 1 54 304] CT
0.149 GC
/Helvetica 16 F
GS
[1 0 0 1 0 0] CT
0 0 moveto 
1 -1 scale
(-1) t 
GR
GR
GS
[1 0 0 1 36 246] CT
0.149 GC
/Helvetica 21 F
GS
[1 0 0 1 0 0] CT
0 0 moveto 
1 -1 scale
(10) t 
GR
GR
GS
[1 0 0 1 60 236] CT
0.149 GC
/Helvetica 16 F
GS
[1 0 0 1 0 0] CT
0 0 moveto 
1 -1 scale
(0) t 
GR
GR
GS
[1 0 0 1 36 177] CT
0.149 GC
/Helvetica 21 F
GS
[1 0 0 1 0 0] CT
0 0 moveto 
1 -1 scale
(10) t 
GR
GR
GS
[1 0 0 1 60 167] CT
0.149 GC
/Helvetica 16 F
GS
[1 0 0 1 0 0] CT
0 0 moveto 
1 -1 scale
(1) t 
GR
GR
GS
[1 0 0 1 36 109] CT
0.149 GC
/Helvetica 21 F
GS
[1 0 0 1 0 0] CT
0 0 moveto 
1 -1 scale
(10) t 
GR
GR
GS
[1 0 0 1 60 99] CT
0.149 GC
/Helvetica 16 F
GS
[1 0 0 1 0 0] CT
0 0 moveto 
1 -1 scale
(2) t 
GR
GR
GS
[1 0 0 1 36 41] CT
0.149 GC
/Helvetica 21 F
GS
[1 0 0 1 0 0] CT
0 0 moveto 
1 -1 scale
(10) t 
GR
GR
GS
[1 0 0 1 60 31] CT
0.149 GC
/Helvetica 16 F
GS
[1 0 0 1 0 0] CT
0 0 moveto 
1 -1 scale
(3) t 
GR
GR
GS
0 0.447 0.741 RC
2 setlinecap
10.0 ML
2 LW
N
280.373 66.5 M
279.633 64.224 L
277.697 62.817 L
275.303 62.817 L
273.367 64.224 L
272.627 66.5 L
273.367 68.776 L
275.303 70.183 L
277.697 70.183 L
279.633 68.776 L
280.373 66.5 L
S
GR
GS
0 0.447 0.741 RC
2 setlinecap
10.0 ML
2 LW
N
261.373 153.5 M
260.633 151.224 L
258.697 149.817 L
256.303 149.817 L
254.367 151.224 L
253.627 153.5 L
254.367 155.776 L
256.303 157.183 L
258.697 157.183 L
260.633 155.776 L
261.373 153.5 L
S
GR
GS
0 0.447 0.741 RC
2 setlinecap
10.0 ML
2 LW
N
349.373 248.5 M
348.633 246.224 L
346.697 244.817 L
344.303 244.817 L
342.367 246.224 L
341.627 248.5 L
342.367 250.776 L
344.303 252.183 L
346.697 252.183 L
348.633 250.776 L
349.373 248.5 L
S
GR
GS
0 0.447 0.741 RC
2 setlinecap
10.0 ML
2 LW
N
360.373 222.5 M
359.633 220.224 L
357.697 218.817 L
355.303 218.817 L
353.367 220.224 L
352.627 222.5 L
353.367 224.776 L
355.303 226.183 L
357.697 226.183 L
359.633 224.776 L
360.373 222.5 L
S
GR
GS
0 0.447 0.741 RC
2 setlinecap
10.0 ML
2 LW
N
348.373 142.5 M
347.633 140.224 L
345.697 138.817 L
343.303 138.817 L
341.367 140.224 L
340.627 142.5 L
341.367 144.776 L
343.303 146.183 L
345.697 146.183 L
347.633 144.776 L
348.373 142.5 L
S
GR
GS
0 0.447 0.741 RC
2 setlinecap
10.0 ML
2 LW
N
275.373 184.5 M
274.633 182.224 L
272.697 180.817 L
270.303 180.817 L
268.367 182.224 L
267.627 184.5 L
268.367 186.776 L
270.303 188.183 L
272.697 188.183 L
274.633 186.776 L
275.373 184.5 L
S
GR
GS
0 0.447 0.741 RC
2 setlinecap
10.0 ML
2 LW
N
331.373 274.5 M
330.633 272.224 L
328.697 270.817 L
326.303 270.817 L
324.367 272.224 L
323.627 274.5 L
324.367 276.776 L
326.303 278.183 L
328.697 278.183 L
330.633 276.776 L
331.373 274.5 L
S
GR
GS
0 0.447 0.741 RC
2 setlinecap
10.0 ML
2 LW
N
428.373 138.5 M
427.633 136.224 L
425.697 134.817 L
423.303 134.817 L
421.367 136.224 L
420.627 138.5 L
421.367 140.776 L
423.303 142.183 L
425.697 142.183 L
427.633 140.776 L
428.373 138.5 L
S
GR
GS
0 0.447 0.741 RC
2 setlinecap
10.0 ML
2 LW
N
357.373 214.5 M
356.633 212.224 L
354.697 210.817 L
352.303 210.817 L
350.367 212.224 L
349.627 214.5 L
350.367 216.776 L
352.303 218.183 L
354.697 218.183 L
356.633 216.776 L
357.373 214.5 L
S
GR
GS
0 0.447 0.741 RC
2 setlinecap
10.0 ML
2 LW
N
410.373 238.5 M
409.633 236.224 L
407.697 234.817 L
405.303 234.817 L
403.367 236.224 L
402.627 238.5 L
403.367 240.776 L
405.303 242.183 L
407.697 242.183 L
409.633 240.776 L
410.373 238.5 L
S
GR
GS
0 0.447 0.741 RC
2 setlinecap
10.0 ML
2 LW
N
381.373 243.5 M
380.633 241.224 L
378.697 239.817 L
376.303 239.817 L
374.367 241.224 L
373.627 243.5 L
374.367 245.776 L
376.303 247.183 L
378.697 247.183 L
380.633 245.776 L
381.373 243.5 L
S
GR
GS
0 0.447 0.741 RC
2 setlinecap
10.0 ML
2 LW
N
313.373 229.5 M
312.633 227.224 L
310.697 225.817 L
308.303 225.817 L
306.367 227.224 L
305.627 229.5 L
306.367 231.776 L
308.303 233.183 L
310.697 233.183 L
312.633 231.776 L
313.373 229.5 L
S
GR
GS
0 0.447 0.741 RC
2 setlinecap
10.0 ML
2 LW
N
335.373 187.5 M
334.633 185.224 L
332.697 183.817 L
330.303 183.817 L
328.367 185.224 L
327.627 187.5 L
328.367 189.776 L
330.303 191.183 L
332.697 191.183 L
334.633 189.776 L
335.373 187.5 L
S
GR
GS
0 0.447 0.741 RC
2 setlinecap
10.0 ML
2 LW
N
434.373 291.5 M
433.633 289.224 L
431.697 287.817 L
429.303 287.817 L
427.367 289.224 L
426.627 291.5 L
427.367 293.776 L
429.303 295.183 L
431.697 295.183 L
433.633 293.776 L
434.373 291.5 L
S
GR
GS
0 0.447 0.741 RC
2 setlinecap
10.0 ML
2 LW
N
308.373 143.5 M
307.633 141.224 L
305.697 139.817 L
303.303 139.817 L
301.367 141.224 L
300.627 143.5 L
301.367 145.776 L
303.303 147.183 L
305.697 147.183 L
307.633 145.776 L
308.373 143.5 L
S
GR
GS
0 0.447 0.741 RC
2 setlinecap
10.0 ML
2 LW
N
336.373 234.5 M
335.633 232.224 L
333.697 230.817 L
331.303 230.817 L
329.367 232.224 L
328.627 234.5 L
329.367 236.776 L
331.303 238.183 L
333.697 238.183 L
335.633 236.776 L
336.373 234.5 L
S
GR
GS
0 0.447 0.741 RC
2 setlinecap
10.0 ML
2 LW
N
396.373 212.5 M
395.633 210.224 L
393.697 208.817 L
391.303 208.817 L
389.367 210.224 L
388.627 212.5 L
389.367 214.776 L
391.303 216.183 L
393.697 216.183 L
395.633 214.776 L
396.373 212.5 L
S
GR
GS
0 0.447 0.741 RC
2 setlinecap
10.0 ML
2 LW
N
362.373 254.5 M
361.633 252.224 L
359.697 250.817 L
357.303 250.817 L
355.367 252.224 L
354.627 254.5 L
355.367 256.776 L
357.303 258.183 L
359.697 258.183 L
361.633 256.776 L
362.373 254.5 L
S
GR
GS
0 0.447 0.741 RC
2 setlinecap
10.0 ML
2 LW
N
335.373 226.5 M
334.633 224.224 L
332.697 222.817 L
330.303 222.817 L
328.367 224.224 L
327.627 226.5 L
328.367 228.776 L
330.303 230.183 L
332.697 230.183 L
334.633 228.776 L
335.373 226.5 L
S
GR
GS
0 0.447 0.741 RC
2 setlinecap
10.0 ML
2 LW
N
401.373 157.5 M
400.633 155.224 L
398.697 153.817 L
396.303 153.817 L
394.367 155.224 L
393.627 157.5 L
394.367 159.776 L
396.303 161.183 L
398.697 161.183 L
400.633 159.776 L
401.373 157.5 L
S
GR
GS
0 0.447 0.741 RC
2 setlinecap
10.0 ML
2 LW
N
444.373 243.5 M
443.633 241.224 L
441.697 239.817 L
439.303 239.817 L
437.367 241.224 L
436.627 243.5 L
437.367 245.776 L
439.303 247.183 L
441.697 247.183 L
443.633 245.776 L
444.373 243.5 L
S
GR
GS
0 0.447 0.741 RC
2 setlinecap
10.0 ML
2 LW
N
303.373 215.5 M
302.633 213.224 L
300.697 211.817 L
298.303 211.817 L
296.367 213.224 L
295.627 215.5 L
296.367 217.776 L
298.303 219.183 L
300.697 219.183 L
302.633 217.776 L
303.373 215.5 L
S
GR
GS
0 0.447 0.741 RC
2 setlinecap
10.0 ML
2 LW
N
384.373 261.5 M
383.633 259.224 L
381.697 257.817 L
379.303 257.817 L
377.367 259.224 L
376.627 261.5 L
377.367 263.776 L
379.303 265.183 L
381.697 265.183 L
383.633 263.776 L
384.373 261.5 L
S
GR
GS
0 0.447 0.741 RC
2 setlinecap
10.0 ML
2 LW
N
310.373 237.5 M
309.633 235.224 L
307.697 233.817 L
305.303 233.817 L
303.367 235.224 L
302.627 237.5 L
303.367 239.776 L
305.303 241.183 L
307.697 241.183 L
309.633 239.776 L
310.373 237.5 L
S
GR
GS
0 0.447 0.741 RC
2 setlinecap
10.0 ML
2 LW
N
286.373 204.5 M
285.633 202.224 L
283.697 200.817 L
281.303 200.817 L
279.367 202.224 L
278.627 204.5 L
279.367 206.776 L
281.303 208.183 L
283.697 208.183 L
285.633 206.776 L
286.373 204.5 L
S
GR
GS
0 0.447 0.741 RC
2 setlinecap
10.0 ML
2 LW
N
356.373 159.5 M
355.633 157.224 L
353.697 155.817 L
351.303 155.817 L
349.367 157.224 L
348.627 159.5 L
349.367 161.776 L
351.303 163.183 L
353.697 163.183 L
355.633 161.776 L
356.373 159.5 L
S
GR
GS
0 0.447 0.741 RC
2 setlinecap
10.0 ML
2 LW
N
363.373 208.5 M
362.633 206.224 L
360.697 204.817 L
358.303 204.817 L
356.367 206.224 L
355.627 208.5 L
356.367 210.776 L
358.303 212.183 L
360.697 212.183 L
362.633 210.776 L
363.373 208.5 L
S
GR
GS
0 0.447 0.741 RC
2 setlinecap
10.0 ML
2 LW
N
202.373 154.5 M
201.633 152.224 L
199.697 150.817 L
197.303 150.817 L
195.367 152.224 L
194.627 154.5 L
195.367 156.776 L
197.303 158.183 L
199.697 158.183 L
201.633 156.776 L
202.373 154.5 L
S
GR
GS
0 0.447 0.741 RC
2 setlinecap
10.0 ML
2 LW
N
331.373 213.5 M
330.633 211.224 L
328.697 209.817 L
326.303 209.817 L
324.367 211.224 L
323.627 213.5 L
324.367 215.776 L
326.303 217.183 L
328.697 217.183 L
330.633 215.776 L
331.373 213.5 L
S
GR
GS
0 0.447 0.741 RC
2 setlinecap
10.0 ML
2 LW
N
453.373 313.5 M
452.633 311.224 L
450.697 309.817 L
448.303 309.817 L
446.367 311.224 L
445.627 313.5 L
446.367 315.776 L
448.303 317.183 L
450.697 317.183 L
452.633 315.776 L
453.373 313.5 L
S
GR
GS
0 0.447 0.741 RC
2 setlinecap
10.0 ML
2 LW
N
303.373 224.5 M
302.633 222.224 L
300.697 220.817 L
298.303 220.817 L
296.367 222.224 L
295.627 224.5 L
296.367 226.776 L
298.303 228.183 L
300.697 228.183 L
302.633 226.776 L
303.373 224.5 L
S
GR
GS
0 0.447 0.741 RC
2 setlinecap
10.0 ML
2 LW
N
341.373 227.5 M
340.633 225.224 L
338.697 223.817 L
336.303 223.817 L
334.367 225.224 L
333.627 227.5 L
334.367 229.776 L
336.303 231.183 L
338.697 231.183 L
340.633 229.776 L
341.373 227.5 L
S
GR
GS
0 0.447 0.741 RC
2 setlinecap
10.0 ML
2 LW
N
341.373 256.5 M
340.633 254.224 L
338.697 252.817 L
336.303 252.817 L
334.367 254.224 L
333.627 256.5 L
334.367 258.776 L
336.303 260.183 L
338.697 260.183 L
340.633 258.776 L
341.373 256.5 L
S
GR
GS
0 0.447 0.741 RC
2 setlinecap
10.0 ML
2 LW
N
336.373 233.5 M
335.633 231.224 L
333.697 229.817 L
331.303 229.817 L
329.367 231.224 L
328.627 233.5 L
329.367 235.776 L
331.303 237.183 L
333.697 237.183 L
335.633 235.776 L
336.373 233.5 L
S
GR
GS
0 0.447 0.741 RC
2 setlinecap
10.0 ML
2 LW
N
337.373 213.5 M
336.633 211.224 L
334.697 209.817 L
332.303 209.817 L
330.367 211.224 L
329.627 213.5 L
330.367 215.776 L
332.303 217.183 L
334.697 217.183 L
336.633 215.776 L
337.373 213.5 L
S
GR
GS
0 0.447 0.741 RC
2 setlinecap
10.0 ML
2 LW
N
360.373 136.5 M
359.633 134.224 L
357.697 132.817 L
355.303 132.817 L
353.367 134.224 L
352.627 136.5 L
353.367 138.776 L
355.303 140.183 L
357.697 140.183 L
359.633 138.776 L
360.373 136.5 L
S
GR
GS
0 0.447 0.741 RC
2 setlinecap
10.0 ML
2 LW
N
392.373 141.5 M
391.633 139.224 L
389.697 137.817 L
387.303 137.817 L
385.367 139.224 L
384.627 141.5 L
385.367 143.776 L
387.303 145.183 L
389.697 145.183 L
391.633 143.776 L
392.373 141.5 L
S
GR
GS
0 0.447 0.741 RC
2 setlinecap
10.0 ML
2 LW
N
310.373 208.5 M
309.633 206.224 L
307.697 204.817 L
305.303 204.817 L
303.367 206.224 L
302.627 208.5 L
303.367 210.776 L
305.303 212.183 L
307.697 212.183 L
309.633 210.776 L
310.373 208.5 L
S
GR
GS
0 0.447 0.741 RC
2 setlinecap
10.0 ML
2 LW
N
232.373 192.5 M
231.633 190.224 L
229.697 188.817 L
227.303 188.817 L
225.367 190.224 L
224.627 192.5 L
225.367 194.776 L
227.303 196.183 L
229.697 196.183 L
231.633 194.776 L
232.373 192.5 L
S
GR
GS
0 0.447 0.741 RC
2 setlinecap
10.0 ML
2 LW
N
293.373 206.5 M
292.633 204.224 L
290.697 202.817 L
288.303 202.817 L
286.367 204.224 L
285.627 206.5 L
286.367 208.776 L
288.303 210.183 L
290.697 210.183 L
292.633 208.776 L
293.373 206.5 L
S
GR
GS
0 0.447 0.741 RC
2 setlinecap
10.0 ML
2 LW
N
407.373 270.5 M
406.633 268.224 L
404.697 266.817 L
402.303 266.817 L
400.367 268.224 L
399.627 270.5 L
400.367 272.776 L
402.303 274.183 L
404.697 274.183 L
406.633 272.776 L
407.373 270.5 L
S
GR
GS
0 0.447 0.741 RC
2 setlinecap
10.0 ML
2 LW
N
399.373 260.5 M
398.633 258.224 L
396.697 256.817 L
394.303 256.817 L
392.367 258.224 L
391.627 260.5 L
392.367 262.776 L
394.303 264.183 L
396.697 264.183 L
398.633 262.776 L
399.373 260.5 L
S
GR
GS
0 0.447 0.741 RC
2 setlinecap
10.0 ML
2 LW
N
288.373 60.5 M
287.633 58.224 L
285.697 56.817 L
283.303 56.817 L
281.367 58.224 L
280.627 60.5 L
281.367 62.776 L
283.303 64.183 L
285.697 64.183 L
287.633 62.776 L
288.373 60.5 L
S
GR
GS
0 0.447 0.741 RC
2 setlinecap
10.0 ML
2 LW
N
381.373 269.5 M
380.633 267.224 L
378.697 265.817 L
376.303 265.817 L
374.367 267.224 L
373.627 269.5 L
374.367 271.776 L
376.303 273.183 L
378.697 273.183 L
380.633 271.776 L
381.373 269.5 L
S
GR
GS
0 0.447 0.741 RC
2 setlinecap
10.0 ML
2 LW
N
333.373 211.5 M
332.633 209.224 L
330.697 207.817 L
328.303 207.817 L
326.367 209.224 L
325.627 211.5 L
326.367 213.776 L
328.303 215.183 L
330.697 215.183 L
332.633 213.776 L
333.373 211.5 L
S
GR
GS
0 0.447 0.741 RC
2 setlinecap
10.0 ML
2 LW
N
294.373 133.5 M
293.633 131.224 L
291.697 129.817 L
289.303 129.817 L
287.367 131.224 L
286.627 133.5 L
287.367 135.776 L
289.303 137.183 L
291.697 137.183 L
293.633 135.776 L
294.373 133.5 L
S
GR
GS
0 0.447 0.741 RC
2 setlinecap
10.0 ML
2 LW
N
202.373 163.5 M
201.633 161.224 L
199.697 159.817 L
197.303 159.817 L
195.367 161.224 L
194.627 163.5 L
195.367 165.776 L
197.303 167.183 L
199.697 167.183 L
201.633 165.776 L
202.373 163.5 L
S
GR
GS
0 0.447 0.741 RC
2 setlinecap
10.0 ML
2 LW
N
391.373 278.5 M
390.633 276.224 L
388.697 274.817 L
386.303 274.817 L
384.367 276.224 L
383.627 278.5 L
384.367 280.776 L
386.303 282.183 L
388.697 282.183 L
390.633 280.776 L
391.373 278.5 L
S
GR
GS
0 0.447 0.741 RC
2 setlinecap
10.0 ML
2 LW
N
423.373 165.5 M
422.633 163.224 L
420.697 161.817 L
418.303 161.817 L
416.367 163.224 L
415.627 165.5 L
416.367 167.776 L
418.303 169.183 L
420.697 169.183 L
422.633 167.776 L
423.373 165.5 L
S
GR
GS
0 0.447 0.741 RC
2 setlinecap
10.0 ML
2 LW
N
268.373 108.5 M
267.633 106.224 L
265.697 104.817 L
263.303 104.817 L
261.367 106.224 L
260.627 108.5 L
261.367 110.776 L
263.303 112.183 L
265.697 112.183 L
267.633 110.776 L
268.373 108.5 L
S
GR
GS
0 0.447 0.741 RC
2 setlinecap
10.0 ML
2 LW
N
296.373 174.5 M
295.633 172.224 L
293.697 170.817 L
291.303 170.817 L
289.367 172.224 L
288.627 174.5 L
289.367 176.776 L
291.303 178.183 L
293.697 178.183 L
295.633 176.776 L
296.373 174.5 L
S
GR
GS
0 0.447 0.741 RC
2 setlinecap
10.0 ML
2 LW
N
467.373 255.5 M
466.633 253.224 L
464.697 251.817 L
462.303 251.817 L
460.367 253.224 L
459.627 255.5 L
460.367 257.776 L
462.303 259.183 L
464.697 259.183 L
466.633 257.776 L
467.373 255.5 L
S
GR
GS
0 0.447 0.741 RC
2 setlinecap
10.0 ML
2 LW
N
284.373 144.5 M
283.633 142.224 L
281.697 140.817 L
279.303 140.817 L
277.367 142.224 L
276.627 144.5 L
277.367 146.776 L
279.303 148.183 L
281.697 148.183 L
283.633 146.776 L
284.373 144.5 L
S
GR
GS
0 0.447 0.741 RC
2 setlinecap
10.0 ML
2 LW
N
267.373 84.5 M
266.633 82.224 L
264.697 80.817 L
262.303 80.817 L
260.367 82.224 L
259.627 84.5 L
260.367 86.776 L
262.303 88.183 L
264.697 88.183 L
266.633 86.776 L
267.373 84.5 L
S
GR
GS
0 0.447 0.741 RC
2 setlinecap
10.0 ML
2 LW
N
257.373 153.5 M
256.633 151.224 L
254.697 149.817 L
252.303 149.817 L
250.367 151.224 L
249.627 153.5 L
250.367 155.776 L
252.303 157.183 L
254.697 157.183 L
256.633 155.776 L
257.373 153.5 L
S
GR
GS
0 0.447 0.741 RC
2 setlinecap
10.0 ML
2 LW
N
374.373 214.5 M
373.633 212.224 L
371.697 210.817 L
369.303 210.817 L
367.367 212.224 L
366.627 214.5 L
367.367 216.776 L
369.303 218.183 L
371.697 218.183 L
373.633 216.776 L
374.373 214.5 L
S
GR
GS
0 0.447 0.741 RC
2 setlinecap
10.0 ML
2 LW
N
239.373 60.5 M
238.633 58.224 L
236.697 56.817 L
234.303 56.817 L
232.367 58.224 L
231.627 60.5 L
232.367 62.776 L
234.303 64.183 L
236.697 64.183 L
238.633 62.776 L
239.373 60.5 L
S
GR
GS
0 0.447 0.741 RC
2 setlinecap
10.0 ML
2 LW
N
389.373 221.5 M
388.633 219.224 L
386.697 217.817 L
384.303 217.817 L
382.367 219.224 L
381.627 221.5 L
382.367 223.776 L
384.303 225.183 L
386.697 225.183 L
388.633 223.776 L
389.373 221.5 L
S
GR
GS
0 0.447 0.741 RC
2 setlinecap
10.0 ML
2 LW
N
314.373 198.5 M
313.633 196.224 L
311.697 194.817 L
309.303 194.817 L
307.367 196.224 L
306.627 198.5 L
307.367 200.776 L
309.303 202.183 L
311.697 202.183 L
313.633 200.776 L
314.373 198.5 L
S
GR
GS
0 0.447 0.741 RC
2 setlinecap
10.0 ML
2 LW
N
323.373 218.5 M
322.633 216.224 L
320.697 214.817 L
318.303 214.817 L
316.367 216.224 L
315.627 218.5 L
316.367 220.776 L
318.303 222.183 L
320.697 222.183 L
322.633 220.776 L
323.373 218.5 L
S
GR
GS
0 0.447 0.741 RC
2 setlinecap
10.0 ML
2 LW
N
281.373 201.5 M
280.633 199.224 L
278.697 197.817 L
276.303 197.817 L
274.367 199.224 L
273.627 201.5 L
274.367 203.776 L
276.303 205.183 L
278.697 205.183 L
280.633 203.776 L
281.373 201.5 L
S
GR
GS
0 0.447 0.741 RC
2 setlinecap
10.0 ML
2 LW
N
363.373 226.5 M
362.633 224.224 L
360.697 222.817 L
358.303 222.817 L
356.367 224.224 L
355.627 226.5 L
356.367 228.776 L
358.303 230.183 L
360.697 230.183 L
362.633 228.776 L
363.373 226.5 L
S
GR
GS
0 0.447 0.741 RC
2 setlinecap
10.0 ML
2 LW
N
321.373 193.5 M
320.633 191.224 L
318.697 189.817 L
316.303 189.817 L
314.367 191.224 L
313.627 193.5 L
314.367 195.776 L
316.303 197.183 L
318.697 197.183 L
320.633 195.776 L
321.373 193.5 L
S
GR
GS
0 0.447 0.741 RC
2 setlinecap
10.0 ML
2 LW
N
433.373 134.5 M
432.633 132.224 L
430.697 130.817 L
428.303 130.817 L
426.367 132.224 L
425.627 134.5 L
426.367 136.776 L
428.303 138.183 L
430.697 138.183 L
432.633 136.776 L
433.373 134.5 L
S
GR
GS
0 0.447 0.741 RC
2 setlinecap
10.0 ML
2 LW
N
392.373 229.5 M
391.633 227.224 L
389.697 225.817 L
387.303 225.817 L
385.367 227.224 L
384.627 229.5 L
385.367 231.776 L
387.303 233.183 L
389.697 233.183 L
391.633 231.776 L
392.373 229.5 L
S
GR
GS
0 0.447 0.741 RC
2 setlinecap
10.0 ML
2 LW
N
279.373 180.5 M
278.633 178.224 L
276.697 176.817 L
274.303 176.817 L
272.367 178.224 L
271.627 180.5 L
272.367 182.776 L
274.303 184.183 L
276.697 184.183 L
278.633 182.776 L
279.373 180.5 L
S
GR
GS
0 0.447 0.741 RC
2 setlinecap
10.0 ML
2 LW
N
350.373 208.5 M
349.633 206.224 L
347.697 204.817 L
345.303 204.817 L
343.367 206.224 L
342.627 208.5 L
343.367 210.776 L
345.303 212.183 L
347.697 212.183 L
349.633 210.776 L
350.373 208.5 L
S
GR
GS
0 0.447 0.741 RC
2 setlinecap
10.0 ML
2 LW
N
429.373 331.5 M
428.633 329.224 L
426.697 327.817 L
424.303 327.817 L
422.367 329.224 L
421.627 331.5 L
422.367 333.776 L
424.303 335.183 L
426.697 335.183 L
428.633 333.776 L
429.373 331.5 L
S
GR
GS
0 0.447 0.741 RC
2 setlinecap
10.0 ML
2 LW
N
366.373 221.5 M
365.633 219.224 L
363.697 217.817 L
361.303 217.817 L
359.367 219.224 L
358.627 221.5 L
359.367 223.776 L
361.303 225.183 L
363.697 225.183 L
365.633 223.776 L
366.373 221.5 L
S
GR
GS
0 0.447 0.741 RC
2 setlinecap
10.0 ML
2 LW
N
299.373 219.5 M
298.633 217.224 L
296.697 215.817 L
294.303 215.817 L
292.367 217.224 L
291.627 219.5 L
292.367 221.776 L
294.303 223.183 L
296.697 223.183 L
298.633 221.776 L
299.373 219.5 L
S
GR
GS
0 0.447 0.741 RC
2 setlinecap
10.0 ML
2 LW
N
336.373 237.5 M
335.633 235.224 L
333.697 233.817 L
331.303 233.817 L
329.367 235.224 L
328.627 237.5 L
329.367 239.776 L
331.303 241.183 L
333.697 241.183 L
335.633 239.776 L
336.373 237.5 L
S
GR
GS
0 0.447 0.741 RC
2 setlinecap
10.0 ML
2 LW
N
347.373 133.5 M
346.633 131.224 L
344.697 129.817 L
342.303 129.817 L
340.367 131.224 L
339.627 133.5 L
340.367 135.776 L
342.303 137.183 L
344.697 137.183 L
346.633 135.776 L
347.373 133.5 L
S
GR
GS
0 0.447 0.741 RC
2 setlinecap
10.0 ML
2 LW
N
302.373 82.5 M
301.633 80.224 L
299.697 78.817 L
297.303 78.817 L
295.367 80.224 L
294.627 82.5 L
295.367 84.776 L
297.303 86.183 L
299.697 86.183 L
301.633 84.776 L
302.373 82.5 L
S
GR
GS
0 0.447 0.741 RC
2 setlinecap
10.0 ML
2 LW
N
341.373 135.5 M
340.633 133.224 L
338.697 131.817 L
336.303 131.817 L
334.367 133.224 L
333.627 135.5 L
334.367 137.776 L
336.303 139.183 L
338.697 139.183 L
340.633 137.776 L
341.373 135.5 L
S
GR
GS
0 0.447 0.741 RC
2 setlinecap
10.0 ML
2 LW
N
426.373 252.5 M
425.633 250.224 L
423.697 248.817 L
421.303 248.817 L
419.367 250.224 L
418.627 252.5 L
419.367 254.776 L
421.303 256.183 L
423.697 256.183 L
425.633 254.776 L
426.373 252.5 L
S
GR
GS
0 0.447 0.741 RC
2 setlinecap
10.0 ML
2 LW
N
294.373 109.5 M
293.633 107.224 L
291.697 105.817 L
289.303 105.817 L
287.367 107.224 L
286.627 109.5 L
287.367 111.776 L
289.303 113.183 L
291.697 113.183 L
293.633 111.776 L
294.373 109.5 L
S
GR
GS
0 0.447 0.741 RC
2 setlinecap
10.0 ML
2 LW
N
364.373 120.5 M
363.633 118.224 L
361.697 116.817 L
359.303 116.817 L
357.367 118.224 L
356.627 120.5 L
357.367 122.776 L
359.303 124.183 L
361.697 124.183 L
363.633 122.776 L
364.373 120.5 L
S
GR
GS
0 0.447 0.741 RC
2 setlinecap
10.0 ML
2 LW
N
384.373 228.5 M
383.633 226.224 L
381.697 224.817 L
379.303 224.817 L
377.367 226.224 L
376.627 228.5 L
377.367 230.776 L
379.303 232.183 L
381.697 232.183 L
383.633 230.776 L
384.373 228.5 L
S
GR
GS
0 0.447 0.741 RC
2 setlinecap
10.0 ML
2 LW
N
224.373 211.5 M
223.633 209.224 L
221.697 207.817 L
219.303 207.817 L
217.367 209.224 L
216.627 211.5 L
217.367 213.776 L
219.303 215.183 L
221.697 215.183 L
223.633 213.776 L
224.373 211.5 L
S
GR
GS
0 0.447 0.741 RC
2 setlinecap
10.0 ML
2 LW
N
259.373 150.5 M
258.633 148.224 L
256.697 146.817 L
254.303 146.817 L
252.367 148.224 L
251.627 150.5 L
252.367 152.776 L
254.303 154.183 L
256.697 154.183 L
258.633 152.776 L
259.373 150.5 L
S
GR
GS
0 0.447 0.741 RC
2 setlinecap
10.0 ML
2 LW
N
372.373 223.5 M
371.633 221.224 L
369.697 219.817 L
367.303 219.817 L
365.367 221.224 L
364.627 223.5 L
365.367 225.776 L
367.303 227.183 L
369.697 227.183 L
371.633 225.776 L
372.373 223.5 L
S
GR
GS
0 0.447 0.741 RC
2 setlinecap
10.0 ML
2 LW
N
229.373 178.5 M
228.633 176.224 L
226.697 174.817 L
224.303 174.817 L
222.367 176.224 L
221.627 178.5 L
222.367 180.776 L
224.303 182.183 L
226.697 182.183 L
228.633 180.776 L
229.373 178.5 L
S
GR
GS
0 0.447 0.741 RC
2 setlinecap
10.0 ML
2 LW
N
300.373 184.5 M
299.633 182.224 L
297.697 180.817 L
295.303 180.817 L
293.367 182.224 L
292.627 184.5 L
293.367 186.776 L
295.303 188.183 L
297.697 188.183 L
299.633 186.776 L
300.373 184.5 L
S
GR
GS
0 0.447 0.741 RC
2 setlinecap
10.0 ML
2 LW
N
384.373 229.5 M
383.633 227.224 L
381.697 225.817 L
379.303 225.817 L
377.367 227.224 L
376.627 229.5 L
377.367 231.776 L
379.303 233.183 L
381.697 233.183 L
383.633 231.776 L
384.373 229.5 L
S
GR
GS
0 0.447 0.741 RC
2 setlinecap
10.0 ML
2 LW
N
165.373 124.5 M
164.633 122.224 L
162.697 120.817 L
160.303 120.817 L
158.367 122.224 L
157.627 124.5 L
158.367 126.776 L
160.303 128.183 L
162.697 128.183 L
164.633 126.776 L
165.373 124.5 L
S
GR
GS
0 0.447 0.741 RC
2 setlinecap
10.0 ML
2 LW
N
242.373 160.5 M
241.633 158.224 L
239.697 156.817 L
237.303 156.817 L
235.367 158.224 L
234.627 160.5 L
235.367 162.776 L
237.303 164.183 L
239.697 164.183 L
241.633 162.776 L
242.373 160.5 L
S
GR
GS
0 0.447 0.741 RC
2 setlinecap
10.0 ML
2 LW
N
295.373 177.5 M
294.633 175.224 L
292.697 173.817 L
290.303 173.817 L
288.367 175.224 L
287.627 177.5 L
288.367 179.776 L
290.303 181.183 L
292.697 181.183 L
294.633 179.776 L
295.373 177.5 L
S
GR
GS
0 0.447 0.741 RC
2 setlinecap
10.0 ML
2 LW
N
240.373 227.5 M
239.633 225.224 L
237.697 223.817 L
235.303 223.817 L
233.367 225.224 L
232.627 227.5 L
233.367 229.776 L
235.303 231.183 L
237.697 231.183 L
239.633 229.776 L
240.373 227.5 L
S
GR
GS
0 0.447 0.741 RC
2 setlinecap
10.0 ML
2 LW
N
358.373 283.5 M
357.633 281.224 L
355.697 279.817 L
353.303 279.817 L
351.367 281.224 L
350.627 283.5 L
351.367 285.776 L
353.303 287.183 L
355.697 287.183 L
357.633 285.776 L
358.373 283.5 L
S
GR
GS
0 0.447 0.741 RC
2 setlinecap
10.0 ML
2 LW
N
218.373 189.5 M
217.633 187.224 L
215.697 185.817 L
213.303 185.817 L
211.367 187.224 L
210.627 189.5 L
211.367 191.776 L
213.303 193.183 L
215.697 193.183 L
217.633 191.776 L
218.373 189.5 L
S
GR
GS
0 0.447 0.741 RC
2 setlinecap
10.0 ML
2 LW
N
176.373 125.5 M
175.633 123.224 L
173.697 121.817 L
171.303 121.817 L
169.367 123.224 L
168.627 125.5 L
169.367 127.776 L
171.303 129.183 L
173.697 129.183 L
175.633 127.776 L
176.373 125.5 L
S
GR
GS
0 0.447 0.741 RC
2 setlinecap
10.0 ML
2 LW
N
259.373 167.5 M
258.633 165.224 L
256.697 163.817 L
254.303 163.817 L
252.367 165.224 L
251.627 167.5 L
252.367 169.776 L
254.303 171.183 L
256.697 171.183 L
258.633 169.776 L
259.373 167.5 L
S
GR
GS
0 0.447 0.741 RC
2 setlinecap
10.0 ML
2 LW
N
359.373 241.5 M
358.633 239.224 L
356.697 237.817 L
354.303 237.817 L
352.367 239.224 L
351.627 241.5 L
352.367 243.776 L
354.303 245.183 L
356.697 245.183 L
358.633 243.776 L
359.373 241.5 L
S
GR
GS
0 0.447 0.741 RC
2 setlinecap
10.0 ML
2 LW
N
229.373 131.5 M
228.633 129.224 L
226.697 127.817 L
224.303 127.817 L
222.367 129.224 L
221.627 131.5 L
222.367 133.776 L
224.303 135.183 L
226.697 135.183 L
228.633 133.776 L
229.373 131.5 L
S
GR
GS
0 0.447 0.741 RC
2 setlinecap
10.0 ML
2 LW
N
395.373 235.5 M
394.633 233.224 L
392.697 231.817 L
390.303 231.817 L
388.367 233.224 L
387.627 235.5 L
388.367 237.776 L
390.303 239.183 L
392.697 239.183 L
394.633 237.776 L
395.373 235.5 L
S
GR
GS
0 0.447 0.741 RC
2 setlinecap
10.0 ML
2 LW
N
419.373 220.5 M
418.633 218.224 L
416.697 216.817 L
414.303 216.817 L
412.367 218.224 L
411.627 220.5 L
412.367 222.776 L
414.303 224.183 L
416.697 224.183 L
418.633 222.776 L
419.373 220.5 L
S
GR
GS
0 0.447 0.741 RC
2 setlinecap
10.0 ML
2 LW
N
369.373 134.5 M
368.633 132.224 L
366.697 130.817 L
364.303 130.817 L
362.367 132.224 L
361.627 134.5 L
362.367 136.776 L
364.303 138.183 L
366.697 138.183 L
368.633 136.776 L
369.373 134.5 L
S
GR
GS
0 0.447 0.741 RC
2 setlinecap
10.0 ML
2 LW
N
307.373 193.5 M
306.633 191.224 L
304.697 189.817 L
302.303 189.817 L
300.367 191.224 L
299.627 193.5 L
300.367 195.776 L
302.303 197.183 L
304.697 197.183 L
306.633 195.776 L
307.373 193.5 L
S
GR
GS
0 0.447 0.741 RC
2 setlinecap
10.0 ML
2 LW
N
253.373 234.5 M
252.633 232.224 L
250.697 230.817 L
248.303 230.817 L
246.367 232.224 L
245.627 234.5 L
246.367 236.776 L
248.303 238.183 L
250.697 238.183 L
252.633 236.776 L
253.373 234.5 L
S
GR
GS
0 0.447 0.741 RC
2 setlinecap
10.0 ML
2 LW
N
410.373 220.5 M
409.633 218.224 L
407.697 216.817 L
405.303 216.817 L
403.367 218.224 L
402.627 220.5 L
403.367 222.776 L
405.303 224.183 L
407.697 224.183 L
409.633 222.776 L
410.373 220.5 L
S
GR
GS
[1 0 0 1 298.00031 26.22501] CT
/Helvetica 23 F
GS
[1 0 0 1 0 0] CT
-76.5 -6 moveto 
1 -1 scale
(Cost functional) t 
GR
GR
%%Trailer
%%BoundingBox: 3 0 544 429
%%Pages: 1
%%EOF
