%!PS-Adobe-3.0 EPSF-3.0
%%Creator: (MATLAB, The Mathworks, Inc. Version 8.5.0.197613 \(R2015a\). Operating System: Mac OS X)
%%Title: ./SVDdecay_control.eps
%%CreationDate: 2015-09-16T11:50:58
%%Pages: (atend)
%%BoundingBox: (atend)
%%LanguageLevel: 3
%%EndComments
%%BeginProlog
%%BeginResource: procset (Apache XML Graphics Std ProcSet) 1.2 0
%%Version: 1.2 0
%%Copyright: (Copyright 2001-2003,2010 The Apache Software Foundation. License terms: http://www.apache.org/licenses/LICENSE-2.0)
/bd{bind def}bind def
/ld{load def}bd
/GR/grestore ld
/M/moveto ld
/LJ/setlinejoin ld
/C/curveto ld
/f/fill ld
/LW/setlinewidth ld
/GC/setgray ld
/t/show ld
/N/newpath ld
/CT/concat ld
/cp/closepath ld
/S/stroke ld
/L/lineto ld
/CC/setcmykcolor ld
/A/ashow ld
/GS/gsave ld
/RC/setrgbcolor ld
/RM/rmoveto ld
/ML/setmiterlimit ld
/re {4 2 roll M
1 index 0 rlineto
0 exch rlineto
neg 0 rlineto
cp } bd
/_ctm matrix def
/_tm matrix def
/BT { _ctm currentmatrix pop matrix _tm copy pop 0 0 moveto } bd
/ET { _ctm setmatrix } bd
/iTm { _ctm setmatrix _tm concat } bd
/Tm { _tm astore pop iTm 0 0 moveto } bd
/ux 0.0 def
/uy 0.0 def
/F {
  /Tp exch def
  /Tf exch def
  Tf findfont Tp scalefont setfont
  /cf Tf def  /cs Tp def
} bd
/ULS {currentpoint /uy exch def /ux exch def} bd
/ULE {
  /Tcx currentpoint pop def
  gsave
  newpath
  cf findfont cs scalefont dup
  /FontMatrix get 0 get /Ts exch def /FontInfo get dup
  /UnderlinePosition get Ts mul /To exch def
  /UnderlineThickness get Ts mul /Tt exch def
  ux uy To add moveto  Tcx uy To add lineto
  Tt setlinewidth stroke
  grestore
} bd
/OLE {
  /Tcx currentpoint pop def
  gsave
  newpath
  cf findfont cs scalefont dup
  /FontMatrix get 0 get /Ts exch def /FontInfo get dup
  /UnderlinePosition get Ts mul /To exch def
  /UnderlineThickness get Ts mul /Tt exch def
  ux uy To add cs add moveto Tcx uy To add cs add lineto
  Tt setlinewidth stroke
  grestore
} bd
/SOE {
  /Tcx currentpoint pop def
  gsave
  newpath
  cf findfont cs scalefont dup
  /FontMatrix get 0 get /Ts exch def /FontInfo get dup
  /UnderlinePosition get Ts mul /To exch def
  /UnderlineThickness get Ts mul /Tt exch def
  ux uy To add cs 10 mul 26 idiv add moveto Tcx uy To add cs 10 mul 26 idiv add lineto
  Tt setlinewidth stroke
  grestore
} bd
/QT {
/Y22 exch store
/X22 exch store
/Y21 exch store
/X21 exch store
currentpoint
/Y21 load 2 mul add 3 div exch
/X21 load 2 mul add 3 div exch
/X21 load 2 mul /X22 load add 3 div
/Y21 load 2 mul /Y22 load add 3 div
/X22 load /Y22 load curveto
} bd
/SSPD {
dup length /d exch dict def
{
/v exch def
/k exch def
currentpagedevice k known {
/cpdv currentpagedevice k get def
v cpdv ne {
/upd false def
/nullv v type /nulltype eq def
/nullcpdv cpdv type /nulltype eq def
nullv nullcpdv or
{
/upd true def
} {
/sametype v type cpdv type eq def
sametype {
v type /arraytype eq {
/vlen v length def
/cpdvlen cpdv length def
vlen cpdvlen eq {
0 1 vlen 1 sub {
/i exch def
/obj v i get def
/cpdobj cpdv i get def
obj cpdobj ne {
/upd true def
exit
} if
} for
} {
/upd true def
} ifelse
} {
v type /dicttype eq {
v {
/dv exch def
/dk exch def
/cpddv cpdv dk get def
dv cpddv ne {
/upd true def
exit
} if
} forall
} {
/upd true def
} ifelse
} ifelse
} if
} ifelse
upd true eq {
d k v put
} if
} if
} if
} forall
d length 0 gt {
d setpagedevice
} if
} bd
%%EndResource
%%BeginResource: procset (Apache XML Graphics EPS ProcSet) 1.0 0
%%Version: 1.0 0
%%Copyright: (Copyright 2002-2003 The Apache Software Foundation. License terms: http://www.apache.org/licenses/LICENSE-2.0)
/BeginEPSF { %def
/b4_Inc_state save def         % Save state for cleanup
/dict_count countdictstack def % Count objects on dict stack
/op_count count 1 sub def      % Count objects on operand stack
userdict begin                 % Push userdict on dict stack
/showpage { } def              % Redefine showpage, { } = null proc
0 setgray 0 setlinecap         % Prepare graphics state
1 setlinewidth 0 setlinejoin
10 setmiterlimit [ ] 0 setdash newpath
/languagelevel where           % If level not equal to 1 then
{pop languagelevel             % set strokeadjust and
1 ne                           % overprint to their defaults.
{false setstrokeadjust false setoverprint
} if
} if
} bd
/EndEPSF { %def
count op_count sub {pop} repeat            % Clean up stacks
countdictstack dict_count sub {end} repeat
b4_Inc_state restore
} bd
%%EndResource
%FOPBeginFontDict
%%IncludeResource: font Courier-Bold
%%IncludeResource: font Helvetica
%%IncludeResource: font Courier-BoldOblique
%%IncludeResource: font Courier-Oblique
%%IncludeResource: font Times-Roman
%%IncludeResource: font Helvetica-BoldOblique
%%IncludeResource: font Helvetica-Bold
%%IncludeResource: font Helvetica-Oblique
%%IncludeResource: font Times-BoldItalic
%%IncludeResource: font Courier
%%IncludeResource: font Times-Italic
%%IncludeResource: font Times-Bold
%%IncludeResource: font Symbol
%%IncludeResource: font ZapfDingbats
%FOPEndFontDict
%%BeginResource: encoding WinAnsiEncoding
/WinAnsiEncoding [
/.notdef /.notdef /.notdef /.notdef /.notdef
/.notdef /.notdef /.notdef /.notdef /.notdef
/.notdef /.notdef /.notdef /.notdef /.notdef
/.notdef /.notdef /.notdef /.notdef /.notdef
/.notdef /.notdef /.notdef /.notdef /.notdef
/.notdef /.notdef /.notdef /.notdef /.notdef
/.notdef /.notdef /space /exclam /quotedbl
/numbersign /dollar /percent /ampersand /quotesingle
/parenleft /parenright /asterisk /plus /comma
/hyphen /period /slash /zero /one
/two /three /four /five /six
/seven /eight /nine /colon /semicolon
/less /equal /greater /question /at
/A /B /C /D /E
/F /G /H /I /J
/K /L /M /N /O
/P /Q /R /S /T
/U /V /W /X /Y
/Z /bracketleft /backslash /bracketright /asciicircum
/underscore /quoteleft /a /b /c
/d /e /f /g /h
/i /j /k /l /m
/n /o /p /q /r
/s /t /u /v /w
/x /y /z /braceleft /bar
/braceright /asciitilde /bullet /Euro /bullet
/quotesinglbase /florin /quotedblbase /ellipsis /dagger
/daggerdbl /circumflex /perthousand /Scaron /guilsinglleft
/OE /bullet /Zcaron /bullet /bullet
/quoteleft /quoteright /quotedblleft /quotedblright /bullet
/endash /emdash /asciitilde /trademark /scaron
/guilsinglright /oe /bullet /zcaron /Ydieresis
/space /exclamdown /cent /sterling /currency
/yen /brokenbar /section /dieresis /copyright
/ordfeminine /guillemotleft /logicalnot /sfthyphen /registered
/macron /degree /plusminus /twosuperior /threesuperior
/acute /mu /paragraph /middot /cedilla
/onesuperior /ordmasculine /guillemotright /onequarter /onehalf
/threequarters /questiondown /Agrave /Aacute /Acircumflex
/Atilde /Adieresis /Aring /AE /Ccedilla
/Egrave /Eacute /Ecircumflex /Edieresis /Igrave
/Iacute /Icircumflex /Idieresis /Eth /Ntilde
/Ograve /Oacute /Ocircumflex /Otilde /Odieresis
/multiply /Oslash /Ugrave /Uacute /Ucircumflex
/Udieresis /Yacute /Thorn /germandbls /agrave
/aacute /acircumflex /atilde /adieresis /aring
/ae /ccedilla /egrave /eacute /ecircumflex
/edieresis /igrave /iacute /icircumflex /idieresis
/eth /ntilde /ograve /oacute /ocircumflex
/otilde /odieresis /divide /oslash /ugrave
/uacute /ucircumflex /udieresis /yacute /thorn
/ydieresis
] def
%%EndResource
%FOPBeginFontReencode
/Courier-Bold findfont
dup length dict begin
  {1 index /FID ne {def} {pop pop} ifelse} forall
  /Encoding WinAnsiEncoding def
  currentdict
end
/Courier-Bold exch definefont pop
/Helvetica findfont
dup length dict begin
  {1 index /FID ne {def} {pop pop} ifelse} forall
  /Encoding WinAnsiEncoding def
  currentdict
end
/Helvetica exch definefont pop
/Courier-BoldOblique findfont
dup length dict begin
  {1 index /FID ne {def} {pop pop} ifelse} forall
  /Encoding WinAnsiEncoding def
  currentdict
end
/Courier-BoldOblique exch definefont pop
/Courier-Oblique findfont
dup length dict begin
  {1 index /FID ne {def} {pop pop} ifelse} forall
  /Encoding WinAnsiEncoding def
  currentdict
end
/Courier-Oblique exch definefont pop
/Times-Roman findfont
dup length dict begin
  {1 index /FID ne {def} {pop pop} ifelse} forall
  /Encoding WinAnsiEncoding def
  currentdict
end
/Times-Roman exch definefont pop
/Helvetica-BoldOblique findfont
dup length dict begin
  {1 index /FID ne {def} {pop pop} ifelse} forall
  /Encoding WinAnsiEncoding def
  currentdict
end
/Helvetica-BoldOblique exch definefont pop
/Helvetica-Bold findfont
dup length dict begin
  {1 index /FID ne {def} {pop pop} ifelse} forall
  /Encoding WinAnsiEncoding def
  currentdict
end
/Helvetica-Bold exch definefont pop
/Helvetica-Oblique findfont
dup length dict begin
  {1 index /FID ne {def} {pop pop} ifelse} forall
  /Encoding WinAnsiEncoding def
  currentdict
end
/Helvetica-Oblique exch definefont pop
/Times-BoldItalic findfont
dup length dict begin
  {1 index /FID ne {def} {pop pop} ifelse} forall
  /Encoding WinAnsiEncoding def
  currentdict
end
/Times-BoldItalic exch definefont pop
/Courier findfont
dup length dict begin
  {1 index /FID ne {def} {pop pop} ifelse} forall
  /Encoding WinAnsiEncoding def
  currentdict
end
/Courier exch definefont pop
/Times-Italic findfont
dup length dict begin
  {1 index /FID ne {def} {pop pop} ifelse} forall
  /Encoding WinAnsiEncoding def
  currentdict
end
/Times-Italic exch definefont pop
/Times-Bold findfont
dup length dict begin
  {1 index /FID ne {def} {pop pop} ifelse} forall
  /Encoding WinAnsiEncoding def
  currentdict
end
/Times-Bold exch definefont pop
%FOPEndFontReencode
%%EndProlog
%%Page: 1 1
%%PageBoundingBox: 0 0 576 432
%%BeginPageSetup
[1 0 0 -1 0 432] CT
%%EndPageSetup
GS
1 GC
N
0 0 576 432 re
f
GR
GS
1 GC
N
0 0 576 432 re
f
GR
GS
1 GC
N
75 384 M
521 384 L
521 32 L
75 32 L
cp
f
GR
GS
0.873 GC
2 setlinecap
10.0 ML
N
75 384 M
75 32 L
S
GR
GS
0.873 GC
2 setlinecap
10.0 ML
N
164.2 384 M
164.2 32 L
S
GR
GS
0.873 GC
2 setlinecap
10.0 ML
N
253.4 384 M
253.4 32 L
S
GR
GS
0.873 GC
2 setlinecap
10.0 ML
N
342.6 384 M
342.6 32 L
S
GR
GS
0.873 GC
2 setlinecap
10.0 ML
N
431.8 384 M
431.8 32 L
S
GR
GS
0.873 GC
2 setlinecap
10.0 ML
N
521 384 M
521 32 L
S
GR
GS
0.873 GC
2 setlinecap
10.0 ML
N
521 384 M
75 384 L
S
GR
GS
0.873 GC
2 setlinecap
10.0 ML
N
521 333.714 M
75 333.714 L
S
GR
GS
0.873 GC
2 setlinecap
10.0 ML
N
521 283.429 M
75 283.429 L
S
GR
GS
0.873 GC
2 setlinecap
10.0 ML
N
521 233.143 M
75 233.143 L
S
GR
GS
0.873 GC
2 setlinecap
10.0 ML
N
521 182.857 M
75 182.857 L
S
GR
GS
0.873 GC
2 setlinecap
10.0 ML
N
521 132.571 M
75 132.571 L
S
GR
GS
0.873 GC
2 setlinecap
10.0 ML
N
521 82.286 M
75 82.286 L
S
GR
GS
0.873 GC
2 setlinecap
10.0 ML
N
521 32 M
75 32 L
S
GR
GS
0.149 GC
2 setlinecap
10.0 ML
N
75 384 M
521 384 L
S
GR
GS
0.149 GC
2 setlinecap
10.0 ML
N
75 32 M
521 32 L
S
GR
GS
0.149 GC
2 setlinecap
10.0 ML
N
75 384 M
75 379.54 L
S
GR
GS
0.149 GC
2 setlinecap
10.0 ML
N
164.2 384 M
164.2 379.54 L
S
GR
GS
0.149 GC
2 setlinecap
10.0 ML
N
253.4 384 M
253.4 379.54 L
S
GR
GS
0.149 GC
2 setlinecap
10.0 ML
N
342.6 384 M
342.6 379.54 L
S
GR
GS
0.149 GC
2 setlinecap
10.0 ML
N
431.8 384 M
431.8 379.54 L
S
GR
GS
0.149 GC
2 setlinecap
10.0 ML
N
521 384 M
521 379.54 L
S
GR
GS
0.149 GC
2 setlinecap
10.0 ML
N
75 32 M
75 36.46 L
S
GR
GS
0.149 GC
2 setlinecap
10.0 ML
N
164.2 32 M
164.2 36.46 L
S
GR
GS
0.149 GC
2 setlinecap
10.0 ML
N
253.4 32 M
253.4 36.46 L
S
GR
GS
0.149 GC
2 setlinecap
10.0 ML
N
342.6 32 M
342.6 36.46 L
S
GR
GS
0.149 GC
2 setlinecap
10.0 ML
N
431.8 32 M
431.8 36.46 L
S
GR
GS
0.149 GC
2 setlinecap
10.0 ML
N
521 32 M
521 36.46 L
S
GR
GS
[1 0 0 1 75 389] CT
0.149 GC
/Helvetica 15 F
GS
[1 0 0 1 0 0] CT
-4.5 12 moveto 
1 -1 scale
(0) t 
GR
GR
GS
[1 0 0 1 164.2 389] CT
0.149 GC
/Helvetica 15 F
GS
[1 0 0 1 0 0] CT
-8.5 12 moveto 
1 -1 scale
(20) t 
GR
GR
GS
[1 0 0 1 253.40001 389] CT
0.149 GC
/Helvetica 15 F
GS
[1 0 0 1 0 0] CT
-8.5 12 moveto 
1 -1 scale
(40) t 
GR
GR
GS
[1 0 0 1 342.60001 389] CT
0.149 GC
/Helvetica 15 F
GS
[1 0 0 1 0 0] CT
-8.5 12 moveto 
1 -1 scale
(60) t 
GR
GR
GS
[1 0 0 1 431.80002 389] CT
0.149 GC
/Helvetica 15 F
GS
[1 0 0 1 0 0] CT
-8.5 12 moveto 
1 -1 scale
(80) t 
GR
GR
GS
[1 0 0 1 521 389] CT
0.149 GC
/Helvetica 15 F
GS
[1 0 0 1 0 0] CT
-13 12 moveto 
1 -1 scale
(100) t 
GR
GR
GS
0.149 GC
2 setlinecap
10.0 ML
N
75 384 M
75 32 L
S
GR
GS
0.149 GC
2 setlinecap
10.0 ML
N
521 384 M
521 32 L
S
GR
GS
0.149 GC
2 setlinecap
10.0 ML
N
75 384 M
79.46 384 L
S
GR
GS
0.149 GC
2 setlinecap
10.0 ML
N
75 333.714 M
79.46 333.714 L
S
GR
GS
0.149 GC
2 setlinecap
10.0 ML
N
75 283.429 M
79.46 283.429 L
S
GR
GS
0.149 GC
2 setlinecap
10.0 ML
N
75 233.143 M
79.46 233.143 L
S
GR
GS
0.149 GC
2 setlinecap
10.0 ML
N
75 182.857 M
79.46 182.857 L
S
GR
GS
0.149 GC
2 setlinecap
10.0 ML
N
75 132.571 M
79.46 132.571 L
S
GR
GS
0.149 GC
2 setlinecap
10.0 ML
N
75 82.286 M
79.46 82.286 L
S
GR
GS
0.149 GC
2 setlinecap
10.0 ML
N
75 32 M
79.46 32 L
S
GR
GS
0.149 GC
2 setlinecap
10.0 ML
N
521 384 M
516.54 384 L
S
GR
GS
0.149 GC
2 setlinecap
10.0 ML
N
521 333.714 M
516.54 333.714 L
S
GR
GS
0.149 GC
2 setlinecap
10.0 ML
N
521 283.429 M
516.54 283.429 L
S
GR
GS
0.149 GC
2 setlinecap
10.0 ML
N
521 233.143 M
516.54 233.143 L
S
GR
GS
0.149 GC
2 setlinecap
10.0 ML
N
521 182.857 M
516.54 182.857 L
S
GR
GS
0.149 GC
2 setlinecap
10.0 ML
N
521 132.571 M
516.54 132.571 L
S
GR
GS
0.149 GC
2 setlinecap
10.0 ML
N
521 82.286 M
516.54 82.286 L
S
GR
GS
0.149 GC
2 setlinecap
10.0 ML
N
521 32 M
516.54 32 L
S
GR
GS
[1 0 0 1 35 391] CT
0.149 GC
/Helvetica 15 F
GS
[1 0 0 1 0 0] CT
0 0 moveto 
1 -1 scale
(10) t 
GR
GR
GS
[1 0 0 1 52 384] CT
0.149 GC
/Helvetica 12 F
GS
[1 0 0 1 0 0] CT
0 0 moveto 
1 -1 scale
(-12) t 
GR
GR
GS
[1 0 0 1 35 341] CT
0.149 GC
/Helvetica 15 F
GS
[1 0 0 1 0 0] CT
0 0 moveto 
1 -1 scale
(10) t 
GR
GR
GS
[1 0 0 1 52 334] CT
0.149 GC
/Helvetica 12 F
GS
[1 0 0 1 0 0] CT
0 0 moveto 
1 -1 scale
(-10) t 
GR
GR
GS
[1 0 0 1 42 290] CT
0.149 GC
/Helvetica 15 F
GS
[1 0 0 1 0 0] CT
0 0 moveto 
1 -1 scale
(10) t 
GR
GR
GS
[1 0 0 1 59 283] CT
0.149 GC
/Helvetica 12 F
GS
[1 0 0 1 0 0] CT
0 0 moveto 
1 -1 scale
(-8) t 
GR
GR
GS
[1 0 0 1 42 240] CT
0.149 GC
/Helvetica 15 F
GS
[1 0 0 1 0 0] CT
0 0 moveto 
1 -1 scale
(10) t 
GR
GR
GS
[1 0 0 1 59 233] CT
0.149 GC
/Helvetica 12 F
GS
[1 0 0 1 0 0] CT
0 0 moveto 
1 -1 scale
(-6) t 
GR
GR
GS
[1 0 0 1 42 190] CT
0.149 GC
/Helvetica 15 F
GS
[1 0 0 1 0 0] CT
0 0 moveto 
1 -1 scale
(10) t 
GR
GR
GS
[1 0 0 1 59 183] CT
0.149 GC
/Helvetica 12 F
GS
[1 0 0 1 0 0] CT
0 0 moveto 
1 -1 scale
(-4) t 
GR
GR
GS
[1 0 0 1 42 140] CT
0.149 GC
/Helvetica 15 F
GS
[1 0 0 1 0 0] CT
0 0 moveto 
1 -1 scale
(10) t 
GR
GR
GS
[1 0 0 1 59 133] CT
0.149 GC
/Helvetica 12 F
GS
[1 0 0 1 0 0] CT
0 0 moveto 
1 -1 scale
(-2) t 
GR
GR
GS
[1 0 0 1 46 89] CT
0.149 GC
/Helvetica 15 F
GS
[1 0 0 1 0 0] CT
0 0 moveto 
1 -1 scale
(10) t 
GR
GR
GS
[1 0 0 1 63 82] CT
0.149 GC
/Helvetica 12 F
GS
[1 0 0 1 0 0] CT
0 0 moveto 
1 -1 scale
(0) t 
GR
GR
GS
[1 0 0 1 46 39] CT
0.149 GC
/Helvetica 15 F
GS
[1 0 0 1 0 0] CT
0 0 moveto 
1 -1 scale
(10) t 
GR
GR
GS
[1 0 0 1 63 32] CT
0.149 GC
/Helvetica 12 F
GS
[1 0 0 1 0 0] CT
0 0 moveto 
1 -1 scale
(2) t 
GR
GR
GS
1 0 1 RC
2 LJ
1.4 LW
N
79.46 45.187 M
83.92 48.467 L
88.38 76.184 L
92.84 78.808 L
97.3 81.118 L
101.76 81.526 L
106.22 99.613 L
110.68 99.854 L
115.14 109.098 L
119.6 109.321 L
124.06 115.764 L
128.52 121.23 L
132.98 121.257 L
137.44 124.114 L
141.9 136.738 L
146.36 136.758 L
150.82 148.521 L
155.28 148.538 L
159.74 157.51 L
164.2 157.755 L
168.66 161.513 L
173.12 162.811 L
177.58 164.958 L
182.04 174.951 L
186.5 175.24 L
190.96 175.953 L
195.42 178.472 L
199.88 180.113 L
204.34 182.599 L
208.8 185.261 L
213.26 185.526 L
217.72 185.715 L
222.18 191.7 L
226.64 192.014 L
231.1 193.212 L
235.56 195.12 L
240.02 200.954 L
244.48 203.333 L
248.94 209.541 L
253.4 210.156 L
257.86 211.191 L
262.32 212.576 L
266.78 214.005 L
271.24 215.869 L
275.7 217.344 L
280.16 219.245 L
284.62 221.25 L
289.08 225.472 L
293.54 227.277 L
298 229.959 L
S
GR
GS
1 0 1 RC
2 LJ
1.4 LW
N
298 229.959 M
302.46 232.883 L
306.92 233.641 L
311.38 240.527 L
315.84 240.579 L
320.3 241.815 L
324.76 250.702 L
329.22 254.833 L
333.68 256.073 L
338.14 257.462 L
342.6 258.023 L
347.06 263.027 L
351.52 267.29 L
355.98 268.409 L
360.44 268.523 L
364.9 270.901 L
369.36 270.911 L
373.82 283.933 L
378.28 285.427 L
382.74 285.577 L
387.2 287.236 L
391.66 290.678 L
396.12 291.75 L
400.58 293.78 L
405.04 294.555 L
409.5 301.548 L
413.96 302.038 L
418.42 304.586 L
422.88 306.035 L
427.34 311.765 L
431.8 326.869 L
436.26 328.089 L
440.72 328.108 L
445.18 329.553 L
449.64 329.877 L
454.1 330.911 L
458.56 334.482 L
463.02 334.572 L
467.48 336.107 L
471.94 347.786 L
476.4 348.223 L
480.86 360.733 L
485.32 366.779 L
489.78 366.801 L
494.24 368.543 L
498.7 370.729 L
503.16 371.092 L
507.62 373.006 L
512.08 373.561 L
516.54 375.811 L
S
GR
GS
1 0 1 RC
2 LJ
1.4 LW
N
516.54 375.811 M
521 375.837 L
521.045 376.008 L
S
GR
GS
[1 0 0 1 298.00031 27.875] CT
/Helvetica 17 F
GS
[1 0 0 1 0 0] CT
-93 -4 moveto 
1 -1 scale
(Decay of singular values) t 
GR
GR
%%Trailer
%%BoundingBox: 35 27 533 421
%%Pages: 1
%%EOF
