%!PS-Adobe-3.0
%%Creator: (MATLAB, The Mathworks, Inc. Version 8.5.0.197613 \(R2015a\). Operating System: Mac OS X)
%%Title: ./ex-RBoptim-pDose-constMat.ps
%%CreationDate: 2015-06-02T12:40:34
%%Pages: (atend)
%%BoundingBox: (atend)
%%LanguageLevel: 3
%%EndComments
%%BeginDefaults
%%EndDefaults
%%BeginProlog
%%EndProlog
%%BeginSetup
%%BeginResource: procset (Apache XML Graphics Std ProcSet) 1.2 0
%%Version: 1.2 0
%%Copyright: (Copyright 2001-2003,2010 The Apache Software Foundation. License terms: http://www.apache.org/licenses/LICENSE-2.0)
/bd{bind def}bind def
/ld{load def}bd
/GR/grestore ld
/M/moveto ld
/LJ/setlinejoin ld
/C/curveto ld
/f/fill ld
/LW/setlinewidth ld
/GC/setgray ld
/t/show ld
/N/newpath ld
/CT/concat ld
/cp/closepath ld
/S/stroke ld
/L/lineto ld
/CC/setcmykcolor ld
/A/ashow ld
/GS/gsave ld
/RC/setrgbcolor ld
/RM/rmoveto ld
/ML/setmiterlimit ld
/re {4 2 roll M
1 index 0 rlineto
0 exch rlineto
neg 0 rlineto
cp } bd
/_ctm matrix def
/_tm matrix def
/BT { _ctm currentmatrix pop matrix _tm copy pop 0 0 moveto } bd
/ET { _ctm setmatrix } bd
/iTm { _ctm setmatrix _tm concat } bd
/Tm { _tm astore pop iTm 0 0 moveto } bd
/ux 0.0 def
/uy 0.0 def
/F {
  /Tp exch def
  /Tf exch def
  Tf findfont Tp scalefont setfont
  /cf Tf def  /cs Tp def
} bd
/ULS {currentpoint /uy exch def /ux exch def} bd
/ULE {
  /Tcx currentpoint pop def
  gsave
  newpath
  cf findfont cs scalefont dup
  /FontMatrix get 0 get /Ts exch def /FontInfo get dup
  /UnderlinePosition get Ts mul /To exch def
  /UnderlineThickness get Ts mul /Tt exch def
  ux uy To add moveto  Tcx uy To add lineto
  Tt setlinewidth stroke
  grestore
} bd
/OLE {
  /Tcx currentpoint pop def
  gsave
  newpath
  cf findfont cs scalefont dup
  /FontMatrix get 0 get /Ts exch def /FontInfo get dup
  /UnderlinePosition get Ts mul /To exch def
  /UnderlineThickness get Ts mul /Tt exch def
  ux uy To add cs add moveto Tcx uy To add cs add lineto
  Tt setlinewidth stroke
  grestore
} bd
/SOE {
  /Tcx currentpoint pop def
  gsave
  newpath
  cf findfont cs scalefont dup
  /FontMatrix get 0 get /Ts exch def /FontInfo get dup
  /UnderlinePosition get Ts mul /To exch def
  /UnderlineThickness get Ts mul /Tt exch def
  ux uy To add cs 10 mul 26 idiv add moveto Tcx uy To add cs 10 mul 26 idiv add lineto
  Tt setlinewidth stroke
  grestore
} bd
/QT {
/Y22 exch store
/X22 exch store
/Y21 exch store
/X21 exch store
currentpoint
/Y21 load 2 mul add 3 div exch
/X21 load 2 mul add 3 div exch
/X21 load 2 mul /X22 load add 3 div
/Y21 load 2 mul /Y22 load add 3 div
/X22 load /Y22 load curveto
} bd
/SSPD {
dup length /d exch dict def
{
/v exch def
/k exch def
currentpagedevice k known {
/cpdv currentpagedevice k get def
v cpdv ne {
/upd false def
/nullv v type /nulltype eq def
/nullcpdv cpdv type /nulltype eq def
nullv nullcpdv or
{
/upd true def
} {
/sametype v type cpdv type eq def
sametype {
v type /arraytype eq {
/vlen v length def
/cpdvlen cpdv length def
vlen cpdvlen eq {
0 1 vlen 1 sub {
/i exch def
/obj v i get def
/cpdobj cpdv i get def
obj cpdobj ne {
/upd true def
exit
} if
} for
} {
/upd true def
} ifelse
} {
v type /dicttype eq {
v {
/dv exch def
/dk exch def
/cpddv cpdv dk get def
dv cpddv ne {
/upd true def
exit
} if
} forall
} {
/upd true def
} ifelse
} ifelse
} if
} ifelse
upd true eq {
d k v put
} if
} if
} if
} forall
d length 0 gt {
d setpagedevice
} if
} bd
%%EndResource
%%BeginResource: procset (Apache XML Graphics EPS ProcSet) 1.0 0
%%Version: 1.0 0
%%Copyright: (Copyright 2002-2003 The Apache Software Foundation. License terms: http://www.apache.org/licenses/LICENSE-2.0)
/BeginEPSF { %def
/b4_Inc_state save def         % Save state for cleanup
/dict_count countdictstack def % Count objects on dict stack
/op_count count 1 sub def      % Count objects on operand stack
userdict begin                 % Push userdict on dict stack
/showpage { } def              % Redefine showpage, { } = null proc
0 setgray 0 setlinecap         % Prepare graphics state
1 setlinewidth 0 setlinejoin
10 setmiterlimit [ ] 0 setdash newpath
/languagelevel where           % If level not equal to 1 then
{pop languagelevel             % set strokeadjust and
1 ne                           % overprint to their defaults.
{false setstrokeadjust false setoverprint
} if
} if
} bd
/EndEPSF { %def
count op_count sub {pop} repeat            % Clean up stacks
countdictstack dict_count sub {end} repeat
b4_Inc_state restore
} bd
%%EndResource
%FOPBeginFontDict
%%IncludeResource: font Courier-Bold
%%IncludeResource: font Helvetica
%%IncludeResource: font Courier-BoldOblique
%%IncludeResource: font Courier-Oblique
%%IncludeResource: font Times-Roman
%%IncludeResource: font Helvetica-BoldOblique
%%IncludeResource: font Helvetica-Bold
%%IncludeResource: font Helvetica-Oblique
%%IncludeResource: font Times-BoldItalic
%%IncludeResource: font Courier
%%IncludeResource: font Times-Italic
%%IncludeResource: font Times-Bold
%%IncludeResource: font Symbol
%%IncludeResource: font ZapfDingbats
%FOPEndFontDict
%%BeginResource: encoding WinAnsiEncoding
/WinAnsiEncoding [
/.notdef /.notdef /.notdef /.notdef /.notdef
/.notdef /.notdef /.notdef /.notdef /.notdef
/.notdef /.notdef /.notdef /.notdef /.notdef
/.notdef /.notdef /.notdef /.notdef /.notdef
/.notdef /.notdef /.notdef /.notdef /.notdef
/.notdef /.notdef /.notdef /.notdef /.notdef
/.notdef /.notdef /space /exclam /quotedbl
/numbersign /dollar /percent /ampersand /quotesingle
/parenleft /parenright /asterisk /plus /comma
/hyphen /period /slash /zero /one
/two /three /four /five /six
/seven /eight /nine /colon /semicolon
/less /equal /greater /question /at
/A /B /C /D /E
/F /G /H /I /J
/K /L /M /N /O
/P /Q /R /S /T
/U /V /W /X /Y
/Z /bracketleft /backslash /bracketright /asciicircum
/underscore /quoteleft /a /b /c
/d /e /f /g /h
/i /j /k /l /m
/n /o /p /q /r
/s /t /u /v /w
/x /y /z /braceleft /bar
/braceright /asciitilde /bullet /Euro /bullet
/quotesinglbase /florin /quotedblbase /ellipsis /dagger
/daggerdbl /circumflex /perthousand /Scaron /guilsinglleft
/OE /bullet /Zcaron /bullet /bullet
/quoteleft /quoteright /quotedblleft /quotedblright /bullet
/endash /emdash /asciitilde /trademark /scaron
/guilsinglright /oe /bullet /zcaron /Ydieresis
/space /exclamdown /cent /sterling /currency
/yen /brokenbar /section /dieresis /copyright
/ordfeminine /guillemotleft /logicalnot /sfthyphen /registered
/macron /degree /plusminus /twosuperior /threesuperior
/acute /mu /paragraph /middot /cedilla
/onesuperior /ordmasculine /guillemotright /onequarter /onehalf
/threequarters /questiondown /Agrave /Aacute /Acircumflex
/Atilde /Adieresis /Aring /AE /Ccedilla
/Egrave /Eacute /Ecircumflex /Edieresis /Igrave
/Iacute /Icircumflex /Idieresis /Eth /Ntilde
/Ograve /Oacute /Ocircumflex /Otilde /Odieresis
/multiply /Oslash /Ugrave /Uacute /Ucircumflex
/Udieresis /Yacute /Thorn /germandbls /agrave
/aacute /acircumflex /atilde /adieresis /aring
/ae /ccedilla /egrave /eacute /ecircumflex
/edieresis /igrave /iacute /icircumflex /idieresis
/eth /ntilde /ograve /oacute /ocircumflex
/otilde /odieresis /divide /oslash /ugrave
/uacute /ucircumflex /udieresis /yacute /thorn
/ydieresis
] def
%%EndResource
%FOPBeginFontReencode
/Courier-Bold findfont
dup length dict begin
  {1 index /FID ne {def} {pop pop} ifelse} forall
  /Encoding WinAnsiEncoding def
  currentdict
end
/Courier-Bold exch definefont pop
/Helvetica findfont
dup length dict begin
  {1 index /FID ne {def} {pop pop} ifelse} forall
  /Encoding WinAnsiEncoding def
  currentdict
end
/Helvetica exch definefont pop
/Courier-BoldOblique findfont
dup length dict begin
  {1 index /FID ne {def} {pop pop} ifelse} forall
  /Encoding WinAnsiEncoding def
  currentdict
end
/Courier-BoldOblique exch definefont pop
/Courier-Oblique findfont
dup length dict begin
  {1 index /FID ne {def} {pop pop} ifelse} forall
  /Encoding WinAnsiEncoding def
  currentdict
end
/Courier-Oblique exch definefont pop
/Times-Roman findfont
dup length dict begin
  {1 index /FID ne {def} {pop pop} ifelse} forall
  /Encoding WinAnsiEncoding def
  currentdict
end
/Times-Roman exch definefont pop
/Helvetica-BoldOblique findfont
dup length dict begin
  {1 index /FID ne {def} {pop pop} ifelse} forall
  /Encoding WinAnsiEncoding def
  currentdict
end
/Helvetica-BoldOblique exch definefont pop
/Helvetica-Bold findfont
dup length dict begin
  {1 index /FID ne {def} {pop pop} ifelse} forall
  /Encoding WinAnsiEncoding def
  currentdict
end
/Helvetica-Bold exch definefont pop
/Helvetica-Oblique findfont
dup length dict begin
  {1 index /FID ne {def} {pop pop} ifelse} forall
  /Encoding WinAnsiEncoding def
  currentdict
end
/Helvetica-Oblique exch definefont pop
/Times-BoldItalic findfont
dup length dict begin
  {1 index /FID ne {def} {pop pop} ifelse} forall
  /Encoding WinAnsiEncoding def
  currentdict
end
/Times-BoldItalic exch definefont pop
/Courier findfont
dup length dict begin
  {1 index /FID ne {def} {pop pop} ifelse} forall
  /Encoding WinAnsiEncoding def
  currentdict
end
/Courier exch definefont pop
/Times-Italic findfont
dup length dict begin
  {1 index /FID ne {def} {pop pop} ifelse} forall
  /Encoding WinAnsiEncoding def
  currentdict
end
/Times-Italic exch definefont pop
/Times-Bold findfont
dup length dict begin
  {1 index /FID ne {def} {pop pop} ifelse} forall
  /Encoding WinAnsiEncoding def
  currentdict
end
/Times-Bold exch definefont pop
%FOPEndFontReencode
%%EndSetup
%%Page: 1 1
%%PageBoundingBox: 0 0 612 792
%%BeginPageSetup
<<
/PageSize [612 792]
/ImagingBBox null
>> setpagedevice
[1 0 0 -1 0 792] CT
%%EndPageSetup
GS
[1 0 0 1 18 180] CT
1 GC
N
0 0 576 432 re
f
GR
GS
[1 0 0 1 18 180] CT
1 GC
N
0 0 576 432 re
f
GR
GS
[1 0 0 1 18 180] CT
1 GC
N
75 90 M
521 90 L
521 38 L
75 38 L
cp
f
GR
GS
[1 0 0 1 316.00021 286] CT
0.149 GC
/Helvetica 11 F
GS
[1 0 0 1 0 0] CT
-3 9 moveto 
1 -1 scale
(x) t 
GR
GR
GS
[1 0 0 1 18 180] CT
0.149 GC
2 setlinecap
10.0 ML
N
75 90 M
521 90 L
S
GR
GS
[1 0 0 1 18 180] CT
0.149 GC
2 setlinecap
10.0 ML
N
75 38 M
521 38 L
S
GR
GS
[1 0 0 1 18 180] CT
0.149 GC
2 setlinecap
10.0 ML
N
75 90 M
75 85.54 L
S
GR
GS
[1 0 0 1 18 180] CT
0.149 GC
2 setlinecap
10.0 ML
N
119.6 90 M
119.6 85.54 L
S
GR
GS
[1 0 0 1 18 180] CT
0.149 GC
2 setlinecap
10.0 ML
N
164.2 90 M
164.2 85.54 L
S
GR
GS
[1 0 0 1 18 180] CT
0.149 GC
2 setlinecap
10.0 ML
N
208.8 90 M
208.8 85.54 L
S
GR
GS
[1 0 0 1 18 180] CT
0.149 GC
2 setlinecap
10.0 ML
N
253.4 90 M
253.4 85.54 L
S
GR
GS
[1 0 0 1 18 180] CT
0.149 GC
2 setlinecap
10.0 ML
N
298 90 M
298 85.54 L
S
GR
GS
[1 0 0 1 18 180] CT
0.149 GC
2 setlinecap
10.0 ML
N
342.6 90 M
342.6 85.54 L
S
GR
GS
[1 0 0 1 18 180] CT
0.149 GC
2 setlinecap
10.0 ML
N
387.2 90 M
387.2 85.54 L
S
GR
GS
[1 0 0 1 18 180] CT
0.149 GC
2 setlinecap
10.0 ML
N
431.8 90 M
431.8 85.54 L
S
GR
GS
[1 0 0 1 18 180] CT
0.149 GC
2 setlinecap
10.0 ML
N
476.4 90 M
476.4 85.54 L
S
GR
GS
[1 0 0 1 18 180] CT
0.149 GC
2 setlinecap
10.0 ML
N
521 90 M
521 85.54 L
S
GR
GS
[1 0 0 1 18 180] CT
0.149 GC
2 setlinecap
10.0 ML
N
75 38 M
75 42.46 L
S
GR
GS
[1 0 0 1 18 180] CT
0.149 GC
2 setlinecap
10.0 ML
N
119.6 38 M
119.6 42.46 L
S
GR
GS
[1 0 0 1 18 180] CT
0.149 GC
2 setlinecap
10.0 ML
N
164.2 38 M
164.2 42.46 L
S
GR
GS
[1 0 0 1 18 180] CT
0.149 GC
2 setlinecap
10.0 ML
N
208.8 38 M
208.8 42.46 L
S
GR
GS
[1 0 0 1 18 180] CT
0.149 GC
2 setlinecap
10.0 ML
N
253.4 38 M
253.4 42.46 L
S
GR
GS
[1 0 0 1 18 180] CT
0.149 GC
2 setlinecap
10.0 ML
N
298 38 M
298 42.46 L
S
GR
GS
[1 0 0 1 18 180] CT
0.149 GC
2 setlinecap
10.0 ML
N
342.6 38 M
342.6 42.46 L
S
GR
GS
[1 0 0 1 18 180] CT
0.149 GC
2 setlinecap
10.0 ML
N
387.2 38 M
387.2 42.46 L
S
GR
GS
[1 0 0 1 18 180] CT
0.149 GC
2 setlinecap
10.0 ML
N
431.8 38 M
431.8 42.46 L
S
GR
GS
[1 0 0 1 18 180] CT
0.149 GC
2 setlinecap
10.0 ML
N
476.4 38 M
476.4 42.46 L
S
GR
GS
[1 0 0 1 18 180] CT
0.149 GC
2 setlinecap
10.0 ML
N
521 38 M
521 42.46 L
S
GR
GS
[1 0 0 1 93 274] CT
0.149 GC
/Helvetica 10 F
GS
[1 0 0 1 0 0] CT
-3 8 moveto 
1 -1 scale
(0) t 
GR
GR
GS
[1 0 0 1 137.6 274] CT
0.149 GC
/Helvetica 10 F
GS
[1 0 0 1 0 0] CT
-7 8 moveto 
1 -1 scale
(0.1) t 
GR
GR
GS
[1 0 0 1 182.2 274] CT
0.149 GC
/Helvetica 10 F
GS
[1 0 0 1 0 0] CT
-7 8 moveto 
1 -1 scale
(0.2) t 
GR
GR
GS
[1 0 0 1 226.8 274] CT
0.149 GC
/Helvetica 10 F
GS
[1 0 0 1 0 0] CT
-7 8 moveto 
1 -1 scale
(0.3) t 
GR
GR
GS
[1 0 0 1 271.40001 274] CT
0.149 GC
/Helvetica 10 F
GS
[1 0 0 1 0 0] CT
-7 8 moveto 
1 -1 scale
(0.4) t 
GR
GR
GS
[1 0 0 1 316 274] CT
0.149 GC
/Helvetica 10 F
GS
[1 0 0 1 0 0] CT
-7 8 moveto 
1 -1 scale
(0.5) t 
GR
GR
GS
[1 0 0 1 360.60001 274] CT
0.149 GC
/Helvetica 10 F
GS
[1 0 0 1 0 0] CT
-7 8 moveto 
1 -1 scale
(0.6) t 
GR
GR
GS
[1 0 0 1 405.19998 274] CT
0.149 GC
/Helvetica 10 F
GS
[1 0 0 1 0 0] CT
-7 8 moveto 
1 -1 scale
(0.7) t 
GR
GR
GS
[1 0 0 1 449.80002 274] CT
0.149 GC
/Helvetica 10 F
GS
[1 0 0 1 0 0] CT
-7 8 moveto 
1 -1 scale
(0.8) t 
GR
GR
GS
[1 0 0 1 494.39999 274] CT
0.149 GC
/Helvetica 10 F
GS
[1 0 0 1 0 0] CT
-7 8 moveto 
1 -1 scale
(0.9) t 
GR
GR
GS
[1 0 0 1 539 274] CT
0.149 GC
/Helvetica 10 F
GS
[1 0 0 1 0 0] CT
-3 8 moveto 
1 -1 scale
(1) t 
GR
GR
GS
[0 -1 1 0 66 243.99998] CT
0.149 GC
/Helvetica 11 F
GS
[1 0 0 1 0 0] CT
-42 -3 moveto 
1 -1 scale
(Optimal part.dist.) t 
GR
GR
GS
[1 0 0 1 18 180] CT
0.149 GC
2 setlinecap
10.0 ML
N
75 90 M
75 38 L
S
GR
GS
[1 0 0 1 18 180] CT
0.149 GC
2 setlinecap
10.0 ML
N
521 90 M
521 38 L
S
GR
GS
[1 0 0 1 18 180] CT
0.149 GC
2 setlinecap
10.0 ML
N
75 90 M
79.46 90 L
S
GR
GS
[1 0 0 1 18 180] CT
0.149 GC
2 setlinecap
10.0 ML
N
75 64 M
79.46 64 L
S
GR
GS
[1 0 0 1 18 180] CT
0.149 GC
2 setlinecap
10.0 ML
N
75 38 M
79.46 38 L
S
GR
GS
[1 0 0 1 18 180] CT
0.149 GC
2 setlinecap
10.0 ML
N
521 90 M
516.54 90 L
S
GR
GS
[1 0 0 1 18 180] CT
0.149 GC
2 setlinecap
10.0 ML
N
521 64 M
516.54 64 L
S
GR
GS
[1 0 0 1 18 180] CT
0.149 GC
2 setlinecap
10.0 ML
N
521 38 M
516.54 38 L
S
GR
GS
[1 0 0 1 89 270] CT
0.149 GC
/Helvetica 10 F
GS
[1 0 0 1 0 0] CT
-6 2.5 moveto 
1 -1 scale
(0) t 
GR
GR
GS
[1 0 0 1 89 244] CT
0.149 GC
/Helvetica 10 F
GS
[1 0 0 1 0 0] CT
-20 2.5 moveto 
1 -1 scale
(0.02) t 
GR
GR
GS
[1 0 0 1 89 218] CT
0.149 GC
/Helvetica 10 F
GS
[1 0 0 1 0 0] CT
-20 2.5 moveto 
1 -1 scale
(0.04) t 
GR
GR
GS
[1 0 0 1 18 180] CT
0 0.447 0.741 RC
2 setlinecap
10.0 ML
N
75 90 M
77.23 89.824 L
79.46 89.647 L
81.69 89.471 L
83.92 89.292 L
86.15 89.114 L
88.38 88.933 L
90.61 88.752 L
92.84 88.568 L
95.07 88.384 L
97.3 88.195 L
99.53 88.006 L
101.76 87.812 L
103.99 87.617 L
106.22 87.417 L
108.45 87.214 L
110.68 87.008 L
112.91 86.797 L
115.14 86.583 L
117.37 86.364 L
119.6 86.14 L
121.83 85.912 L
124.06 85.678 L
126.29 85.439 L
128.52 85.195 L
130.75 84.945 L
132.98 84.69 L
135.21 84.348 L
137.44 83.987 L
139.67 83.617 L
141.9 83.228 L
144.13 82.828 L
146.36 82.407 L
148.59 81.973 L
150.82 81.519 L
153.05 81.048 L
155.28 80.557 L
157.51 80.046 L
159.74 79.514 L
161.97 78.96 L
164.2 78.384 L
166.43 77.784 L
168.66 77.16 L
170.89 76.509 L
173.12 75.834 L
175.35 75.13 L
177.58 74.4 L
179.81 73.638 L
182.04 72.849 L
184.27 72.026 L
S
GR
GS
[1 0 0 1 18 180] CT
0 0.447 0.741 RC
2 setlinecap
10.0 ML
N
184.27 72.026 M
186.5 71.175 L
188.73 70.287 L
190.96 69.37 L
193.19 68.413 L
195.42 67.426 L
197.65 66.894 L
199.88 66.399 L
202.11 65.864 L
204.34 65.366 L
206.57 64.828 L
208.8 64.327 L
211.03 63.788 L
213.26 63.285 L
215.49 62.746 L
217.72 62.243 L
219.95 61.706 L
222.18 61.204 L
224.41 60.67 L
226.64 60.172 L
228.87 59.643 L
231.1 59.15 L
233.33 58.629 L
235.56 58.145 L
237.79 57.634 L
240.02 57.161 L
242.25 56.664 L
244.48 56.204 L
246.71 55.724 L
248.94 55.282 L
251.17 54.822 L
253.4 54.403 L
255.63 53.968 L
257.86 53.574 L
260.09 53.168 L
262.32 52.804 L
264.55 52.431 L
266.78 52.102 L
269.01 51.767 L
271.24 51.476 L
273.47 51.182 L
275.7 50.934 L
277.93 50.683 L
280.16 50.481 L
282.39 50.278 L
284.62 50.123 L
286.85 49.97 L
289.08 49.865 L
291.31 49.762 L
293.54 49.709 L
S
GR
GS
[1 0 0 1 18 180] CT
0 0.447 0.741 RC
2 setlinecap
10.0 ML
N
293.54 49.709 M
295.77 49.658 L
298 49.657 L
300.23 49.659 L
302.46 49.71 L
304.69 49.763 L
306.92 49.866 L
309.15 49.971 L
311.38 50.125 L
313.61 50.279 L
315.84 50.483 L
318.07 50.685 L
320.3 50.936 L
322.53 51.184 L
324.76 51.479 L
326.99 51.77 L
329.22 52.106 L
331.45 52.435 L
333.68 52.808 L
335.91 53.172 L
338.14 53.578 L
340.37 53.972 L
342.6 54.408 L
344.83 54.828 L
347.06 55.288 L
349.29 55.73 L
351.52 56.211 L
353.75 56.67 L
355.98 57.168 L
358.21 57.642 L
360.44 58.153 L
362.67 58.638 L
364.9 59.16 L
367.13 59.653 L
369.36 60.182 L
371.59 60.68 L
373.82 61.216 L
376.05 61.717 L
378.28 62.256 L
380.51 62.759 L
382.74 63.299 L
384.97 63.802 L
387.2 64.342 L
389.43 64.843 L
391.66 65.383 L
393.89 65.881 L
396.12 66.418 L
398.35 66.913 L
400.58 67.447 L
402.81 68.465 L
S
GR
GS
[1 0 0 1 18 180] CT
0 0.447 0.741 RC
2 setlinecap
10.0 ML
N
402.81 68.465 M
405.04 69.452 L
407.27 70.396 L
409.5 71.31 L
411.73 72.185 L
413.96 73.03 L
416.19 73.839 L
418.42 74.62 L
420.65 75.368 L
422.88 76.088 L
425.11 76.779 L
427.34 77.443 L
429.57 78.081 L
431.8 78.693 L
434.03 79.282 L
436.26 79.846 L
438.49 80.389 L
440.72 80.909 L
442.95 81.411 L
445.18 81.89 L
447.41 82.354 L
449.64 82.796 L
451.87 83.226 L
454.1 83.634 L
456.33 84.033 L
458.56 84.411 L
460.79 84.782 L
463.02 85.133 L
465.25 85.354 L
467.48 85.572 L
469.71 85.786 L
471.94 85.996 L
474.17 86.203 L
476.4 86.406 L
478.63 86.606 L
480.86 86.803 L
483.09 86.998 L
485.32 87.189 L
487.55 87.378 L
489.78 87.564 L
492.01 87.748 L
494.24 87.929 L
496.47 88.109 L
498.7 88.287 L
500.93 88.463 L
503.16 88.637 L
505.39 88.811 L
507.62 88.983 L
509.85 89.154 L
512.08 89.324 L
S
GR
GS
[1 0 0 1 18 180] CT
0 0.447 0.741 RC
2 setlinecap
10.0 ML
N
512.08 89.324 M
514.31 89.494 L
516.54 89.662 L
518.77 89.832 L
521 90 L
S
GR
GS
[1 0 0 1 316.00031 215.25] CT
/Helvetica-Bold 11 F
GS
[1 0 0 1 0 0] CT
-179 -3 moveto 
1 -1 scale
(ex-RBoptim-pDose-constMat of moment order - 0# of moment order - ) t 
GR
GR
GS
[1 0 0 1 18 180] CT
1 GC
N
75 184 M
521 184 L
521 132 L
75 132 L
cp
f
GR
GS
[1 0 0 1 316.00021 380] CT
0.149 GC
/Helvetica 11 F
GS
[1 0 0 1 0 0] CT
-3 9 moveto 
1 -1 scale
(x) t 
GR
GR
GS
[1 0 0 1 18 180] CT
0.149 GC
2 setlinecap
10.0 ML
N
75 184 M
521 184 L
S
GR
GS
[1 0 0 1 18 180] CT
0.149 GC
2 setlinecap
10.0 ML
N
75 132 M
521 132 L
S
GR
GS
[1 0 0 1 18 180] CT
0.149 GC
2 setlinecap
10.0 ML
N
75 184 M
75 179.54 L
S
GR
GS
[1 0 0 1 18 180] CT
0.149 GC
2 setlinecap
10.0 ML
N
119.6 184 M
119.6 179.54 L
S
GR
GS
[1 0 0 1 18 180] CT
0.149 GC
2 setlinecap
10.0 ML
N
164.2 184 M
164.2 179.54 L
S
GR
GS
[1 0 0 1 18 180] CT
0.149 GC
2 setlinecap
10.0 ML
N
208.8 184 M
208.8 179.54 L
S
GR
GS
[1 0 0 1 18 180] CT
0.149 GC
2 setlinecap
10.0 ML
N
253.4 184 M
253.4 179.54 L
S
GR
GS
[1 0 0 1 18 180] CT
0.149 GC
2 setlinecap
10.0 ML
N
298 184 M
298 179.54 L
S
GR
GS
[1 0 0 1 18 180] CT
0.149 GC
2 setlinecap
10.0 ML
N
342.6 184 M
342.6 179.54 L
S
GR
GS
[1 0 0 1 18 180] CT
0.149 GC
2 setlinecap
10.0 ML
N
387.2 184 M
387.2 179.54 L
S
GR
GS
[1 0 0 1 18 180] CT
0.149 GC
2 setlinecap
10.0 ML
N
431.8 184 M
431.8 179.54 L
S
GR
GS
[1 0 0 1 18 180] CT
0.149 GC
2 setlinecap
10.0 ML
N
476.4 184 M
476.4 179.54 L
S
GR
GS
[1 0 0 1 18 180] CT
0.149 GC
2 setlinecap
10.0 ML
N
521 184 M
521 179.54 L
S
GR
GS
[1 0 0 1 18 180] CT
0.149 GC
2 setlinecap
10.0 ML
N
75 132 M
75 136.46 L
S
GR
GS
[1 0 0 1 18 180] CT
0.149 GC
2 setlinecap
10.0 ML
N
119.6 132 M
119.6 136.46 L
S
GR
GS
[1 0 0 1 18 180] CT
0.149 GC
2 setlinecap
10.0 ML
N
164.2 132 M
164.2 136.46 L
S
GR
GS
[1 0 0 1 18 180] CT
0.149 GC
2 setlinecap
10.0 ML
N
208.8 132 M
208.8 136.46 L
S
GR
GS
[1 0 0 1 18 180] CT
0.149 GC
2 setlinecap
10.0 ML
N
253.4 132 M
253.4 136.46 L
S
GR
GS
[1 0 0 1 18 180] CT
0.149 GC
2 setlinecap
10.0 ML
N
298 132 M
298 136.46 L
S
GR
GS
[1 0 0 1 18 180] CT
0.149 GC
2 setlinecap
10.0 ML
N
342.6 132 M
342.6 136.46 L
S
GR
GS
[1 0 0 1 18 180] CT
0.149 GC
2 setlinecap
10.0 ML
N
387.2 132 M
387.2 136.46 L
S
GR
GS
[1 0 0 1 18 180] CT
0.149 GC
2 setlinecap
10.0 ML
N
431.8 132 M
431.8 136.46 L
S
GR
GS
[1 0 0 1 18 180] CT
0.149 GC
2 setlinecap
10.0 ML
N
476.4 132 M
476.4 136.46 L
S
GR
GS
[1 0 0 1 18 180] CT
0.149 GC
2 setlinecap
10.0 ML
N
521 132 M
521 136.46 L
S
GR
GS
[1 0 0 1 93 368] CT
0.149 GC
/Helvetica 10 F
GS
[1 0 0 1 0 0] CT
-3 8 moveto 
1 -1 scale
(0) t 
GR
GR
GS
[1 0 0 1 137.6 368] CT
0.149 GC
/Helvetica 10 F
GS
[1 0 0 1 0 0] CT
-7 8 moveto 
1 -1 scale
(0.1) t 
GR
GR
GS
[1 0 0 1 182.2 368] CT
0.149 GC
/Helvetica 10 F
GS
[1 0 0 1 0 0] CT
-7 8 moveto 
1 -1 scale
(0.2) t 
GR
GR
GS
[1 0 0 1 226.8 368] CT
0.149 GC
/Helvetica 10 F
GS
[1 0 0 1 0 0] CT
-7 8 moveto 
1 -1 scale
(0.3) t 
GR
GR
GS
[1 0 0 1 271.40001 368] CT
0.149 GC
/Helvetica 10 F
GS
[1 0 0 1 0 0] CT
-7 8 moveto 
1 -1 scale
(0.4) t 
GR
GR
GS
[1 0 0 1 316 368] CT
0.149 GC
/Helvetica 10 F
GS
[1 0 0 1 0 0] CT
-7 8 moveto 
1 -1 scale
(0.5) t 
GR
GR
GS
[1 0 0 1 360.60001 368] CT
0.149 GC
/Helvetica 10 F
GS
[1 0 0 1 0 0] CT
-7 8 moveto 
1 -1 scale
(0.6) t 
GR
GR
GS
[1 0 0 1 405.19998 368] CT
0.149 GC
/Helvetica 10 F
GS
[1 0 0 1 0 0] CT
-7 8 moveto 
1 -1 scale
(0.7) t 
GR
GR
GS
[1 0 0 1 449.80002 368] CT
0.149 GC
/Helvetica 10 F
GS
[1 0 0 1 0 0] CT
-7 8 moveto 
1 -1 scale
(0.8) t 
GR
GR
GS
[1 0 0 1 494.39999 368] CT
0.149 GC
/Helvetica 10 F
GS
[1 0 0 1 0 0] CT
-7 8 moveto 
1 -1 scale
(0.9) t 
GR
GR
GS
[1 0 0 1 539 368] CT
0.149 GC
/Helvetica 10 F
GS
[1 0 0 1 0 0] CT
-3 8 moveto 
1 -1 scale
(1) t 
GR
GR
GS
[0 -1 1 0 72 337.99997] CT
0.149 GC
/Helvetica 11 F
GS
[1 0 0 1 0 0] CT
-42 -3 moveto 
1 -1 scale
(Desired part.dist.) t 
GR
GR
GS
[1 0 0 1 18 180] CT
0.149 GC
2 setlinecap
10.0 ML
N
75 184 M
75 132 L
S
GR
GS
[1 0 0 1 18 180] CT
0.149 GC
2 setlinecap
10.0 ML
N
521 184 M
521 132 L
S
GR
GS
[1 0 0 1 18 180] CT
0.149 GC
2 setlinecap
10.0 ML
N
75 184 M
79.46 184 L
S
GR
GS
[1 0 0 1 18 180] CT
0.149 GC
2 setlinecap
10.0 ML
N
75 158 M
79.46 158 L
S
GR
GS
[1 0 0 1 18 180] CT
0.149 GC
2 setlinecap
10.0 ML
N
75 132 M
79.46 132 L
S
GR
GS
[1 0 0 1 18 180] CT
0.149 GC
2 setlinecap
10.0 ML
N
521 184 M
516.54 184 L
S
GR
GS
[1 0 0 1 18 180] CT
0.149 GC
2 setlinecap
10.0 ML
N
521 158 M
516.54 158 L
S
GR
GS
[1 0 0 1 18 180] CT
0.149 GC
2 setlinecap
10.0 ML
N
521 132 M
516.54 132 L
S
GR
GS
[1 0 0 1 89 364] CT
0.149 GC
/Helvetica 10 F
GS
[1 0 0 1 0 0] CT
-6 2.5 moveto 
1 -1 scale
(0) t 
GR
GR
GS
[1 0 0 1 89 338] CT
0.149 GC
/Helvetica 10 F
GS
[1 0 0 1 0 0] CT
-14 2.5 moveto 
1 -1 scale
(0.1) t 
GR
GR
GS
[1 0 0 1 89 312] CT
0.149 GC
/Helvetica 10 F
GS
[1 0 0 1 0 0] CT
-14 2.5 moveto 
1 -1 scale
(0.2) t 
GR
GR
GS
[1 0 0 1 18 180] CT
0 0.447 0.741 RC
2 setlinecap
10.0 ML
N
75 184 M
77.23 184 L
79.46 184 L
81.69 184 L
83.92 184 L
86.15 184 L
88.38 184 L
90.61 184 L
92.84 184 L
95.07 184 L
97.3 184 L
99.53 184 L
101.76 184 L
103.99 184 L
106.22 184 L
108.45 184 L
110.68 184 L
112.91 184 L
115.14 184 L
117.37 184 L
119.6 184 L
121.83 184 L
124.06 184 L
126.29 184 L
128.52 184 L
130.75 184 L
132.98 184 L
135.21 184 L
137.44 184 L
139.67 184 L
141.9 184 L
144.13 184 L
146.36 184 L
148.59 184 L
150.82 184 L
153.05 184 L
155.28 184 L
157.51 184 L
159.74 184 L
161.97 184 L
164.2 184 L
166.43 184 L
168.66 184 L
170.89 184 L
173.12 184 L
175.35 184 L
177.58 184 L
179.81 184 L
182.04 184 L
184.27 184 L
S
GR
GS
[1 0 0 1 18 180] CT
0 0.447 0.741 RC
2 setlinecap
10.0 ML
N
184.27 184 M
186.5 184 L
188.73 184 L
190.96 184 L
193.19 184 L
195.42 184 L
197.65 184 L
199.88 184 L
202.11 184 L
204.34 184 L
206.57 184 L
208.8 184 L
211.03 184 L
213.26 184 L
215.49 184 L
217.72 184 L
219.95 184 L
222.18 184 L
224.41 184 L
226.64 184 L
228.87 184 L
231.1 184 L
233.33 184 L
235.56 184 L
237.79 184 L
240.02 184 L
242.25 184 L
244.48 184 L
246.71 180.286 L
248.94 176.571 L
251.17 172.857 L
253.4 169.143 L
255.63 165.429 L
257.86 161.714 L
260.09 158 L
262.32 154.286 L
264.55 150.571 L
266.78 146.857 L
269.01 143.143 L
271.24 139.429 L
273.47 135.714 L
275.7 132 L
277.93 132 L
280.16 132 L
282.39 132 L
284.62 132 L
286.85 132 L
289.08 132 L
291.31 132 L
293.54 132 L
S
GR
GS
[1 0 0 1 18 180] CT
0 0.447 0.741 RC
2 setlinecap
10.0 ML
N
293.54 132 M
295.77 132 L
298 132 L
300.23 132 L
302.46 132 L
304.69 132 L
306.92 132 L
309.15 132 L
311.38 132 L
313.61 132 L
315.84 132 L
318.07 132 L
320.3 132 L
322.53 135.714 L
324.76 139.429 L
326.99 143.143 L
329.22 146.857 L
331.45 150.571 L
333.68 154.286 L
335.91 158 L
338.14 161.714 L
340.37 165.429 L
342.6 169.143 L
344.83 172.857 L
347.06 176.571 L
349.29 180.286 L
351.52 184 L
353.75 184 L
355.98 184 L
358.21 184 L
360.44 184 L
362.67 184 L
364.9 184 L
367.13 184 L
369.36 184 L
371.59 184 L
373.82 184 L
376.05 184 L
378.28 184 L
380.51 184 L
382.74 184 L
384.97 184 L
387.2 184 L
389.43 184 L
391.66 184 L
393.89 184 L
396.12 184 L
398.35 184 L
400.58 184 L
402.81 184 L
S
GR
GS
[1 0 0 1 18 180] CT
0 0.447 0.741 RC
2 setlinecap
10.0 ML
N
402.81 184 M
405.04 184 L
407.27 184 L
409.5 184 L
411.73 184 L
413.96 184 L
416.19 184 L
418.42 184 L
420.65 184 L
422.88 184 L
425.11 184 L
427.34 184 L
429.57 184 L
431.8 184 L
434.03 184 L
436.26 184 L
438.49 184 L
440.72 184 L
442.95 184 L
445.18 184 L
447.41 184 L
449.64 184 L
451.87 184 L
454.1 184 L
456.33 184 L
458.56 184 L
460.79 184 L
463.02 184 L
465.25 184 L
467.48 184 L
469.71 184 L
471.94 184 L
474.17 184 L
476.4 184 L
478.63 184 L
480.86 184 L
483.09 184 L
485.32 184 L
487.55 184 L
489.78 184 L
492.01 184 L
494.24 184 L
496.47 184 L
498.7 184 L
500.93 184 L
503.16 184 L
505.39 184 L
507.62 184 L
509.85 184 L
512.08 184 L
S
GR
GS
[1 0 0 1 18 180] CT
0 0.447 0.741 RC
2 setlinecap
10.0 ML
N
512.08 184 M
514.31 184 L
516.54 184 L
518.77 184 L
521 184 L
S
GR
GS
[1 0 0 1 316.00031 309.25] CT
/Helvetica-Bold 11 F
GS
[1 0 0 1 0 0] CT
-179 -3 moveto 
1 -1 scale
(ex-RBoptim-pDose-constMat of moment order - 0# of moment order - ) t 
GR
GR
GS
[1 0 0 1 18 180] CT
1 GC
N
75 279 M
521 279 L
521 227 L
75 227 L
cp
f
GR
GS
[1 0 0 1 316.00021 475] CT
0.149 GC
/Helvetica 11 F
GS
[1 0 0 1 0 0] CT
-3 9 moveto 
1 -1 scale
(x) t 
GR
GR
GS
[1 0 0 1 18 180] CT
0.149 GC
2 setlinecap
10.0 ML
N
75 279 M
521 279 L
S
GR
GS
[1 0 0 1 18 180] CT
0.149 GC
2 setlinecap
10.0 ML
N
75 227 M
521 227 L
S
GR
GS
[1 0 0 1 18 180] CT
0.149 GC
2 setlinecap
10.0 ML
N
75 279 M
75 274.54 L
S
GR
GS
[1 0 0 1 18 180] CT
0.149 GC
2 setlinecap
10.0 ML
N
119.6 279 M
119.6 274.54 L
S
GR
GS
[1 0 0 1 18 180] CT
0.149 GC
2 setlinecap
10.0 ML
N
164.2 279 M
164.2 274.54 L
S
GR
GS
[1 0 0 1 18 180] CT
0.149 GC
2 setlinecap
10.0 ML
N
208.8 279 M
208.8 274.54 L
S
GR
GS
[1 0 0 1 18 180] CT
0.149 GC
2 setlinecap
10.0 ML
N
253.4 279 M
253.4 274.54 L
S
GR
GS
[1 0 0 1 18 180] CT
0.149 GC
2 setlinecap
10.0 ML
N
298 279 M
298 274.54 L
S
GR
GS
[1 0 0 1 18 180] CT
0.149 GC
2 setlinecap
10.0 ML
N
342.6 279 M
342.6 274.54 L
S
GR
GS
[1 0 0 1 18 180] CT
0.149 GC
2 setlinecap
10.0 ML
N
387.2 279 M
387.2 274.54 L
S
GR
GS
[1 0 0 1 18 180] CT
0.149 GC
2 setlinecap
10.0 ML
N
431.8 279 M
431.8 274.54 L
S
GR
GS
[1 0 0 1 18 180] CT
0.149 GC
2 setlinecap
10.0 ML
N
476.4 279 M
476.4 274.54 L
S
GR
GS
[1 0 0 1 18 180] CT
0.149 GC
2 setlinecap
10.0 ML
N
521 279 M
521 274.54 L
S
GR
GS
[1 0 0 1 18 180] CT
0.149 GC
2 setlinecap
10.0 ML
N
75 227 M
75 231.46 L
S
GR
GS
[1 0 0 1 18 180] CT
0.149 GC
2 setlinecap
10.0 ML
N
119.6 227 M
119.6 231.46 L
S
GR
GS
[1 0 0 1 18 180] CT
0.149 GC
2 setlinecap
10.0 ML
N
164.2 227 M
164.2 231.46 L
S
GR
GS
[1 0 0 1 18 180] CT
0.149 GC
2 setlinecap
10.0 ML
N
208.8 227 M
208.8 231.46 L
S
GR
GS
[1 0 0 1 18 180] CT
0.149 GC
2 setlinecap
10.0 ML
N
253.4 227 M
253.4 231.46 L
S
GR
GS
[1 0 0 1 18 180] CT
0.149 GC
2 setlinecap
10.0 ML
N
298 227 M
298 231.46 L
S
GR
GS
[1 0 0 1 18 180] CT
0.149 GC
2 setlinecap
10.0 ML
N
342.6 227 M
342.6 231.46 L
S
GR
GS
[1 0 0 1 18 180] CT
0.149 GC
2 setlinecap
10.0 ML
N
387.2 227 M
387.2 231.46 L
S
GR
GS
[1 0 0 1 18 180] CT
0.149 GC
2 setlinecap
10.0 ML
N
431.8 227 M
431.8 231.46 L
S
GR
GS
[1 0 0 1 18 180] CT
0.149 GC
2 setlinecap
10.0 ML
N
476.4 227 M
476.4 231.46 L
S
GR
GS
[1 0 0 1 18 180] CT
0.149 GC
2 setlinecap
10.0 ML
N
521 227 M
521 231.46 L
S
GR
GS
[1 0 0 1 93 463] CT
0.149 GC
/Helvetica 10 F
GS
[1 0 0 1 0 0] CT
-3 8 moveto 
1 -1 scale
(0) t 
GR
GR
GS
[1 0 0 1 137.6 463] CT
0.149 GC
/Helvetica 10 F
GS
[1 0 0 1 0 0] CT
-7 8 moveto 
1 -1 scale
(0.1) t 
GR
GR
GS
[1 0 0 1 182.2 463] CT
0.149 GC
/Helvetica 10 F
GS
[1 0 0 1 0 0] CT
-7 8 moveto 
1 -1 scale
(0.2) t 
GR
GR
GS
[1 0 0 1 226.8 463] CT
0.149 GC
/Helvetica 10 F
GS
[1 0 0 1 0 0] CT
-7 8 moveto 
1 -1 scale
(0.3) t 
GR
GR
GS
[1 0 0 1 271.40001 463] CT
0.149 GC
/Helvetica 10 F
GS
[1 0 0 1 0 0] CT
-7 8 moveto 
1 -1 scale
(0.4) t 
GR
GR
GS
[1 0 0 1 316 463] CT
0.149 GC
/Helvetica 10 F
GS
[1 0 0 1 0 0] CT
-7 8 moveto 
1 -1 scale
(0.5) t 
GR
GR
GS
[1 0 0 1 360.60001 463] CT
0.149 GC
/Helvetica 10 F
GS
[1 0 0 1 0 0] CT
-7 8 moveto 
1 -1 scale
(0.6) t 
GR
GR
GS
[1 0 0 1 405.19998 463] CT
0.149 GC
/Helvetica 10 F
GS
[1 0 0 1 0 0] CT
-7 8 moveto 
1 -1 scale
(0.7) t 
GR
GR
GS
[1 0 0 1 449.80002 463] CT
0.149 GC
/Helvetica 10 F
GS
[1 0 0 1 0 0] CT
-7 8 moveto 
1 -1 scale
(0.8) t 
GR
GR
GS
[1 0 0 1 494.39999 463] CT
0.149 GC
/Helvetica 10 F
GS
[1 0 0 1 0 0] CT
-7 8 moveto 
1 -1 scale
(0.9) t 
GR
GR
GS
[1 0 0 1 539 463] CT
0.149 GC
/Helvetica 10 F
GS
[1 0 0 1 0 0] CT
-3 8 moveto 
1 -1 scale
(1) t 
GR
GR
GS
[0 -1 1 0 68 432.99997] CT
0.149 GC
/Helvetica 11 F
GS
[1 0 0 1 0 0] CT
-37.5 -3 moveto 
1 -1 scale
(Adjoint solution) t 
GR
GR
GS
[1 0 0 1 18 180] CT
0.149 GC
2 setlinecap
10.0 ML
N
75 279 M
75 227 L
S
GR
GS
[1 0 0 1 18 180] CT
0.149 GC
2 setlinecap
10.0 ML
N
521 279 M
521 227 L
S
GR
GS
[1 0 0 1 18 180] CT
0.149 GC
2 setlinecap
10.0 ML
N
75 279 M
79.46 279 L
S
GR
GS
[1 0 0 1 18 180] CT
0.149 GC
2 setlinecap
10.0 ML
N
75 253 M
79.46 253 L
S
GR
GS
[1 0 0 1 18 180] CT
0.149 GC
2 setlinecap
10.0 ML
N
75 227 M
79.46 227 L
S
GR
GS
[1 0 0 1 18 180] CT
0.149 GC
2 setlinecap
10.0 ML
N
521 279 M
516.54 279 L
S
GR
GS
[1 0 0 1 18 180] CT
0.149 GC
2 setlinecap
10.0 ML
N
521 253 M
516.54 253 L
S
GR
GS
[1 0 0 1 18 180] CT
0.149 GC
2 setlinecap
10.0 ML
N
521 227 M
516.54 227 L
S
GR
GS
[1 0 0 1 89 459] CT
0.149 GC
/Helvetica 10 F
GS
[1 0 0 1 0 0] CT
-18 2.5 moveto 
1 -1 scale
(-0.2) t 
GR
GR
GS
[1 0 0 1 89 433] CT
0.149 GC
/Helvetica 10 F
GS
[1 0 0 1 0 0] CT
-18 2.5 moveto 
1 -1 scale
(-0.1) t 
GR
GR
GS
[1 0 0 1 89 407] CT
0.149 GC
/Helvetica 10 F
GS
[1 0 0 1 0 0] CT
-6 2.5 moveto 
1 -1 scale
(0) t 
GR
GR
GS
[1 0 0 1 18 180] CT
0 0.447 0.741 RC
2 setlinecap
10.0 ML
N
75 227 M
77.23 227.013 L
79.46 227.028 L
81.69 227.042 L
83.92 227.057 L
86.15 227.072 L
88.38 227.089 L
90.61 227.107 L
92.84 227.127 L
95.07 227.149 L
97.3 227.173 L
99.53 227.199 L
101.76 227.227 L
103.99 227.258 L
106.22 227.293 L
108.45 227.331 L
110.68 227.372 L
112.91 227.417 L
115.14 227.467 L
117.37 227.521 L
119.6 227.58 L
121.83 227.645 L
124.06 227.715 L
126.29 227.791 L
128.52 227.873 L
130.75 227.962 L
132.98 228.059 L
135.21 228.194 L
137.44 228.338 L
139.67 228.492 L
141.9 228.656 L
144.13 228.831 L
146.36 229.019 L
148.59 229.219 L
150.82 229.433 L
153.05 229.663 L
155.28 229.908 L
157.51 230.172 L
159.74 230.453 L
161.97 230.755 L
164.2 231.077 L
166.43 231.424 L
168.66 231.792 L
170.89 232.189 L
173.12 232.612 L
175.35 233.066 L
177.58 233.549 L
179.81 234.07 L
182.04 234.622 L
184.27 235.216 L
S
GR
GS
[1 0 0 1 18 180] CT
0 0.447 0.741 RC
2 setlinecap
10.0 ML
N
184.27 235.216 M
186.5 235.847 L
188.73 236.526 L
190.96 237.246 L
193.19 238.02 L
195.42 238.841 L
197.65 239.303 L
199.88 239.745 L
202.11 240.248 L
204.34 240.733 L
206.57 241.28 L
208.8 241.811 L
211.03 242.403 L
213.26 242.982 L
215.49 243.622 L
217.72 244.253 L
219.95 244.945 L
222.18 245.629 L
224.41 246.375 L
226.64 247.117 L
228.87 247.921 L
231.1 248.722 L
233.33 249.588 L
235.56 250.452 L
237.79 251.382 L
240.02 252.314 L
242.25 253.313 L
244.48 254.315 L
246.71 255.386 L
248.94 256.457 L
251.17 257.574 L
253.4 258.681 L
255.63 259.811 L
257.86 260.922 L
260.09 262.034 L
262.32 263.115 L
264.55 264.176 L
266.78 265.197 L
269.01 266.174 L
271.24 267.1 L
273.47 267.961 L
275.7 268.76 L
277.93 269.471 L
280.16 270.115 L
282.39 270.672 L
284.62 271.163 L
286.85 271.569 L
289.08 271.91 L
291.31 272.166 L
293.54 272.357 L
S
GR
GS
[1 0 0 1 18 180] CT
0 0.447 0.741 RC
2 setlinecap
10.0 ML
N
293.54 272.357 M
295.77 272.464 L
298 272.506 L
300.23 272.464 L
302.46 272.358 L
304.69 272.167 L
306.92 271.911 L
309.15 271.571 L
311.38 271.165 L
313.61 270.674 L
315.84 270.117 L
318.07 269.474 L
320.3 268.763 L
322.53 267.965 L
324.76 267.104 L
326.99 266.179 L
329.22 265.201 L
331.45 264.182 L
333.68 263.121 L
335.91 262.04 L
338.14 260.928 L
340.37 259.818 L
342.6 258.687 L
344.83 257.581 L
347.06 256.464 L
349.29 255.394 L
351.52 254.323 L
353.75 253.322 L
355.98 252.323 L
358.21 251.392 L
360.44 250.462 L
362.67 249.598 L
364.9 248.733 L
367.13 247.932 L
369.36 247.128 L
371.59 246.388 L
373.82 245.641 L
376.05 244.958 L
378.28 244.266 L
380.51 243.636 L
382.74 242.995 L
384.97 242.418 L
387.2 241.825 L
389.43 241.295 L
391.66 240.749 L
393.89 240.265 L
396.12 239.761 L
398.35 239.321 L
400.58 238.858 L
402.81 238.013 L
S
GR
GS
[1 0 0 1 18 180] CT
0 0.447 0.741 RC
2 setlinecap
10.0 ML
N
402.81 238.013 M
405.04 237.22 L
407.27 236.482 L
409.5 235.789 L
411.73 235.146 L
413.96 234.542 L
416.19 233.981 L
418.42 233.455 L
420.65 232.966 L
422.88 232.509 L
425.11 232.084 L
427.34 231.686 L
429.57 231.317 L
431.8 230.972 L
434.03 230.651 L
436.26 230.351 L
438.49 230.072 L
440.72 229.813 L
442.95 229.571 L
445.18 229.345 L
447.41 229.135 L
449.64 228.939 L
451.87 228.756 L
454.1 228.586 L
456.33 228.426 L
458.56 228.278 L
460.79 228.138 L
463.02 228.008 L
465.25 227.93 L
467.48 227.856 L
469.71 227.788 L
471.94 227.723 L
474.17 227.663 L
476.4 227.607 L
478.63 227.555 L
480.86 227.506 L
483.09 227.461 L
485.32 227.418 L
487.55 227.379 L
489.78 227.342 L
492.01 227.308 L
494.24 227.275 L
496.47 227.245 L
498.7 227.217 L
500.93 227.191 L
503.16 227.166 L
505.39 227.142 L
507.62 227.12 L
509.85 227.098 L
512.08 227.078 L
S
GR
GS
[1 0 0 1 18 180] CT
0 0.447 0.741 RC
2 setlinecap
10.0 ML
N
512.08 227.078 M
514.31 227.058 L
516.54 227.038 L
518.77 227.019 L
521 227 L
S
GR
GS
[1 0 0 1 316.00031 404.25] CT
/Helvetica-Bold 11 F
GS
[1 0 0 1 0 0] CT
-179 -3 moveto 
1 -1 scale
(ex-RBoptim-pDose-constMat of moment order - 0# of moment order - ) t 
GR
GR
GS
[1 0 0 1 18 180] CT
1 GC
N
75 374 M
521 374 L
521 322 L
75 322 L
cp
f
GR
GS
[1 0 0 1 316.00021 570] CT
0.149 GC
/Helvetica 11 F
GS
[1 0 0 1 0 0] CT
-3 9 moveto 
1 -1 scale
(x) t 
GR
GR
GS
[1 0 0 1 18 180] CT
0.149 GC
2 setlinecap
10.0 ML
N
75 374 M
521 374 L
S
GR
GS
[1 0 0 1 18 180] CT
0.149 GC
2 setlinecap
10.0 ML
N
75 322 M
521 322 L
S
GR
GS
[1 0 0 1 18 180] CT
0.149 GC
2 setlinecap
10.0 ML
N
75 374 M
75 369.54 L
S
GR
GS
[1 0 0 1 18 180] CT
0.149 GC
2 setlinecap
10.0 ML
N
119.6 374 M
119.6 369.54 L
S
GR
GS
[1 0 0 1 18 180] CT
0.149 GC
2 setlinecap
10.0 ML
N
164.2 374 M
164.2 369.54 L
S
GR
GS
[1 0 0 1 18 180] CT
0.149 GC
2 setlinecap
10.0 ML
N
208.8 374 M
208.8 369.54 L
S
GR
GS
[1 0 0 1 18 180] CT
0.149 GC
2 setlinecap
10.0 ML
N
253.4 374 M
253.4 369.54 L
S
GR
GS
[1 0 0 1 18 180] CT
0.149 GC
2 setlinecap
10.0 ML
N
298 374 M
298 369.54 L
S
GR
GS
[1 0 0 1 18 180] CT
0.149 GC
2 setlinecap
10.0 ML
N
342.6 374 M
342.6 369.54 L
S
GR
GS
[1 0 0 1 18 180] CT
0.149 GC
2 setlinecap
10.0 ML
N
387.2 374 M
387.2 369.54 L
S
GR
GS
[1 0 0 1 18 180] CT
0.149 GC
2 setlinecap
10.0 ML
N
431.8 374 M
431.8 369.54 L
S
GR
GS
[1 0 0 1 18 180] CT
0.149 GC
2 setlinecap
10.0 ML
N
476.4 374 M
476.4 369.54 L
S
GR
GS
[1 0 0 1 18 180] CT
0.149 GC
2 setlinecap
10.0 ML
N
521 374 M
521 369.54 L
S
GR
GS
[1 0 0 1 18 180] CT
0.149 GC
2 setlinecap
10.0 ML
N
75 322 M
75 326.46 L
S
GR
GS
[1 0 0 1 18 180] CT
0.149 GC
2 setlinecap
10.0 ML
N
119.6 322 M
119.6 326.46 L
S
GR
GS
[1 0 0 1 18 180] CT
0.149 GC
2 setlinecap
10.0 ML
N
164.2 322 M
164.2 326.46 L
S
GR
GS
[1 0 0 1 18 180] CT
0.149 GC
2 setlinecap
10.0 ML
N
208.8 322 M
208.8 326.46 L
S
GR
GS
[1 0 0 1 18 180] CT
0.149 GC
2 setlinecap
10.0 ML
N
253.4 322 M
253.4 326.46 L
S
GR
GS
[1 0 0 1 18 180] CT
0.149 GC
2 setlinecap
10.0 ML
N
298 322 M
298 326.46 L
S
GR
GS
[1 0 0 1 18 180] CT
0.149 GC
2 setlinecap
10.0 ML
N
342.6 322 M
342.6 326.46 L
S
GR
GS
[1 0 0 1 18 180] CT
0.149 GC
2 setlinecap
10.0 ML
N
387.2 322 M
387.2 326.46 L
S
GR
GS
[1 0 0 1 18 180] CT
0.149 GC
2 setlinecap
10.0 ML
N
431.8 322 M
431.8 326.46 L
S
GR
GS
[1 0 0 1 18 180] CT
0.149 GC
2 setlinecap
10.0 ML
N
476.4 322 M
476.4 326.46 L
S
GR
GS
[1 0 0 1 18 180] CT
0.149 GC
2 setlinecap
10.0 ML
N
521 322 M
521 326.46 L
S
GR
GS
[1 0 0 1 93 558] CT
0.149 GC
/Helvetica 10 F
GS
[1 0 0 1 0 0] CT
-3 8 moveto 
1 -1 scale
(0) t 
GR
GR
GS
[1 0 0 1 137.6 558] CT
0.149 GC
/Helvetica 10 F
GS
[1 0 0 1 0 0] CT
-7 8 moveto 
1 -1 scale
(0.1) t 
GR
GR
GS
[1 0 0 1 182.2 558] CT
0.149 GC
/Helvetica 10 F
GS
[1 0 0 1 0 0] CT
-7 8 moveto 
1 -1 scale
(0.2) t 
GR
GR
GS
[1 0 0 1 226.8 558] CT
0.149 GC
/Helvetica 10 F
GS
[1 0 0 1 0 0] CT
-7 8 moveto 
1 -1 scale
(0.3) t 
GR
GR
GS
[1 0 0 1 271.40001 558] CT
0.149 GC
/Helvetica 10 F
GS
[1 0 0 1 0 0] CT
-7 8 moveto 
1 -1 scale
(0.4) t 
GR
GR
GS
[1 0 0 1 316 558] CT
0.149 GC
/Helvetica 10 F
GS
[1 0 0 1 0 0] CT
-7 8 moveto 
1 -1 scale
(0.5) t 
GR
GR
GS
[1 0 0 1 360.60001 558] CT
0.149 GC
/Helvetica 10 F
GS
[1 0 0 1 0 0] CT
-7 8 moveto 
1 -1 scale
(0.6) t 
GR
GR
GS
[1 0 0 1 405.19998 558] CT
0.149 GC
/Helvetica 10 F
GS
[1 0 0 1 0 0] CT
-7 8 moveto 
1 -1 scale
(0.7) t 
GR
GR
GS
[1 0 0 1 449.80002 558] CT
0.149 GC
/Helvetica 10 F
GS
[1 0 0 1 0 0] CT
-7 8 moveto 
1 -1 scale
(0.8) t 
GR
GR
GS
[1 0 0 1 494.39999 558] CT
0.149 GC
/Helvetica 10 F
GS
[1 0 0 1 0 0] CT
-7 8 moveto 
1 -1 scale
(0.9) t 
GR
GR
GS
[1 0 0 1 539 558] CT
0.149 GC
/Helvetica 10 F
GS
[1 0 0 1 0 0] CT
-3 8 moveto 
1 -1 scale
(1) t 
GR
GR
GS
[0 -1 1 0 72 527.99997] CT
0.149 GC
/Helvetica 11 F
GS
[1 0 0 1 0 0] CT
-37 -3 moveto 
1 -1 scale
(Optimal source) t 
GR
GR
GS
[1 0 0 1 18 180] CT
0.149 GC
2 setlinecap
10.0 ML
N
75 374 M
75 322 L
S
GR
GS
[1 0 0 1 18 180] CT
0.149 GC
2 setlinecap
10.0 ML
N
521 374 M
521 322 L
S
GR
GS
[1 0 0 1 18 180] CT
0.149 GC
2 setlinecap
10.0 ML
N
75 374 M
79.46 374 L
S
GR
GS
[1 0 0 1 18 180] CT
0.149 GC
2 setlinecap
10.0 ML
N
75 348 M
79.46 348 L
S
GR
GS
[1 0 0 1 18 180] CT
0.149 GC
2 setlinecap
10.0 ML
N
75 322 M
79.46 322 L
S
GR
GS
[1 0 0 1 18 180] CT
0.149 GC
2 setlinecap
10.0 ML
N
521 374 M
516.54 374 L
S
GR
GS
[1 0 0 1 18 180] CT
0.149 GC
2 setlinecap
10.0 ML
N
521 348 M
516.54 348 L
S
GR
GS
[1 0 0 1 18 180] CT
0.149 GC
2 setlinecap
10.0 ML
N
521 322 M
516.54 322 L
S
GR
GS
[1 0 0 1 89 554] CT
0.149 GC
/Helvetica 10 F
GS
[1 0 0 1 0 0] CT
-6 2.5 moveto 
1 -1 scale
(0) t 
GR
GR
GS
[1 0 0 1 89 528] CT
0.149 GC
/Helvetica 10 F
GS
[1 0 0 1 0 0] CT
-14 2.5 moveto 
1 -1 scale
(0.1) t 
GR
GR
GS
[1 0 0 1 89 502] CT
0.149 GC
/Helvetica 10 F
GS
[1 0 0 1 0 0] CT
-14 2.5 moveto 
1 -1 scale
(0.2) t 
GR
GR
GS
[1 0 0 1 18 180] CT
0 0.447 0.741 RC
2 setlinecap
10.0 ML
N
75 374 M
77.23 373.987 L
79.46 373.972 L
81.69 373.958 L
83.92 373.943 L
86.15 373.928 L
88.38 373.911 L
90.61 373.893 L
92.84 373.873 L
95.07 373.851 L
97.3 373.827 L
99.53 373.801 L
101.76 373.773 L
103.99 373.742 L
106.22 373.707 L
108.45 373.669 L
110.68 373.628 L
112.91 373.583 L
115.14 373.533 L
117.37 373.479 L
119.6 373.42 L
121.83 373.355 L
124.06 373.285 L
126.29 373.209 L
128.52 373.127 L
130.75 373.038 L
132.98 372.941 L
135.21 372.806 L
137.44 372.662 L
139.67 372.508 L
141.9 372.344 L
144.13 372.169 L
146.36 371.981 L
148.59 371.781 L
150.82 371.567 L
153.05 371.337 L
155.28 371.092 L
157.51 370.828 L
159.74 370.547 L
161.97 370.245 L
164.2 369.923 L
166.43 369.576 L
168.66 369.208 L
170.89 368.81 L
173.12 368.388 L
175.35 367.934 L
177.58 367.451 L
179.81 366.93 L
182.04 366.378 L
184.27 365.784 L
S
GR
GS
[1 0 0 1 18 180] CT
0 0.447 0.741 RC
2 setlinecap
10.0 ML
N
184.27 365.784 M
186.5 365.153 L
188.73 364.474 L
190.96 363.754 L
193.19 362.98 L
195.42 362.159 L
197.65 361.697 L
199.88 361.255 L
202.11 360.752 L
204.34 360.267 L
206.57 359.72 L
208.8 359.189 L
211.03 358.597 L
213.26 358.018 L
215.49 357.378 L
217.72 356.747 L
219.95 356.055 L
222.18 355.371 L
224.41 354.625 L
226.64 353.883 L
228.87 353.079 L
231.1 352.278 L
233.33 351.412 L
235.56 350.548 L
237.79 349.618 L
240.02 348.686 L
242.25 347.687 L
244.48 346.685 L
246.71 345.614 L
248.94 344.543 L
251.17 343.426 L
253.4 342.319 L
255.63 341.189 L
257.86 340.078 L
260.09 338.966 L
262.32 337.885 L
264.55 336.824 L
266.78 335.803 L
269.01 334.826 L
271.24 333.9 L
273.47 333.039 L
275.7 332.24 L
277.93 331.529 L
280.16 330.885 L
282.39 330.328 L
284.62 329.837 L
286.85 329.431 L
289.08 329.09 L
291.31 328.834 L
293.54 328.643 L
S
GR
GS
[1 0 0 1 18 180] CT
0 0.447 0.741 RC
2 setlinecap
10.0 ML
N
293.54 328.643 M
295.77 328.536 L
298 328.494 L
300.23 328.536 L
302.46 328.642 L
304.69 328.833 L
306.92 329.089 L
309.15 329.429 L
311.38 329.835 L
313.61 330.326 L
315.84 330.883 L
318.07 331.526 L
320.3 332.237 L
322.53 333.035 L
324.76 333.896 L
326.99 334.821 L
329.22 335.799 L
331.45 336.818 L
333.68 337.879 L
335.91 338.96 L
338.14 340.072 L
340.37 341.182 L
342.6 342.313 L
344.83 343.419 L
347.06 344.536 L
349.29 345.606 L
351.52 346.677 L
353.75 347.678 L
355.98 348.677 L
358.21 349.608 L
360.44 350.538 L
362.67 351.402 L
364.9 352.267 L
367.13 353.068 L
369.36 353.872 L
371.59 354.612 L
373.82 355.359 L
376.05 356.042 L
378.28 356.734 L
380.51 357.364 L
382.74 358.005 L
384.97 358.582 L
387.2 359.175 L
389.43 359.705 L
391.66 360.251 L
393.89 360.735 L
396.12 361.239 L
398.35 361.679 L
400.58 362.142 L
402.81 362.987 L
S
GR
GS
[1 0 0 1 18 180] CT
0 0.447 0.741 RC
2 setlinecap
10.0 ML
N
402.81 362.987 M
405.04 363.78 L
407.27 364.518 L
409.5 365.211 L
411.73 365.854 L
413.96 366.458 L
416.19 367.019 L
418.42 367.545 L
420.65 368.034 L
422.88 368.491 L
425.11 368.916 L
427.34 369.314 L
429.57 369.683 L
431.8 370.028 L
434.03 370.349 L
436.26 370.649 L
438.49 370.928 L
440.72 371.187 L
442.95 371.429 L
445.18 371.655 L
447.41 371.865 L
449.64 372.061 L
451.87 372.244 L
454.1 372.414 L
456.33 372.574 L
458.56 372.722 L
460.79 372.862 L
463.02 372.992 L
465.25 373.07 L
467.48 373.144 L
469.71 373.212 L
471.94 373.277 L
474.17 373.337 L
476.4 373.393 L
478.63 373.445 L
480.86 373.494 L
483.09 373.539 L
485.32 373.582 L
487.55 373.621 L
489.78 373.658 L
492.01 373.692 L
494.24 373.725 L
496.47 373.755 L
498.7 373.783 L
500.93 373.809 L
503.16 373.834 L
505.39 373.858 L
507.62 373.88 L
509.85 373.902 L
512.08 373.922 L
S
GR
GS
[1 0 0 1 18 180] CT
0 0.447 0.741 RC
2 setlinecap
10.0 ML
N
512.08 373.922 M
514.31 373.942 L
516.54 373.962 L
518.77 373.981 L
521 374 L
S
GR
GS
[1 0 0 1 316.00031 499.25] CT
/Helvetica-Bold 11 F
GS
[1 0 0 1 0 0] CT
-179 -3 moveto 
1 -1 scale
(ex-RBoptim-pDose-constMat of moment order - 0# of moment order - ) t 
GR
GR
showpage
%%Trailer
%%BoundingBox: 54 210 541 589
%%Pages: 1
%%EOF
