%!PS-Adobe-3.0 EPSF-3.0
%%Creator: (MATLAB, The Mathworks, Inc. Version 8.5.0.197613 \(R2015a\). Operating System: Mac OS X)
%%Title: ./distance_mean_p13.eps
%%CreationDate: 2015-06-01T15:54:45
%%Pages: (atend)
%%BoundingBox: (atend)
%%LanguageLevel: 3
%%EndComments
%%BeginProlog
%%BeginResource: procset (Apache XML Graphics Std ProcSet) 1.2 0
%%Version: 1.2 0
%%Copyright: (Copyright 2001-2003,2010 The Apache Software Foundation. License terms: http://www.apache.org/licenses/LICENSE-2.0)
/bd{bind def}bind def
/ld{load def}bd
/GR/grestore ld
/M/moveto ld
/LJ/setlinejoin ld
/C/curveto ld
/f/fill ld
/LW/setlinewidth ld
/GC/setgray ld
/t/show ld
/N/newpath ld
/CT/concat ld
/cp/closepath ld
/S/stroke ld
/L/lineto ld
/CC/setcmykcolor ld
/A/ashow ld
/GS/gsave ld
/RC/setrgbcolor ld
/RM/rmoveto ld
/ML/setmiterlimit ld
/re {4 2 roll M
1 index 0 rlineto
0 exch rlineto
neg 0 rlineto
cp } bd
/_ctm matrix def
/_tm matrix def
/BT { _ctm currentmatrix pop matrix _tm copy pop 0 0 moveto } bd
/ET { _ctm setmatrix } bd
/iTm { _ctm setmatrix _tm concat } bd
/Tm { _tm astore pop iTm 0 0 moveto } bd
/ux 0.0 def
/uy 0.0 def
/F {
  /Tp exch def
  /Tf exch def
  Tf findfont Tp scalefont setfont
  /cf Tf def  /cs Tp def
} bd
/ULS {currentpoint /uy exch def /ux exch def} bd
/ULE {
  /Tcx currentpoint pop def
  gsave
  newpath
  cf findfont cs scalefont dup
  /FontMatrix get 0 get /Ts exch def /FontInfo get dup
  /UnderlinePosition get Ts mul /To exch def
  /UnderlineThickness get Ts mul /Tt exch def
  ux uy To add moveto  Tcx uy To add lineto
  Tt setlinewidth stroke
  grestore
} bd
/OLE {
  /Tcx currentpoint pop def
  gsave
  newpath
  cf findfont cs scalefont dup
  /FontMatrix get 0 get /Ts exch def /FontInfo get dup
  /UnderlinePosition get Ts mul /To exch def
  /UnderlineThickness get Ts mul /Tt exch def
  ux uy To add cs add moveto Tcx uy To add cs add lineto
  Tt setlinewidth stroke
  grestore
} bd
/SOE {
  /Tcx currentpoint pop def
  gsave
  newpath
  cf findfont cs scalefont dup
  /FontMatrix get 0 get /Ts exch def /FontInfo get dup
  /UnderlinePosition get Ts mul /To exch def
  /UnderlineThickness get Ts mul /Tt exch def
  ux uy To add cs 10 mul 26 idiv add moveto Tcx uy To add cs 10 mul 26 idiv add lineto
  Tt setlinewidth stroke
  grestore
} bd
/QT {
/Y22 exch store
/X22 exch store
/Y21 exch store
/X21 exch store
currentpoint
/Y21 load 2 mul add 3 div exch
/X21 load 2 mul add 3 div exch
/X21 load 2 mul /X22 load add 3 div
/Y21 load 2 mul /Y22 load add 3 div
/X22 load /Y22 load curveto
} bd
/SSPD {
dup length /d exch dict def
{
/v exch def
/k exch def
currentpagedevice k known {
/cpdv currentpagedevice k get def
v cpdv ne {
/upd false def
/nullv v type /nulltype eq def
/nullcpdv cpdv type /nulltype eq def
nullv nullcpdv or
{
/upd true def
} {
/sametype v type cpdv type eq def
sametype {
v type /arraytype eq {
/vlen v length def
/cpdvlen cpdv length def
vlen cpdvlen eq {
0 1 vlen 1 sub {
/i exch def
/obj v i get def
/cpdobj cpdv i get def
obj cpdobj ne {
/upd true def
exit
} if
} for
} {
/upd true def
} ifelse
} {
v type /dicttype eq {
v {
/dv exch def
/dk exch def
/cpddv cpdv dk get def
dv cpddv ne {
/upd true def
exit
} if
} forall
} {
/upd true def
} ifelse
} ifelse
} if
} ifelse
upd true eq {
d k v put
} if
} if
} if
} forall
d length 0 gt {
d setpagedevice
} if
} bd
%%EndResource
%%BeginResource: procset (Apache XML Graphics EPS ProcSet) 1.0 0
%%Version: 1.0 0
%%Copyright: (Copyright 2002-2003 The Apache Software Foundation. License terms: http://www.apache.org/licenses/LICENSE-2.0)
/BeginEPSF { %def
/b4_Inc_state save def         % Save state for cleanup
/dict_count countdictstack def % Count objects on dict stack
/op_count count 1 sub def      % Count objects on operand stack
userdict begin                 % Push userdict on dict stack
/showpage { } def              % Redefine showpage, { } = null proc
0 setgray 0 setlinecap         % Prepare graphics state
1 setlinewidth 0 setlinejoin
10 setmiterlimit [ ] 0 setdash newpath
/languagelevel where           % If level not equal to 1 then
{pop languagelevel             % set strokeadjust and
1 ne                           % overprint to their defaults.
{false setstrokeadjust false setoverprint
} if
} if
} bd
/EndEPSF { %def
count op_count sub {pop} repeat            % Clean up stacks
countdictstack dict_count sub {end} repeat
b4_Inc_state restore
} bd
%%EndResource
%FOPBeginFontDict
%%IncludeResource: font Courier-Bold
%%IncludeResource: font Helvetica
%%IncludeResource: font Courier-BoldOblique
%%IncludeResource: font Courier-Oblique
%%IncludeResource: font Times-Roman
%%IncludeResource: font Helvetica-BoldOblique
%%IncludeResource: font Helvetica-Bold
%%IncludeResource: font Helvetica-Oblique
%%IncludeResource: font Times-BoldItalic
%%IncludeResource: font Courier
%%IncludeResource: font Times-Italic
%%IncludeResource: font Times-Bold
%%IncludeResource: font Symbol
%%IncludeResource: font ZapfDingbats
%FOPEndFontDict
%%BeginResource: encoding WinAnsiEncoding
/WinAnsiEncoding [
/.notdef /.notdef /.notdef /.notdef /.notdef
/.notdef /.notdef /.notdef /.notdef /.notdef
/.notdef /.notdef /.notdef /.notdef /.notdef
/.notdef /.notdef /.notdef /.notdef /.notdef
/.notdef /.notdef /.notdef /.notdef /.notdef
/.notdef /.notdef /.notdef /.notdef /.notdef
/.notdef /.notdef /space /exclam /quotedbl
/numbersign /dollar /percent /ampersand /quotesingle
/parenleft /parenright /asterisk /plus /comma
/hyphen /period /slash /zero /one
/two /three /four /five /six
/seven /eight /nine /colon /semicolon
/less /equal /greater /question /at
/A /B /C /D /E
/F /G /H /I /J
/K /L /M /N /O
/P /Q /R /S /T
/U /V /W /X /Y
/Z /bracketleft /backslash /bracketright /asciicircum
/underscore /quoteleft /a /b /c
/d /e /f /g /h
/i /j /k /l /m
/n /o /p /q /r
/s /t /u /v /w
/x /y /z /braceleft /bar
/braceright /asciitilde /bullet /Euro /bullet
/quotesinglbase /florin /quotedblbase /ellipsis /dagger
/daggerdbl /circumflex /perthousand /Scaron /guilsinglleft
/OE /bullet /Zcaron /bullet /bullet
/quoteleft /quoteright /quotedblleft /quotedblright /bullet
/endash /emdash /asciitilde /trademark /scaron
/guilsinglright /oe /bullet /zcaron /Ydieresis
/space /exclamdown /cent /sterling /currency
/yen /brokenbar /section /dieresis /copyright
/ordfeminine /guillemotleft /logicalnot /sfthyphen /registered
/macron /degree /plusminus /twosuperior /threesuperior
/acute /mu /paragraph /middot /cedilla
/onesuperior /ordmasculine /guillemotright /onequarter /onehalf
/threequarters /questiondown /Agrave /Aacute /Acircumflex
/Atilde /Adieresis /Aring /AE /Ccedilla
/Egrave /Eacute /Ecircumflex /Edieresis /Igrave
/Iacute /Icircumflex /Idieresis /Eth /Ntilde
/Ograve /Oacute /Ocircumflex /Otilde /Odieresis
/multiply /Oslash /Ugrave /Uacute /Ucircumflex
/Udieresis /Yacute /Thorn /germandbls /agrave
/aacute /acircumflex /atilde /adieresis /aring
/ae /ccedilla /egrave /eacute /ecircumflex
/edieresis /igrave /iacute /icircumflex /idieresis
/eth /ntilde /ograve /oacute /ocircumflex
/otilde /odieresis /divide /oslash /ugrave
/uacute /ucircumflex /udieresis /yacute /thorn
/ydieresis
] def
%%EndResource
%FOPBeginFontReencode
/Courier-Bold findfont
dup length dict begin
  {1 index /FID ne {def} {pop pop} ifelse} forall
  /Encoding WinAnsiEncoding def
  currentdict
end
/Courier-Bold exch definefont pop
/Helvetica findfont
dup length dict begin
  {1 index /FID ne {def} {pop pop} ifelse} forall
  /Encoding WinAnsiEncoding def
  currentdict
end
/Helvetica exch definefont pop
/Courier-BoldOblique findfont
dup length dict begin
  {1 index /FID ne {def} {pop pop} ifelse} forall
  /Encoding WinAnsiEncoding def
  currentdict
end
/Courier-BoldOblique exch definefont pop
/Courier-Oblique findfont
dup length dict begin
  {1 index /FID ne {def} {pop pop} ifelse} forall
  /Encoding WinAnsiEncoding def
  currentdict
end
/Courier-Oblique exch definefont pop
/Times-Roman findfont
dup length dict begin
  {1 index /FID ne {def} {pop pop} ifelse} forall
  /Encoding WinAnsiEncoding def
  currentdict
end
/Times-Roman exch definefont pop
/Helvetica-BoldOblique findfont
dup length dict begin
  {1 index /FID ne {def} {pop pop} ifelse} forall
  /Encoding WinAnsiEncoding def
  currentdict
end
/Helvetica-BoldOblique exch definefont pop
/Helvetica-Bold findfont
dup length dict begin
  {1 index /FID ne {def} {pop pop} ifelse} forall
  /Encoding WinAnsiEncoding def
  currentdict
end
/Helvetica-Bold exch definefont pop
/Helvetica-Oblique findfont
dup length dict begin
  {1 index /FID ne {def} {pop pop} ifelse} forall
  /Encoding WinAnsiEncoding def
  currentdict
end
/Helvetica-Oblique exch definefont pop
/Times-BoldItalic findfont
dup length dict begin
  {1 index /FID ne {def} {pop pop} ifelse} forall
  /Encoding WinAnsiEncoding def
  currentdict
end
/Times-BoldItalic exch definefont pop
/Courier findfont
dup length dict begin
  {1 index /FID ne {def} {pop pop} ifelse} forall
  /Encoding WinAnsiEncoding def
  currentdict
end
/Courier exch definefont pop
/Times-Italic findfont
dup length dict begin
  {1 index /FID ne {def} {pop pop} ifelse} forall
  /Encoding WinAnsiEncoding def
  currentdict
end
/Times-Italic exch definefont pop
/Times-Bold findfont
dup length dict begin
  {1 index /FID ne {def} {pop pop} ifelse} forall
  /Encoding WinAnsiEncoding def
  currentdict
end
/Times-Bold exch definefont pop
%FOPEndFontReencode
%%EndProlog
%%Page: 1 1
%%PageBoundingBox: 0 0 576 432
%%BeginPageSetup
[1 0 0 -1 0 432] CT
%%EndPageSetup
GS
1 GC
N
0 0 576 432 re
f
GR
GS
1 GC
N
0 0 576 432 re
f
GR
GS
1 GC
N
79 384 M
521 384 L
521 32 L
79 32 L
cp
f
GR
GS
[1 0 0 1 300.00021 409.79999] CT
0.149 GC
/Helvetica 21 F
GS
[1 0 0 1 0 0] CT
-41.5 17 moveto 
1 -1 scale
(Variance) t 
GR
GR
GS
0.149 GC
2 setlinecap
10.0 ML
N
79 384 M
521 384 L
S
GR
GS
0.149 GC
2 setlinecap
10.0 ML
N
79 32 M
521 32 L
S
GR
GS
0.149 GC
2 setlinecap
10.0 ML
N
79 384 M
79 379.58 L
S
GR
GS
0.149 GC
2 setlinecap
10.0 ML
N
152.667 384 M
152.667 379.58 L
S
GR
GS
0.149 GC
2 setlinecap
10.0 ML
N
226.333 384 M
226.333 379.58 L
S
GR
GS
0.149 GC
2 setlinecap
10.0 ML
N
300 384 M
300 379.58 L
S
GR
GS
0.149 GC
2 setlinecap
10.0 ML
N
373.667 384 M
373.667 379.58 L
S
GR
GS
0.149 GC
2 setlinecap
10.0 ML
N
447.333 384 M
447.333 379.58 L
S
GR
GS
0.149 GC
2 setlinecap
10.0 ML
N
521 384 M
521 379.58 L
S
GR
GS
0.149 GC
2 setlinecap
10.0 ML
N
79 32 M
79 36.42 L
S
GR
GS
0.149 GC
2 setlinecap
10.0 ML
N
152.667 32 M
152.667 36.42 L
S
GR
GS
0.149 GC
2 setlinecap
10.0 ML
N
226.333 32 M
226.333 36.42 L
S
GR
GS
0.149 GC
2 setlinecap
10.0 ML
N
300 32 M
300 36.42 L
S
GR
GS
0.149 GC
2 setlinecap
10.0 ML
N
373.667 32 M
373.667 36.42 L
S
GR
GS
0.149 GC
2 setlinecap
10.0 ML
N
447.333 32 M
447.333 36.42 L
S
GR
GS
0.149 GC
2 setlinecap
10.0 ML
N
521 32 M
521 36.42 L
S
GR
GS
[1 0 0 1 78.99999 389.79999] CT
0.149 GC
/Helvetica 19 F
GS
[1 0 0 1 0 0] CT
-18.5 15 moveto 
1 -1 scale
(0.02) t 
GR
GR
GS
[1 0 0 1 152.66667 389.79999] CT
0.149 GC
/Helvetica 19 F
GS
[1 0 0 1 0 0] CT
-24 15 moveto 
1 -1 scale
(0.025) t 
GR
GR
GS
[1 0 0 1 226.33333 389.79999] CT
0.149 GC
/Helvetica 19 F
GS
[1 0 0 1 0 0] CT
-18.5 15 moveto 
1 -1 scale
(0.03) t 
GR
GR
GS
[1 0 0 1 300 389.79999] CT
0.149 GC
/Helvetica 19 F
GS
[1 0 0 1 0 0] CT
-24 15 moveto 
1 -1 scale
(0.035) t 
GR
GR
GS
[1 0 0 1 373.66666 389.79999] CT
0.149 GC
/Helvetica 19 F
GS
[1 0 0 1 0 0] CT
-18.5 15 moveto 
1 -1 scale
(0.04) t 
GR
GR
GS
[1 0 0 1 447.33337 389.79999] CT
0.149 GC
/Helvetica 19 F
GS
[1 0 0 1 0 0] CT
-24 15 moveto 
1 -1 scale
(0.045) t 
GR
GR
GS
[1 0 0 1 521 389.79999] CT
0.149 GC
/Helvetica 19 F
GS
[1 0 0 1 0 0] CT
-18.5 15 moveto 
1 -1 scale
(0.05) t 
GR
GR
GS
[0 -1 1 0 22.19999 207.99983] CT
0.149 GC
/Helvetica 21 F
GS
[1 0 0 1 0 0] CT
-153 -5 moveto 
1 -1 scale
(Difference from the mean control) t 
GR
GR
GS
0.149 GC
2 setlinecap
10.0 ML
N
79 384 M
79 32 L
S
GR
GS
0.149 GC
2 setlinecap
10.0 ML
N
521 384 M
521 32 L
S
GR
GS
0.149 GC
2 setlinecap
10.0 ML
N
79 384 M
83.42 384 L
S
GR
GS
0.149 GC
2 setlinecap
10.0 ML
N
79 333.714 M
83.42 333.714 L
S
GR
GS
0.149 GC
2 setlinecap
10.0 ML
N
79 283.429 M
83.42 283.429 L
S
GR
GS
0.149 GC
2 setlinecap
10.0 ML
N
79 233.143 M
83.42 233.143 L
S
GR
GS
0.149 GC
2 setlinecap
10.0 ML
N
79 182.857 M
83.42 182.857 L
S
GR
GS
0.149 GC
2 setlinecap
10.0 ML
N
79 132.571 M
83.42 132.571 L
S
GR
GS
0.149 GC
2 setlinecap
10.0 ML
N
79 82.286 M
83.42 82.286 L
S
GR
GS
0.149 GC
2 setlinecap
10.0 ML
N
79 32 M
83.42 32 L
S
GR
GS
0.149 GC
2 setlinecap
10.0 ML
N
521 384 M
516.58 384 L
S
GR
GS
0.149 GC
2 setlinecap
10.0 ML
N
521 333.714 M
516.58 333.714 L
S
GR
GS
0.149 GC
2 setlinecap
10.0 ML
N
521 283.429 M
516.58 283.429 L
S
GR
GS
0.149 GC
2 setlinecap
10.0 ML
N
521 233.143 M
516.58 233.143 L
S
GR
GS
0.149 GC
2 setlinecap
10.0 ML
N
521 182.857 M
516.58 182.857 L
S
GR
GS
0.149 GC
2 setlinecap
10.0 ML
N
521 132.571 M
516.58 132.571 L
S
GR
GS
0.149 GC
2 setlinecap
10.0 ML
N
521 82.286 M
516.58 82.286 L
S
GR
GS
0.149 GC
2 setlinecap
10.0 ML
N
521 32 M
516.58 32 L
S
GR
GS
[1 0 0 1 73.2 384] CT
0.149 GC
/Helvetica 19 F
GS
[1 0 0 1 0 0] CT
-11 5 moveto 
1 -1 scale
(0) t 
GR
GR
GS
[1 0 0 1 73.2 333.71429] CT
0.149 GC
/Helvetica 19 F
GS
[1 0 0 1 0 0] CT
-48 5 moveto 
1 -1 scale
(0.002) t 
GR
GR
GS
[1 0 0 1 73.2 283.42856] CT
0.149 GC
/Helvetica 19 F
GS
[1 0 0 1 0 0] CT
-48 5 moveto 
1 -1 scale
(0.004) t 
GR
GR
GS
[1 0 0 1 73.2 233.14285] CT
0.149 GC
/Helvetica 19 F
GS
[1 0 0 1 0 0] CT
-48 5 moveto 
1 -1 scale
(0.006) t 
GR
GR
GS
[1 0 0 1 73.2 182.85713] CT
0.149 GC
/Helvetica 19 F
GS
[1 0 0 1 0 0] CT
-48 5 moveto 
1 -1 scale
(0.008) t 
GR
GR
GS
[1 0 0 1 73.2 132.57144] CT
0.149 GC
/Helvetica 19 F
GS
[1 0 0 1 0 0] CT
-37 5 moveto 
1 -1 scale
(0.01) t 
GR
GR
GS
[1 0 0 1 73.2 82.28571] CT
0.149 GC
/Helvetica 19 F
GS
[1 0 0 1 0 0] CT
-48 5 moveto 
1 -1 scale
(0.012) t 
GR
GR
GS
[1 0 0 1 73.2 31.99999] CT
0.149 GC
/Helvetica 19 F
GS
[1 0 0 1 0 0] CT
-48 5 moveto 
1 -1 scale
(0.014) t 
GR
GR
GS
1 0 0 RC
2 setlinecap
10.0 ML
N
79 306.652 M
226.333 238.936 L
373.667 152.879 L
521 55.708 L
S
GR
GS
1 0 0 RC
2 setlinecap
10.0 ML
N
75 306.5 M
82 306.5 L
S
GR
GS
1 0 0 RC
2 setlinecap
10.0 ML
N
78.5 310 M
78.5 303 L
S
GR
GS
1 0 0 RC
2 setlinecap
10.0 ML
N
76 309 M
81 304 L
S
GR
GS
1 0 0 RC
2 setlinecap
10.0 ML
N
76 304 M
81 309 L
S
GR
GS
1 0 0 RC
2 setlinecap
10.0 ML
N
223 238.5 M
230 238.5 L
S
GR
GS
1 0 0 RC
2 setlinecap
10.0 ML
N
226.5 242 M
226.5 235 L
S
GR
GS
1 0 0 RC
2 setlinecap
10.0 ML
N
224 241 M
229 236 L
S
GR
GS
1 0 0 RC
2 setlinecap
10.0 ML
N
224 236 M
229 241 L
S
GR
GS
1 0 0 RC
2 setlinecap
10.0 ML
N
370 152.5 M
377 152.5 L
S
GR
GS
1 0 0 RC
2 setlinecap
10.0 ML
N
373.5 156 M
373.5 149 L
S
GR
GS
1 0 0 RC
2 setlinecap
10.0 ML
N
371 155 M
376 150 L
S
GR
GS
1 0 0 RC
2 setlinecap
10.0 ML
N
371 150 M
376 155 L
S
GR
GS
1 0 0 RC
2 setlinecap
10.0 ML
N
518 55.5 M
525 55.5 L
S
GR
GS
1 0 0 RC
2 setlinecap
10.0 ML
N
521.5 59 M
521.5 52 L
S
GR
GS
1 0 0 RC
2 setlinecap
10.0 ML
N
519 58 M
524 53 L
S
GR
GS
1 0 0 RC
2 setlinecap
10.0 ML
N
519 53 M
524 58 L
S
GR
GS
0 0 1 RC
[8 3 2 3] 0 setdash
2 LJ
N
79 369.621 M
226.333 364.733 L
373.667 360.375 L
521 356.912 L
S
GR
GS
0 0 1 RC
2 setlinecap
10.0 ML
N
75 369.5 M
82 369.5 L
S
GR
GS
0 0 1 RC
2 setlinecap
10.0 ML
N
78.5 373 M
78.5 366 L
S
GR
GS
0 0 1 RC
2 setlinecap
10.0 ML
N
76 372 M
81 367 L
S
GR
GS
0 0 1 RC
2 setlinecap
10.0 ML
N
76 367 M
81 372 L
S
GR
GS
0 0 1 RC
2 setlinecap
10.0 ML
N
223 364.5 M
230 364.5 L
S
GR
GS
0 0 1 RC
2 setlinecap
10.0 ML
N
226.5 368 M
226.5 361 L
S
GR
GS
0 0 1 RC
2 setlinecap
10.0 ML
N
224 367 M
229 362 L
S
GR
GS
0 0 1 RC
2 setlinecap
10.0 ML
N
224 362 M
229 367 L
S
GR
GS
0 0 1 RC
2 setlinecap
10.0 ML
N
370 360.5 M
377 360.5 L
S
GR
GS
0 0 1 RC
2 setlinecap
10.0 ML
N
373.5 364 M
373.5 357 L
S
GR
GS
0 0 1 RC
2 setlinecap
10.0 ML
N
371 363 M
376 358 L
S
GR
GS
0 0 1 RC
2 setlinecap
10.0 ML
N
371 358 M
376 363 L
S
GR
GS
0 0 1 RC
2 setlinecap
10.0 ML
N
518 356.5 M
525 356.5 L
S
GR
GS
0 0 1 RC
2 setlinecap
10.0 ML
N
521.5 360 M
521.5 353 L
S
GR
GS
0 0 1 RC
2 setlinecap
10.0 ML
N
519 359 M
524 354 L
S
GR
GS
0 0 1 RC
2 setlinecap
10.0 ML
N
519 354 M
524 359 L
S
GR
GS
1 GC
N
89 82 M
89 42 L
208 42 L
208 82 L
cp
f
GR
GS
[1 0 0 1 128 52.8642] CT
/Helvetica 17 F
GS
[1 0 0 1 0 0] CT
0 5 moveto 
1 -1 scale
(L-2 norm) t 
GR
GR
GS
1 0 0 RC
2 setlinecap
10.0 ML
N
95 52.864 M
125 52.864 L
S
GR
GS
1 0 0 RC
2 setlinecap
10.0 ML
N
107 52.5 M
114 52.5 L
S
GR
GS
1 0 0 RC
2 setlinecap
10.0 ML
N
110.5 56 M
110.5 49 L
S
GR
GS
1 0 0 RC
2 setlinecap
10.0 ML
N
108 55 M
113 50 L
S
GR
GS
1 0 0 RC
2 setlinecap
10.0 ML
N
108 50 M
113 55 L
S
GR
GS
[1 0 0 1 128 71.1358] CT
/Helvetica 17 F
GS
[1 0 0 1 0 0] CT
0 5 moveto 
1 -1 scale
(L-inf norm) t 
GR
GR
GS
0 0 1 RC
[8 3 2 3] 0 setdash
2 LJ
N
95 71.136 M
125 71.136 L
S
GR
GS
0 0 1 RC
2 setlinecap
10.0 ML
N
107 71.5 M
114 71.5 L
S
GR
GS
0 0 1 RC
2 setlinecap
10.0 ML
N
110.5 75 M
110.5 68 L
S
GR
GS
0 0 1 RC
2 setlinecap
10.0 ML
N
108 74 M
113 69 L
S
GR
GS
0 0 1 RC
2 setlinecap
10.0 ML
N
108 69 M
113 74 L
S
GR
GS
0.149 GC
2 setlinecap
10.0 ML
N
89 82 M
89 42 L
208 42 L
208 82 L
89 82 L
S
GR
%%Trailer
%%BoundingBox: 1 0 539 409
%%Pages: 1
%%EOF
