%!PS-Adobe-3.0 EPSF-3.0
%%Creator: (MATLAB, The Mathworks, Inc. Version 8.4.0.150421 \(R2014b\). Operating System: Mac OS X)
%%Title: ./distance_mean_p24.eps
%%CreationDate: 2015-06-01T16:28:08
%%Pages: (atend)
%%BoundingBox: (atend)
%%LanguageLevel: 3
%%EndComments
%%BeginProlog
%%BeginResource: procset (Apache XML Graphics Std ProcSet) 1.2 0
%%Version: 1.2 0
%%Copyright: (Copyright 2001-2003,2010 The Apache Software Foundation. License terms: http://www.apache.org/licenses/LICENSE-2.0)
/bd{bind def}bind def
/ld{load def}bd
/GR/grestore ld
/M/moveto ld
/LJ/setlinejoin ld
/C/curveto ld
/f/fill ld
/LW/setlinewidth ld
/GC/setgray ld
/t/show ld
/N/newpath ld
/CT/concat ld
/cp/closepath ld
/S/stroke ld
/L/lineto ld
/CC/setcmykcolor ld
/A/ashow ld
/GS/gsave ld
/RC/setrgbcolor ld
/RM/rmoveto ld
/ML/setmiterlimit ld
/re {4 2 roll M
1 index 0 rlineto
0 exch rlineto
neg 0 rlineto
cp } bd
/_ctm matrix def
/_tm matrix def
/BT { _ctm currentmatrix pop matrix _tm copy pop 0 0 moveto } bd
/ET { _ctm setmatrix } bd
/iTm { _ctm setmatrix _tm concat } bd
/Tm { _tm astore pop iTm 0 0 moveto } bd
/ux 0.0 def
/uy 0.0 def
/F {
  /Tp exch def
  /Tf exch def
  Tf findfont Tp scalefont setfont
  /cf Tf def  /cs Tp def
} bd
/ULS {currentpoint /uy exch def /ux exch def} bd
/ULE {
  /Tcx currentpoint pop def
  gsave
  newpath
  cf findfont cs scalefont dup
  /FontMatrix get 0 get /Ts exch def /FontInfo get dup
  /UnderlinePosition get Ts mul /To exch def
  /UnderlineThickness get Ts mul /Tt exch def
  ux uy To add moveto  Tcx uy To add lineto
  Tt setlinewidth stroke
  grestore
} bd
/OLE {
  /Tcx currentpoint pop def
  gsave
  newpath
  cf findfont cs scalefont dup
  /FontMatrix get 0 get /Ts exch def /FontInfo get dup
  /UnderlinePosition get Ts mul /To exch def
  /UnderlineThickness get Ts mul /Tt exch def
  ux uy To add cs add moveto Tcx uy To add cs add lineto
  Tt setlinewidth stroke
  grestore
} bd
/SOE {
  /Tcx currentpoint pop def
  gsave
  newpath
  cf findfont cs scalefont dup
  /FontMatrix get 0 get /Ts exch def /FontInfo get dup
  /UnderlinePosition get Ts mul /To exch def
  /UnderlineThickness get Ts mul /Tt exch def
  ux uy To add cs 10 mul 26 idiv add moveto Tcx uy To add cs 10 mul 26 idiv add lineto
  Tt setlinewidth stroke
  grestore
} bd
/QT {
/Y22 exch store
/X22 exch store
/Y21 exch store
/X21 exch store
currentpoint
/Y21 load 2 mul add 3 div exch
/X21 load 2 mul add 3 div exch
/X21 load 2 mul /X22 load add 3 div
/Y21 load 2 mul /Y22 load add 3 div
/X22 load /Y22 load curveto
} bd
/SSPD {
dup length /d exch dict def
{
/v exch def
/k exch def
currentpagedevice k known {
/cpdv currentpagedevice k get def
v cpdv ne {
/upd false def
/nullv v type /nulltype eq def
/nullcpdv cpdv type /nulltype eq def
nullv nullcpdv or
{
/upd true def
} {
/sametype v type cpdv type eq def
sametype {
v type /arraytype eq {
/vlen v length def
/cpdvlen cpdv length def
vlen cpdvlen eq {
0 1 vlen 1 sub {
/i exch def
/obj v i get def
/cpdobj cpdv i get def
obj cpdobj ne {
/upd true def
exit
} if
} for
} {
/upd true def
} ifelse
} {
v type /dicttype eq {
v {
/dv exch def
/dk exch def
/cpddv cpdv dk get def
dv cpddv ne {
/upd true def
exit
} if
} forall
} {
/upd true def
} ifelse
} ifelse
} if
} ifelse
upd true eq {
d k v put
} if
} if
} if
} forall
d length 0 gt {
d setpagedevice
} if
} bd
%%EndResource
%%BeginResource: procset (Apache XML Graphics EPS ProcSet) 1.0 0
%%Version: 1.0 0
%%Copyright: (Copyright 2002-2003 The Apache Software Foundation. License terms: http://www.apache.org/licenses/LICENSE-2.0)
/BeginEPSF { %def
/b4_Inc_state save def         % Save state for cleanup
/dict_count countdictstack def % Count objects on dict stack
/op_count count 1 sub def      % Count objects on operand stack
userdict begin                 % Push userdict on dict stack
/showpage { } def              % Redefine showpage, { } = null proc
0 setgray 0 setlinecap         % Prepare graphics state
1 setlinewidth 0 setlinejoin
10 setmiterlimit [ ] 0 setdash newpath
/languagelevel where           % If level not equal to 1 then
{pop languagelevel             % set strokeadjust and
1 ne                           % overprint to their defaults.
{false setstrokeadjust false setoverprint
} if
} if
} bd
/EndEPSF { %def
count op_count sub {pop} repeat            % Clean up stacks
countdictstack dict_count sub {end} repeat
b4_Inc_state restore
} bd
%%EndResource
%FOPBeginFontDict
%%IncludeResource: font Courier-Bold
%%IncludeResource: font Helvetica
%%IncludeResource: font Courier-BoldOblique
%%IncludeResource: font Courier-Oblique
%%IncludeResource: font Times-Roman
%%IncludeResource: font Helvetica-BoldOblique
%%IncludeResource: font Helvetica-Bold
%%IncludeResource: font Helvetica-Oblique
%%IncludeResource: font Times-BoldItalic
%%IncludeResource: font Courier
%%IncludeResource: font Times-Italic
%%IncludeResource: font Times-Bold
%%IncludeResource: font Symbol
%%IncludeResource: font ZapfDingbats
%FOPEndFontDict
%%BeginResource: encoding WinAnsiEncoding
/WinAnsiEncoding [
/.notdef /.notdef /.notdef /.notdef /.notdef
/.notdef /.notdef /.notdef /.notdef /.notdef
/.notdef /.notdef /.notdef /.notdef /.notdef
/.notdef /.notdef /.notdef /.notdef /.notdef
/.notdef /.notdef /.notdef /.notdef /.notdef
/.notdef /.notdef /.notdef /.notdef /.notdef
/.notdef /.notdef /space /exclam /quotedbl
/numbersign /dollar /percent /ampersand /quotesingle
/parenleft /parenright /asterisk /plus /comma
/hyphen /period /slash /zero /one
/two /three /four /five /six
/seven /eight /nine /colon /semicolon
/less /equal /greater /question /at
/A /B /C /D /E
/F /G /H /I /J
/K /L /M /N /O
/P /Q /R /S /T
/U /V /W /X /Y
/Z /bracketleft /backslash /bracketright /asciicircum
/underscore /quoteleft /a /b /c
/d /e /f /g /h
/i /j /k /l /m
/n /o /p /q /r
/s /t /u /v /w
/x /y /z /braceleft /bar
/braceright /asciitilde /bullet /Euro /bullet
/quotesinglbase /florin /quotedblbase /ellipsis /dagger
/daggerdbl /circumflex /perthousand /Scaron /guilsinglleft
/OE /bullet /Zcaron /bullet /bullet
/quoteleft /quoteright /quotedblleft /quotedblright /bullet
/endash /emdash /asciitilde /trademark /scaron
/guilsinglright /oe /bullet /zcaron /Ydieresis
/space /exclamdown /cent /sterling /currency
/yen /brokenbar /section /dieresis /copyright
/ordfeminine /guillemotleft /logicalnot /sfthyphen /registered
/macron /degree /plusminus /twosuperior /threesuperior
/acute /mu /paragraph /middot /cedilla
/onesuperior /ordmasculine /guillemotright /onequarter /onehalf
/threequarters /questiondown /Agrave /Aacute /Acircumflex
/Atilde /Adieresis /Aring /AE /Ccedilla
/Egrave /Eacute /Ecircumflex /Edieresis /Igrave
/Iacute /Icircumflex /Idieresis /Eth /Ntilde
/Ograve /Oacute /Ocircumflex /Otilde /Odieresis
/multiply /Oslash /Ugrave /Uacute /Ucircumflex
/Udieresis /Yacute /Thorn /germandbls /agrave
/aacute /acircumflex /atilde /adieresis /aring
/ae /ccedilla /egrave /eacute /ecircumflex
/edieresis /igrave /iacute /icircumflex /idieresis
/eth /ntilde /ograve /oacute /ocircumflex
/otilde /odieresis /divide /oslash /ugrave
/uacute /ucircumflex /udieresis /yacute /thorn
/ydieresis
] def
%%EndResource
%FOPBeginFontReencode
/Courier-Bold findfont
dup length dict begin
  {1 index /FID ne {def} {pop pop} ifelse} forall
  /Encoding WinAnsiEncoding def
  currentdict
end
/Courier-Bold exch definefont pop
/Helvetica findfont
dup length dict begin
  {1 index /FID ne {def} {pop pop} ifelse} forall
  /Encoding WinAnsiEncoding def
  currentdict
end
/Helvetica exch definefont pop
/Courier-BoldOblique findfont
dup length dict begin
  {1 index /FID ne {def} {pop pop} ifelse} forall
  /Encoding WinAnsiEncoding def
  currentdict
end
/Courier-BoldOblique exch definefont pop
/Courier-Oblique findfont
dup length dict begin
  {1 index /FID ne {def} {pop pop} ifelse} forall
  /Encoding WinAnsiEncoding def
  currentdict
end
/Courier-Oblique exch definefont pop
/Times-Roman findfont
dup length dict begin
  {1 index /FID ne {def} {pop pop} ifelse} forall
  /Encoding WinAnsiEncoding def
  currentdict
end
/Times-Roman exch definefont pop
/Helvetica-BoldOblique findfont
dup length dict begin
  {1 index /FID ne {def} {pop pop} ifelse} forall
  /Encoding WinAnsiEncoding def
  currentdict
end
/Helvetica-BoldOblique exch definefont pop
/Helvetica-Bold findfont
dup length dict begin
  {1 index /FID ne {def} {pop pop} ifelse} forall
  /Encoding WinAnsiEncoding def
  currentdict
end
/Helvetica-Bold exch definefont pop
/Helvetica-Oblique findfont
dup length dict begin
  {1 index /FID ne {def} {pop pop} ifelse} forall
  /Encoding WinAnsiEncoding def
  currentdict
end
/Helvetica-Oblique exch definefont pop
/Times-BoldItalic findfont
dup length dict begin
  {1 index /FID ne {def} {pop pop} ifelse} forall
  /Encoding WinAnsiEncoding def
  currentdict
end
/Times-BoldItalic exch definefont pop
/Courier findfont
dup length dict begin
  {1 index /FID ne {def} {pop pop} ifelse} forall
  /Encoding WinAnsiEncoding def
  currentdict
end
/Courier exch definefont pop
/Times-Italic findfont
dup length dict begin
  {1 index /FID ne {def} {pop pop} ifelse} forall
  /Encoding WinAnsiEncoding def
  currentdict
end
/Times-Italic exch definefont pop
/Times-Bold findfont
dup length dict begin
  {1 index /FID ne {def} {pop pop} ifelse} forall
  /Encoding WinAnsiEncoding def
  currentdict
end
/Times-Bold exch definefont pop
%FOPEndFontReencode
%%EndProlog
%%Page: 1 1
%%PageBoundingBox: 0 0 576 432
%%BeginPageSetup
[1 0 0 -1 0 432] CT
%%EndPageSetup
GS
1 GC
N
0 0 576 432 re
f
GR
GS
1 GC
N
0 0 576 432 re
f
GR
GS
1 GC
N
76 384 M
521 384 L
521 32 L
76 32 L
cp
f
GR
GS
[1 0 0 1 298.5 408.79999] CT
0.149 GC
/Helvetica 21 F
GS
[1 0 0 1 0 0] CT
-41.441 16.17 moveto 
1 -1 scale
(Variance) t 
GR
GR
GS
0.149 GC
2 setlinecap
10.0 ML
N
76 384 M
521 384 L
S
GR
GS
0.149 GC
2 setlinecap
10.0 ML
N
76 32 M
521 32 L
S
GR
GS
0.149 GC
2 setlinecap
10.0 ML
N
76 384 M
76 379.55 L
S
GR
GS
0.149 GC
2 setlinecap
10.0 ML
N
76 32 M
76 36.45 L
S
GR
GS
0.149 GC
2 setlinecap
10.0 ML
N
150.167 384 M
150.167 379.55 L
S
GR
GS
0.149 GC
2 setlinecap
10.0 ML
N
150.167 32 M
150.167 36.45 L
S
GR
GS
0.149 GC
2 setlinecap
10.0 ML
N
224.333 384 M
224.333 379.55 L
S
GR
GS
0.149 GC
2 setlinecap
10.0 ML
N
224.333 32 M
224.333 36.45 L
S
GR
GS
0.149 GC
2 setlinecap
10.0 ML
N
298.5 384 M
298.5 379.55 L
S
GR
GS
0.149 GC
2 setlinecap
10.0 ML
N
298.5 32 M
298.5 36.45 L
S
GR
GS
0.149 GC
2 setlinecap
10.0 ML
N
372.667 384 M
372.667 379.55 L
S
GR
GS
0.149 GC
2 setlinecap
10.0 ML
N
372.667 32 M
372.667 36.45 L
S
GR
GS
0.149 GC
2 setlinecap
10.0 ML
N
446.833 384 M
446.833 379.55 L
S
GR
GS
0.149 GC
2 setlinecap
10.0 ML
N
446.833 32 M
446.833 36.45 L
S
GR
GS
0.149 GC
2 setlinecap
10.0 ML
N
521 384 M
521 379.55 L
S
GR
GS
0.149 GC
2 setlinecap
10.0 ML
N
521 32 M
521 36.45 L
S
GR
GS
[1 0 0 1 75.99999 389.79999] CT
0.149 GC
/Helvetica 19 F
GS
[1 0 0 1 0 0] CT
-18.49 14.63 moveto 
1 -1 scale
(0.02) t 
GR
GR
GS
[1 0 0 1 150.16667 389.79999] CT
0.149 GC
/Helvetica 19 F
GS
[1 0 0 1 0 0] CT
-23.773 14.63 moveto 
1 -1 scale
(0.025) t 
GR
GR
GS
[1 0 0 1 224.33333 389.79999] CT
0.149 GC
/Helvetica 19 F
GS
[1 0 0 1 0 0] CT
-18.49 14.63 moveto 
1 -1 scale
(0.03) t 
GR
GR
GS
[1 0 0 1 298.5 389.79999] CT
0.149 GC
/Helvetica 19 F
GS
[1 0 0 1 0 0] CT
-23.773 14.63 moveto 
1 -1 scale
(0.035) t 
GR
GR
GS
[1 0 0 1 372.66666 389.79999] CT
0.149 GC
/Helvetica 19 F
GS
[1 0 0 1 0 0] CT
-18.49 14.63 moveto 
1 -1 scale
(0.04) t 
GR
GR
GS
[1 0 0 1 446.83337 389.79999] CT
0.149 GC
/Helvetica 19 F
GS
[1 0 0 1 0 0] CT
-23.773 14.63 moveto 
1 -1 scale
(0.045) t 
GR
GR
GS
[1 0 0 1 521 389.79999] CT
0.149 GC
/Helvetica 19 F
GS
[1 0 0 1 0 0] CT
-18.49 14.63 moveto 
1 -1 scale
(0.05) t 
GR
GR
GS
[0 -1 1 0 19.65362 208] CT
0.149 GC
/Helvetica 21 F
GS
[1 0 0 1 0 0] CT
-152.901 -3.83 moveto 
1 -1 scale
(Difference from the mean control) t 
GR
GR
GS
0.149 GC
2 setlinecap
10.0 ML
N
76 384 M
76 32 L
S
GR
GS
0.149 GC
2 setlinecap
10.0 ML
N
521 384 M
521 32 L
S
GR
GS
0.149 GC
2 setlinecap
10.0 ML
N
76 384 M
80.45 384 L
S
GR
GS
0.149 GC
2 setlinecap
10.0 ML
N
521 384 M
516.55 384 L
S
GR
GS
0.149 GC
2 setlinecap
10.0 ML
N
76 344.889 M
80.45 344.889 L
S
GR
GS
0.149 GC
2 setlinecap
10.0 ML
N
521 344.889 M
516.55 344.889 L
S
GR
GS
0.149 GC
2 setlinecap
10.0 ML
N
76 305.778 M
80.45 305.778 L
S
GR
GS
0.149 GC
2 setlinecap
10.0 ML
N
521 305.778 M
516.55 305.778 L
S
GR
GS
0.149 GC
2 setlinecap
10.0 ML
N
76 266.667 M
80.45 266.667 L
S
GR
GS
0.149 GC
2 setlinecap
10.0 ML
N
521 266.667 M
516.55 266.667 L
S
GR
GS
0.149 GC
2 setlinecap
10.0 ML
N
76 227.556 M
80.45 227.556 L
S
GR
GS
0.149 GC
2 setlinecap
10.0 ML
N
521 227.556 M
516.55 227.556 L
S
GR
GS
0.149 GC
2 setlinecap
10.0 ML
N
76 188.444 M
80.45 188.444 L
S
GR
GS
0.149 GC
2 setlinecap
10.0 ML
N
521 188.444 M
516.55 188.444 L
S
GR
GS
0.149 GC
2 setlinecap
10.0 ML
N
76 149.333 M
80.45 149.333 L
S
GR
GS
0.149 GC
2 setlinecap
10.0 ML
N
521 149.333 M
516.55 149.333 L
S
GR
GS
0.149 GC
2 setlinecap
10.0 ML
N
76 110.222 M
80.45 110.222 L
S
GR
GS
0.149 GC
2 setlinecap
10.0 ML
N
521 110.222 M
516.55 110.222 L
S
GR
GS
0.149 GC
2 setlinecap
10.0 ML
N
76 71.111 M
80.45 71.111 L
S
GR
GS
0.149 GC
2 setlinecap
10.0 ML
N
521 71.111 M
516.55 71.111 L
S
GR
GS
0.149 GC
2 setlinecap
10.0 ML
N
76 32 M
80.45 32 L
S
GR
GS
0.149 GC
2 setlinecap
10.0 ML
N
521 32 M
516.55 32 L
S
GR
GS
[1 0 0 1 70.19998 384] CT
0.149 GC
/Helvetica 19 F
GS
[1 0 0 1 0 0] CT
-10.567 5.63 moveto 
1 -1 scale
(0) t 
GR
GR
GS
[1 0 0 1 70.19998 344.88889] CT
0.149 GC
/Helvetica 19 F
GS
[1 0 0 1 0 0] CT
-47.546 5.63 moveto 
1 -1 scale
(0.002) t 
GR
GR
GS
[1 0 0 1 70.19998 305.77777] CT
0.149 GC
/Helvetica 19 F
GS
[1 0 0 1 0 0] CT
-47.546 5.63 moveto 
1 -1 scale
(0.004) t 
GR
GR
GS
[1 0 0 1 70.19998 266.66666] CT
0.149 GC
/Helvetica 19 F
GS
[1 0 0 1 0 0] CT
-47.546 5.63 moveto 
1 -1 scale
(0.006) t 
GR
GR
GS
[1 0 0 1 70.19998 227.55554] CT
0.149 GC
/Helvetica 19 F
GS
[1 0 0 1 0 0] CT
-47.546 5.63 moveto 
1 -1 scale
(0.008) t 
GR
GR
GS
[1 0 0 1 70.19998 188.44444] CT
0.149 GC
/Helvetica 19 F
GS
[1 0 0 1 0 0] CT
-36.979 5.63 moveto 
1 -1 scale
(0.01) t 
GR
GR
GS
[1 0 0 1 70.19998 149.33333] CT
0.149 GC
/Helvetica 19 F
GS
[1 0 0 1 0 0] CT
-47.546 5.63 moveto 
1 -1 scale
(0.012) t 
GR
GR
GS
[1 0 0 1 70.19998 110.22221] CT
0.149 GC
/Helvetica 19 F
GS
[1 0 0 1 0 0] CT
-47.546 5.63 moveto 
1 -1 scale
(0.014) t 
GR
GR
GS
[1 0 0 1 70.19998 71.1111] CT
0.149 GC
/Helvetica 19 F
GS
[1 0 0 1 0 0] CT
-47.546 5.63 moveto 
1 -1 scale
(0.016) t 
GR
GR
GS
[1 0 0 1 70.19998 32.00002] CT
0.149 GC
/Helvetica 19 F
GS
[1 0 0 1 0 0] CT
-47.546 5.63 moveto 
1 -1 scale
(0.018) t 
GR
GR
GS
1 0 0 RC
2 setlinecap
10.0 ML
N
76 282.051 M
224.333 201.882 L
372.667 131.367 L
521 69.843 L
S
GR
GS
1 0 0 RC
2 setlinecap
10.0 ML
N
73 282.5 M
80 282.5 L
S
GR
GS
1 0 0 RC
2 setlinecap
10.0 ML
N
76.5 286 M
76.5 279 L
S
GR
GS
1 0 0 RC
2 setlinecap
10.0 ML
N
74 285 M
79 280 L
S
GR
GS
1 0 0 RC
2 setlinecap
10.0 ML
N
74 280 M
79 285 L
S
GR
GS
1 0 0 RC
2 setlinecap
10.0 ML
N
221 201.5 M
228 201.5 L
S
GR
GS
1 0 0 RC
2 setlinecap
10.0 ML
N
224.5 205 M
224.5 198 L
S
GR
GS
1 0 0 RC
2 setlinecap
10.0 ML
N
222 204 M
227 199 L
S
GR
GS
1 0 0 RC
2 setlinecap
10.0 ML
N
222 199 M
227 204 L
S
GR
GS
1 0 0 RC
2 setlinecap
10.0 ML
N
369 131.5 M
376 131.5 L
S
GR
GS
1 0 0 RC
2 setlinecap
10.0 ML
N
372.5 135 M
372.5 128 L
S
GR
GS
1 0 0 RC
2 setlinecap
10.0 ML
N
370 134 M
375 129 L
S
GR
GS
1 0 0 RC
2 setlinecap
10.0 ML
N
370 129 M
375 134 L
S
GR
GS
1 0 0 RC
2 setlinecap
10.0 ML
N
518 69.5 M
525 69.5 L
S
GR
GS
1 0 0 RC
2 setlinecap
10.0 ML
N
521.5 73 M
521.5 66 L
S
GR
GS
1 0 0 RC
2 setlinecap
10.0 ML
N
519 72 M
524 67 L
S
GR
GS
1 0 0 RC
2 setlinecap
10.0 ML
N
519 67 M
524 72 L
S
GR
GS
0 0 1 RC
[8 3 2 3] 0 setdash
2 LJ
N
76 360.892 M
224.333 350.158 L
372.667 339.519 L
521 329.931 L
S
GR
GS
0 0 1 RC
2 setlinecap
10.0 ML
N
73 360.5 M
80 360.5 L
S
GR
GS
0 0 1 RC
2 setlinecap
10.0 ML
N
76.5 364 M
76.5 357 L
S
GR
GS
0 0 1 RC
2 setlinecap
10.0 ML
N
74 363 M
79 358 L
S
GR
GS
0 0 1 RC
2 setlinecap
10.0 ML
N
74 358 M
79 363 L
S
GR
GS
0 0 1 RC
2 setlinecap
10.0 ML
N
221 350.5 M
228 350.5 L
S
GR
GS
0 0 1 RC
2 setlinecap
10.0 ML
N
224.5 354 M
224.5 347 L
S
GR
GS
0 0 1 RC
2 setlinecap
10.0 ML
N
222 353 M
227 348 L
S
GR
GS
0 0 1 RC
2 setlinecap
10.0 ML
N
222 348 M
227 353 L
S
GR
GS
0 0 1 RC
2 setlinecap
10.0 ML
N
369 339.5 M
376 339.5 L
S
GR
GS
0 0 1 RC
2 setlinecap
10.0 ML
N
372.5 343 M
372.5 336 L
S
GR
GS
0 0 1 RC
2 setlinecap
10.0 ML
N
370 342 M
375 337 L
S
GR
GS
0 0 1 RC
2 setlinecap
10.0 ML
N
370 337 M
375 342 L
S
GR
GS
0 0 1 RC
2 setlinecap
10.0 ML
N
518 329.5 M
525 329.5 L
S
GR
GS
0 0 1 RC
2 setlinecap
10.0 ML
N
521.5 333 M
521.5 326 L
S
GR
GS
0 0 1 RC
2 setlinecap
10.0 ML
N
519 332 M
524 327 L
S
GR
GS
0 0 1 RC
2 setlinecap
10.0 ML
N
519 327 M
524 332 L
S
GR
GS
1 GC
N
86 79 M
86 42 L
205 42 L
205 79 L
cp
f
GR
GS
[1 0 0 1 125.15633 52.13699] CT
/Helvetica 17 F
GS
[1 0 0 1 0 0] CT
0 5.09 moveto 
1 -1 scale
(L-2 norm) t 
GR
GR
GS
1 0 0 RC
2 setlinecap
10.0 ML
N
92.024 52.137 M
122.144 52.137 L
S
GR
GS
1 0 0 RC
2 setlinecap
10.0 ML
N
104 52.5 M
111 52.5 L
S
GR
GS
1 0 0 RC
2 setlinecap
10.0 ML
N
107.5 56 M
107.5 49 L
S
GR
GS
1 0 0 RC
2 setlinecap
10.0 ML
N
105 55 M
110 50 L
S
GR
GS
1 0 0 RC
2 setlinecap
10.0 ML
N
105 50 M
110 55 L
S
GR
GS
[1 0 0 1 125.15633 68.86301] CT
/Helvetica 17 F
GS
[1 0 0 1 0 0] CT
0 5.09 moveto 
1 -1 scale
(L-inf norm) t 
GR
GR
GS
0 0 1 RC
[8 3 2 3] 0 setdash
2 LJ
N
92.024 68.863 M
122.144 68.863 L
S
GR
GS
0 0 1 RC
2 setlinecap
10.0 ML
N
104 68.5 M
111 68.5 L
S
GR
GS
0 0 1 RC
2 setlinecap
10.0 ML
N
107.5 72 M
107.5 65 L
S
GR
GS
0 0 1 RC
2 setlinecap
10.0 ML
N
105 71 M
110 66 L
S
GR
GS
0 0 1 RC
2 setlinecap
10.0 ML
N
105 66 M
110 71 L
S
GR
GS
0.149 GC
2 setlinecap
10.0 ML
N
86 79 M
86 42 L
205 42 L
205 79 L
86 79 L
S
GR
%%Trailer
%%BoundingBox: 0 2 539 408
%%Pages: 1
%%EOF
