%!PS-Adobe-3.0 EPSF-3.0
%%Creator: (MATLAB, The Mathworks, Inc. Version 8.5.0.197613 \(R2015a\). Operating System: Mac OS X)
%%Title: ./mean_control_p1234.eps
%%CreationDate: 2015-06-01T16:53:47
%%Pages: (atend)
%%BoundingBox: (atend)
%%LanguageLevel: 3
%%EndComments
%%BeginProlog
%%BeginResource: procset (Apache XML Graphics Std ProcSet) 1.2 0
%%Version: 1.2 0
%%Copyright: (Copyright 2001-2003,2010 The Apache Software Foundation. License terms: http://www.apache.org/licenses/LICENSE-2.0)
/bd{bind def}bind def
/ld{load def}bd
/GR/grestore ld
/M/moveto ld
/LJ/setlinejoin ld
/C/curveto ld
/f/fill ld
/LW/setlinewidth ld
/GC/setgray ld
/t/show ld
/N/newpath ld
/CT/concat ld
/cp/closepath ld
/S/stroke ld
/L/lineto ld
/CC/setcmykcolor ld
/A/ashow ld
/GS/gsave ld
/RC/setrgbcolor ld
/RM/rmoveto ld
/ML/setmiterlimit ld
/re {4 2 roll M
1 index 0 rlineto
0 exch rlineto
neg 0 rlineto
cp } bd
/_ctm matrix def
/_tm matrix def
/BT { _ctm currentmatrix pop matrix _tm copy pop 0 0 moveto } bd
/ET { _ctm setmatrix } bd
/iTm { _ctm setmatrix _tm concat } bd
/Tm { _tm astore pop iTm 0 0 moveto } bd
/ux 0.0 def
/uy 0.0 def
/F {
  /Tp exch def
  /Tf exch def
  Tf findfont Tp scalefont setfont
  /cf Tf def  /cs Tp def
} bd
/ULS {currentpoint /uy exch def /ux exch def} bd
/ULE {
  /Tcx currentpoint pop def
  gsave
  newpath
  cf findfont cs scalefont dup
  /FontMatrix get 0 get /Ts exch def /FontInfo get dup
  /UnderlinePosition get Ts mul /To exch def
  /UnderlineThickness get Ts mul /Tt exch def
  ux uy To add moveto  Tcx uy To add lineto
  Tt setlinewidth stroke
  grestore
} bd
/OLE {
  /Tcx currentpoint pop def
  gsave
  newpath
  cf findfont cs scalefont dup
  /FontMatrix get 0 get /Ts exch def /FontInfo get dup
  /UnderlinePosition get Ts mul /To exch def
  /UnderlineThickness get Ts mul /Tt exch def
  ux uy To add cs add moveto Tcx uy To add cs add lineto
  Tt setlinewidth stroke
  grestore
} bd
/SOE {
  /Tcx currentpoint pop def
  gsave
  newpath
  cf findfont cs scalefont dup
  /FontMatrix get 0 get /Ts exch def /FontInfo get dup
  /UnderlinePosition get Ts mul /To exch def
  /UnderlineThickness get Ts mul /Tt exch def
  ux uy To add cs 10 mul 26 idiv add moveto Tcx uy To add cs 10 mul 26 idiv add lineto
  Tt setlinewidth stroke
  grestore
} bd
/QT {
/Y22 exch store
/X22 exch store
/Y21 exch store
/X21 exch store
currentpoint
/Y21 load 2 mul add 3 div exch
/X21 load 2 mul add 3 div exch
/X21 load 2 mul /X22 load add 3 div
/Y21 load 2 mul /Y22 load add 3 div
/X22 load /Y22 load curveto
} bd
/SSPD {
dup length /d exch dict def
{
/v exch def
/k exch def
currentpagedevice k known {
/cpdv currentpagedevice k get def
v cpdv ne {
/upd false def
/nullv v type /nulltype eq def
/nullcpdv cpdv type /nulltype eq def
nullv nullcpdv or
{
/upd true def
} {
/sametype v type cpdv type eq def
sametype {
v type /arraytype eq {
/vlen v length def
/cpdvlen cpdv length def
vlen cpdvlen eq {
0 1 vlen 1 sub {
/i exch def
/obj v i get def
/cpdobj cpdv i get def
obj cpdobj ne {
/upd true def
exit
} if
} for
} {
/upd true def
} ifelse
} {
v type /dicttype eq {
v {
/dv exch def
/dk exch def
/cpddv cpdv dk get def
dv cpddv ne {
/upd true def
exit
} if
} forall
} {
/upd true def
} ifelse
} ifelse
} if
} ifelse
upd true eq {
d k v put
} if
} if
} if
} forall
d length 0 gt {
d setpagedevice
} if
} bd
%%EndResource
%%BeginResource: procset (Apache XML Graphics EPS ProcSet) 1.0 0
%%Version: 1.0 0
%%Copyright: (Copyright 2002-2003 The Apache Software Foundation. License terms: http://www.apache.org/licenses/LICENSE-2.0)
/BeginEPSF { %def
/b4_Inc_state save def         % Save state for cleanup
/dict_count countdictstack def % Count objects on dict stack
/op_count count 1 sub def      % Count objects on operand stack
userdict begin                 % Push userdict on dict stack
/showpage { } def              % Redefine showpage, { } = null proc
0 setgray 0 setlinecap         % Prepare graphics state
1 setlinewidth 0 setlinejoin
10 setmiterlimit [ ] 0 setdash newpath
/languagelevel where           % If level not equal to 1 then
{pop languagelevel             % set strokeadjust and
1 ne                           % overprint to their defaults.
{false setstrokeadjust false setoverprint
} if
} if
} bd
/EndEPSF { %def
count op_count sub {pop} repeat            % Clean up stacks
countdictstack dict_count sub {end} repeat
b4_Inc_state restore
} bd
%%EndResource
%FOPBeginFontDict
%%IncludeResource: font Courier-Bold
%%IncludeResource: font Helvetica
%%IncludeResource: font Courier-BoldOblique
%%IncludeResource: font Courier-Oblique
%%IncludeResource: font Times-Roman
%%IncludeResource: font Helvetica-BoldOblique
%%IncludeResource: font Helvetica-Bold
%%IncludeResource: font Helvetica-Oblique
%%IncludeResource: font Times-BoldItalic
%%IncludeResource: font Courier
%%IncludeResource: font Times-Italic
%%IncludeResource: font Times-Bold
%%IncludeResource: font Symbol
%%IncludeResource: font ZapfDingbats
%FOPEndFontDict
%%BeginResource: encoding WinAnsiEncoding
/WinAnsiEncoding [
/.notdef /.notdef /.notdef /.notdef /.notdef
/.notdef /.notdef /.notdef /.notdef /.notdef
/.notdef /.notdef /.notdef /.notdef /.notdef
/.notdef /.notdef /.notdef /.notdef /.notdef
/.notdef /.notdef /.notdef /.notdef /.notdef
/.notdef /.notdef /.notdef /.notdef /.notdef
/.notdef /.notdef /space /exclam /quotedbl
/numbersign /dollar /percent /ampersand /quotesingle
/parenleft /parenright /asterisk /plus /comma
/hyphen /period /slash /zero /one
/two /three /four /five /six
/seven /eight /nine /colon /semicolon
/less /equal /greater /question /at
/A /B /C /D /E
/F /G /H /I /J
/K /L /M /N /O
/P /Q /R /S /T
/U /V /W /X /Y
/Z /bracketleft /backslash /bracketright /asciicircum
/underscore /quoteleft /a /b /c
/d /e /f /g /h
/i /j /k /l /m
/n /o /p /q /r
/s /t /u /v /w
/x /y /z /braceleft /bar
/braceright /asciitilde /bullet /Euro /bullet
/quotesinglbase /florin /quotedblbase /ellipsis /dagger
/daggerdbl /circumflex /perthousand /Scaron /guilsinglleft
/OE /bullet /Zcaron /bullet /bullet
/quoteleft /quoteright /quotedblleft /quotedblright /bullet
/endash /emdash /asciitilde /trademark /scaron
/guilsinglright /oe /bullet /zcaron /Ydieresis
/space /exclamdown /cent /sterling /currency
/yen /brokenbar /section /dieresis /copyright
/ordfeminine /guillemotleft /logicalnot /sfthyphen /registered
/macron /degree /plusminus /twosuperior /threesuperior
/acute /mu /paragraph /middot /cedilla
/onesuperior /ordmasculine /guillemotright /onequarter /onehalf
/threequarters /questiondown /Agrave /Aacute /Acircumflex
/Atilde /Adieresis /Aring /AE /Ccedilla
/Egrave /Eacute /Ecircumflex /Edieresis /Igrave
/Iacute /Icircumflex /Idieresis /Eth /Ntilde
/Ograve /Oacute /Ocircumflex /Otilde /Odieresis
/multiply /Oslash /Ugrave /Uacute /Ucircumflex
/Udieresis /Yacute /Thorn /germandbls /agrave
/aacute /acircumflex /atilde /adieresis /aring
/ae /ccedilla /egrave /eacute /ecircumflex
/edieresis /igrave /iacute /icircumflex /idieresis
/eth /ntilde /ograve /oacute /ocircumflex
/otilde /odieresis /divide /oslash /ugrave
/uacute /ucircumflex /udieresis /yacute /thorn
/ydieresis
] def
%%EndResource
%FOPBeginFontReencode
/Courier-Bold findfont
dup length dict begin
  {1 index /FID ne {def} {pop pop} ifelse} forall
  /Encoding WinAnsiEncoding def
  currentdict
end
/Courier-Bold exch definefont pop
/Helvetica findfont
dup length dict begin
  {1 index /FID ne {def} {pop pop} ifelse} forall
  /Encoding WinAnsiEncoding def
  currentdict
end
/Helvetica exch definefont pop
/Courier-BoldOblique findfont
dup length dict begin
  {1 index /FID ne {def} {pop pop} ifelse} forall
  /Encoding WinAnsiEncoding def
  currentdict
end
/Courier-BoldOblique exch definefont pop
/Courier-Oblique findfont
dup length dict begin
  {1 index /FID ne {def} {pop pop} ifelse} forall
  /Encoding WinAnsiEncoding def
  currentdict
end
/Courier-Oblique exch definefont pop
/Times-Roman findfont
dup length dict begin
  {1 index /FID ne {def} {pop pop} ifelse} forall
  /Encoding WinAnsiEncoding def
  currentdict
end
/Times-Roman exch definefont pop
/Helvetica-BoldOblique findfont
dup length dict begin
  {1 index /FID ne {def} {pop pop} ifelse} forall
  /Encoding WinAnsiEncoding def
  currentdict
end
/Helvetica-BoldOblique exch definefont pop
/Helvetica-Bold findfont
dup length dict begin
  {1 index /FID ne {def} {pop pop} ifelse} forall
  /Encoding WinAnsiEncoding def
  currentdict
end
/Helvetica-Bold exch definefont pop
/Helvetica-Oblique findfont
dup length dict begin
  {1 index /FID ne {def} {pop pop} ifelse} forall
  /Encoding WinAnsiEncoding def
  currentdict
end
/Helvetica-Oblique exch definefont pop
/Times-BoldItalic findfont
dup length dict begin
  {1 index /FID ne {def} {pop pop} ifelse} forall
  /Encoding WinAnsiEncoding def
  currentdict
end
/Times-BoldItalic exch definefont pop
/Courier findfont
dup length dict begin
  {1 index /FID ne {def} {pop pop} ifelse} forall
  /Encoding WinAnsiEncoding def
  currentdict
end
/Courier exch definefont pop
/Times-Italic findfont
dup length dict begin
  {1 index /FID ne {def} {pop pop} ifelse} forall
  /Encoding WinAnsiEncoding def
  currentdict
end
/Times-Italic exch definefont pop
/Times-Bold findfont
dup length dict begin
  {1 index /FID ne {def} {pop pop} ifelse} forall
  /Encoding WinAnsiEncoding def
  currentdict
end
/Times-Bold exch definefont pop
%FOPEndFontReencode
%%EndProlog
%%Page: 1 1
%%PageBoundingBox: 0 0 576 432
%%BeginPageSetup
[1 0 0 -1 0 432] CT
%%EndPageSetup
GS
1 GC
N
0 0 576 432 re
f
GR
GS
1 GC
N
0 0 576 432 re
f
GR
GS
1 GC
N
75 384 M
521 384 L
521 32 L
75 32 L
cp
f
GR
GS
[1 0 0 1 298.00021 409.79999] CT
0.149 GC
/Helvetica 21 F
GS
[1 0 0 1 0 0] CT
-5.5 17 moveto 
1 -1 scale
(x) t 
GR
GR
GS
0.149 GC
2 setlinecap
10.0 ML
N
75 384 M
521 384 L
S
GR
GS
0.149 GC
2 setlinecap
10.0 ML
N
75 32 M
521 32 L
S
GR
GS
0.149 GC
2 setlinecap
10.0 ML
N
75 384 M
75 379.54 L
S
GR
GS
0.149 GC
2 setlinecap
10.0 ML
N
164.2 384 M
164.2 379.54 L
S
GR
GS
0.149 GC
2 setlinecap
10.0 ML
N
253.4 384 M
253.4 379.54 L
S
GR
GS
0.149 GC
2 setlinecap
10.0 ML
N
342.6 384 M
342.6 379.54 L
S
GR
GS
0.149 GC
2 setlinecap
10.0 ML
N
431.8 384 M
431.8 379.54 L
S
GR
GS
0.149 GC
2 setlinecap
10.0 ML
N
521 384 M
521 379.54 L
S
GR
GS
0.149 GC
2 setlinecap
10.0 ML
N
75 32 M
75 36.46 L
S
GR
GS
0.149 GC
2 setlinecap
10.0 ML
N
164.2 32 M
164.2 36.46 L
S
GR
GS
0.149 GC
2 setlinecap
10.0 ML
N
253.4 32 M
253.4 36.46 L
S
GR
GS
0.149 GC
2 setlinecap
10.0 ML
N
342.6 32 M
342.6 36.46 L
S
GR
GS
0.149 GC
2 setlinecap
10.0 ML
N
431.8 32 M
431.8 36.46 L
S
GR
GS
0.149 GC
2 setlinecap
10.0 ML
N
521 32 M
521 36.46 L
S
GR
GS
[1 0 0 1 75 389.79999] CT
0.149 GC
/Helvetica 19 F
GS
[1 0 0 1 0 0] CT
-5.5 15 moveto 
1 -1 scale
(0) t 
GR
GR
GS
[1 0 0 1 164.2 389.79999] CT
0.149 GC
/Helvetica 19 F
GS
[1 0 0 1 0 0] CT
-13.5 15 moveto 
1 -1 scale
(0.2) t 
GR
GR
GS
[1 0 0 1 253.40001 389.79999] CT
0.149 GC
/Helvetica 19 F
GS
[1 0 0 1 0 0] CT
-13.5 15 moveto 
1 -1 scale
(0.4) t 
GR
GR
GS
[1 0 0 1 342.60001 389.79999] CT
0.149 GC
/Helvetica 19 F
GS
[1 0 0 1 0 0] CT
-13.5 15 moveto 
1 -1 scale
(0.6) t 
GR
GR
GS
[1 0 0 1 431.80002 389.79999] CT
0.149 GC
/Helvetica 19 F
GS
[1 0 0 1 0 0] CT
-13.5 15 moveto 
1 -1 scale
(0.8) t 
GR
GR
GS
[1 0 0 1 521 389.79999] CT
0.149 GC
/Helvetica 19 F
GS
[1 0 0 1 0 0] CT
-5.5 15 moveto 
1 -1 scale
(1) t 
GR
GR
GS
[0 -1 1 0 29.2 207.99983] CT
0.149 GC
/Helvetica 21 F
GS
[1 0 0 1 0 0] CT
-114.5 -5 moveto 
1 -1 scale
(Average Optimal Source) t 
GR
GR
GS
0.149 GC
2 setlinecap
10.0 ML
N
75 384 M
75 32 L
S
GR
GS
0.149 GC
2 setlinecap
10.0 ML
N
521 384 M
521 32 L
S
GR
GS
0.149 GC
2 setlinecap
10.0 ML
N
75 383.967 M
79.46 383.967 L
S
GR
GS
0.149 GC
2 setlinecap
10.0 ML
N
75 295.975 M
79.46 295.975 L
S
GR
GS
0.149 GC
2 setlinecap
10.0 ML
N
75 207.983 M
79.46 207.983 L
S
GR
GS
0.149 GC
2 setlinecap
10.0 ML
N
75 119.992 M
79.46 119.992 L
S
GR
GS
0.149 GC
2 setlinecap
10.0 ML
N
75 32 M
79.46 32 L
S
GR
GS
0.149 GC
2 setlinecap
10.0 ML
N
521 383.967 M
516.54 383.967 L
S
GR
GS
0.149 GC
2 setlinecap
10.0 ML
N
521 295.975 M
516.54 295.975 L
S
GR
GS
0.149 GC
2 setlinecap
10.0 ML
N
521 207.983 M
516.54 207.983 L
S
GR
GS
0.149 GC
2 setlinecap
10.0 ML
N
521 119.992 M
516.54 119.992 L
S
GR
GS
0.149 GC
2 setlinecap
10.0 ML
N
521 32 M
516.54 32 L
S
GR
GS
[1 0 0 1 69.2 383.96667] CT
0.149 GC
/Helvetica 19 F
GS
[1 0 0 1 0 0] CT
-11 5 moveto 
1 -1 scale
(0) t 
GR
GR
GS
[1 0 0 1 69.2 295.97501] CT
0.149 GC
/Helvetica 19 F
GS
[1 0 0 1 0 0] CT
-37 5 moveto 
1 -1 scale
(0.05) t 
GR
GR
GS
[1 0 0 1 69.2 207.98332] CT
0.149 GC
/Helvetica 19 F
GS
[1 0 0 1 0 0] CT
-27 5 moveto 
1 -1 scale
(0.1) t 
GR
GR
GS
[1 0 0 1 69.2 119.99165] CT
0.149 GC
/Helvetica 19 F
GS
[1 0 0 1 0 0] CT
-37 5 moveto 
1 -1 scale
(0.15) t 
GR
GR
GS
[1 0 0 1 69.2 31.99999] CT
0.149 GC
/Helvetica 19 F
GS
[1 0 0 1 0 0] CT
-27 5 moveto 
1 -1 scale
(0.2) t 
GR
GR
GS
1 0 0 RC
2 LJ
1.3 LW
N
75 383.999 M
75.894 383.941 L
76.788 383.883 L
77.681 383.843 L
78.575 383.82 L
79.469 383.796 L
80.363 383.752 L
81.257 383.707 L
82.15 383.667 L
83.044 383.631 L
83.938 383.595 L
84.832 383.558 L
85.725 383.521 L
86.619 383.479 L
87.513 383.433 L
88.407 383.387 L
89.301 383.353 L
90.194 383.318 L
91.088 383.274 L
91.982 383.22 L
92.876 383.168 L
93.77 383.131 L
94.663 383.094 L
95.557 383.046 L
96.451 382.988 L
97.345 382.93 L
98.238 382.887 L
99.132 382.845 L
100.026 382.791 L
100.92 382.729 L
101.814 382.668 L
102.707 382.616 L
103.601 382.564 L
104.495 382.504 L
105.389 382.44 L
106.283 382.375 L
107.176 382.311 L
108.07 382.248 L
108.964 382.182 L
109.858 382.114 L
110.752 382.045 L
111.645 381.969 L
112.539 381.893 L
113.433 381.819 L
114.327 381.747 L
115.22 381.673 L
116.114 381.584 L
117.008 381.495 L
117.902 381.411 L
118.796 381.331 L
S
GR
GS
1 0 0 RC
2 LJ
1.3 LW
N
118.796 381.331 M
119.689 381.249 L
120.583 381.148 L
121.477 381.047 L
122.371 380.951 L
123.265 380.858 L
124.158 380.763 L
125.052 380.651 L
125.946 380.539 L
126.84 380.424 L
127.733 380.308 L
128.627 380.192 L
129.521 380.069 L
130.415 379.946 L
131.309 379.804 L
132.202 379.65 L
133.096 379.488 L
133.99 379.278 L
134.884 379.068 L
135.778 378.794 L
136.671 378.483 L
137.565 378.169 L
138.459 377.84 L
139.353 377.512 L
140.246 377.17 L
141.14 376.822 L
142.034 376.466 L
142.928 376.064 L
143.822 375.662 L
144.715 375.273 L
145.609 374.89 L
146.503 374.493 L
147.397 374.029 L
148.291 373.565 L
149.184 373.118 L
150.078 372.678 L
150.972 372.223 L
151.866 371.689 L
152.76 371.155 L
153.653 370.627 L
154.547 370.101 L
155.441 369.559 L
156.335 368.941 L
157.228 368.322 L
158.122 367.688 L
159.016 367.047 L
159.91 366.391 L
160.804 365.672 L
161.697 364.953 L
162.591 364.191 L
S
GR
GS
1 0 0 RC
2 LJ
1.3 LW
N
162.591 364.191 M
163.485 363.41 L
164.379 362.619 L
165.273 361.784 L
166.166 360.949 L
167.06 360.043 L
167.954 359.106 L
168.848 358.164 L
169.741 357.198 L
170.635 356.233 L
171.529 355.169 L
172.423 354.066 L
173.317 352.96 L
174.21 351.845 L
175.104 350.729 L
175.998 349.496 L
176.892 348.218 L
177.786 346.935 L
178.679 345.638 L
179.573 344.342 L
180.467 342.92 L
181.361 341.454 L
182.255 339.972 L
183.148 338.441 L
184.042 336.91 L
184.936 335.266 L
185.83 333.584 L
186.723 331.859 L
187.617 330.005 L
188.511 328.152 L
189.405 326.224 L
190.299 324.273 L
191.192 322.227 L
192.086 319.911 L
192.98 317.594 L
193.874 315.279 L
194.768 312.964 L
195.661 310.977 L
196.555 309.877 L
197.449 308.777 L
198.343 307.723 L
199.236 306.683 L
200.13 305.525 L
201.024 304.066 L
201.918 302.607 L
202.812 301.195 L
203.705 299.795 L
204.599 298.321 L
205.493 296.667 L
206.387 295.014 L
S
GR
GS
1 0 0 RC
2 LJ
1.3 LW
N
206.387 295.014 M
207.281 293.402 L
208.174 291.801 L
209.068 290.152 L
209.962 288.388 L
210.856 286.624 L
211.749 284.893 L
212.643 283.169 L
213.537 281.405 L
214.431 279.552 L
215.325 277.699 L
216.218 275.863 L
217.112 274.031 L
218.006 272.156 L
218.9 270.189 L
219.794 268.222 L
220.687 266.254 L
221.581 264.286 L
222.475 262.264 L
223.369 260.133 L
224.263 258.002 L
225.156 255.852 L
226.05 253.698 L
226.944 251.478 L
227.838 249.128 L
228.731 246.778 L
229.625 244.396 L
230.519 242.009 L
231.413 239.546 L
232.307 236.94 L
233.2 234.335 L
234.094 231.697 L
234.988 229.054 L
235.882 226.336 L
236.776 223.483 L
237.669 220.631 L
238.563 217.747 L
239.457 214.859 L
240.351 211.888 L
241.244 208.777 L
242.138 205.666 L
243.032 202.529 L
243.926 199.389 L
244.82 196.173 L
245.713 192.834 L
246.607 189.495 L
247.501 186.151 L
248.395 182.806 L
249.289 179.404 L
250.182 175.914 L
S
GR
GS
1 0 0 RC
2 LJ
1.3 LW
N
250.182 175.914 M
251.076 172.423 L
251.97 168.957 L
252.864 165.494 L
253.758 162.001 L
254.651 158.463 L
255.545 154.924 L
256.439 151.446 L
257.333 147.975 L
258.226 144.504 L
259.12 141.036 L
260.014 137.568 L
260.908 134.196 L
261.802 130.833 L
262.695 127.503 L
263.589 124.219 L
264.483 120.936 L
265.377 117.779 L
266.271 114.632 L
267.164 111.547 L
268.058 108.541 L
268.952 105.536 L
269.846 102.677 L
270.739 99.828 L
271.633 97.057 L
272.527 94.383 L
273.421 91.71 L
274.315 89.202 L
275.208 86.704 L
276.102 84.313 L
276.996 82.053 L
277.89 79.793 L
278.784 77.717 L
279.677 75.65 L
280.571 73.708 L
281.465 71.913 L
282.359 70.118 L
283.253 68.514 L
284.146 66.916 L
285.04 65.454 L
285.934 64.144 L
286.828 62.834 L
287.721 61.715 L
288.615 60.601 L
289.509 59.627 L
290.403 58.806 L
291.297 57.985 L
292.19 57.352 L
293.084 56.723 L
293.978 56.238 L
S
GR
GS
1 0 0 RC
2 LJ
1.3 LW
N
293.978 56.238 M
294.872 55.902 L
295.766 55.566 L
296.659 55.418 L
297.553 55.272 L
298.447 55.272 L
299.341 55.418 L
300.234 55.566 L
301.128 55.902 L
302.022 56.238 L
302.916 56.723 L
303.81 57.352 L
304.703 57.985 L
305.597 58.806 L
306.491 59.627 L
307.385 60.601 L
308.279 61.715 L
309.172 62.834 L
310.066 64.144 L
310.96 65.454 L
311.854 66.916 L
312.747 68.514 L
313.641 70.118 L
314.535 71.913 L
315.429 73.708 L
316.323 75.65 L
317.216 77.717 L
318.11 79.793 L
319.004 82.053 L
319.898 84.313 L
320.792 86.704 L
321.685 89.202 L
322.579 91.71 L
323.473 94.383 L
324.367 97.057 L
325.261 99.828 L
326.154 102.677 L
327.048 105.536 L
327.942 108.541 L
328.836 111.547 L
329.729 114.632 L
330.623 117.779 L
331.517 120.936 L
332.411 124.219 L
333.305 127.503 L
334.198 130.833 L
335.092 134.196 L
335.986 137.568 L
336.88 141.036 L
337.774 144.504 L
S
GR
GS
1 0 0 RC
2 LJ
1.3 LW
N
337.774 144.504 M
338.667 147.975 L
339.561 151.446 L
340.455 154.924 L
341.349 158.463 L
342.242 162.001 L
343.136 165.494 L
344.03 168.957 L
344.924 172.423 L
345.818 175.914 L
346.711 179.404 L
347.605 182.806 L
348.499 186.151 L
349.393 189.495 L
350.287 192.834 L
351.18 196.173 L
352.074 199.389 L
352.968 202.529 L
353.862 205.666 L
354.755 208.777 L
355.649 211.888 L
356.543 214.859 L
357.437 217.747 L
358.331 220.631 L
359.224 223.483 L
360.118 226.336 L
361.012 229.054 L
361.906 231.697 L
362.8 234.335 L
363.693 236.94 L
364.587 239.546 L
365.481 242.009 L
366.375 244.396 L
367.269 246.778 L
368.162 249.128 L
369.056 251.478 L
369.95 253.698 L
370.844 255.852 L
371.737 258.002 L
372.631 260.133 L
373.525 262.264 L
374.419 264.286 L
375.313 266.254 L
376.206 268.222 L
377.1 270.189 L
377.994 272.156 L
378.888 274.031 L
379.782 275.863 L
380.675 277.699 L
381.569 279.552 L
S
GR
GS
1 0 0 RC
2 LJ
1.3 LW
N
381.569 279.552 M
382.463 281.405 L
383.357 283.169 L
384.251 284.893 L
385.144 286.624 L
386.038 288.388 L
386.932 290.152 L
387.826 291.801 L
388.719 293.402 L
389.613 295.014 L
390.507 296.667 L
391.401 298.321 L
392.295 299.795 L
393.188 301.195 L
394.082 302.607 L
394.976 304.066 L
395.87 305.525 L
396.764 306.683 L
397.657 307.723 L
398.551 308.777 L
399.445 309.877 L
400.339 310.977 L
401.232 312.964 L
402.126 315.279 L
403.02 317.594 L
403.914 319.911 L
404.808 322.227 L
405.701 324.273 L
406.595 326.224 L
407.489 328.152 L
408.383 330.005 L
409.277 331.859 L
410.17 333.584 L
411.064 335.266 L
411.958 336.91 L
412.852 338.441 L
413.745 339.972 L
414.639 341.454 L
415.533 342.92 L
416.427 344.342 L
417.321 345.638 L
418.214 346.935 L
419.108 348.218 L
420.002 349.496 L
420.896 350.729 L
421.79 351.845 L
422.683 352.96 L
423.577 354.066 L
424.471 355.169 L
425.365 356.233 L
S
GR
GS
1 0 0 RC
2 LJ
1.3 LW
N
425.365 356.233 M
426.259 357.198 L
427.152 358.164 L
428.046 359.106 L
428.94 360.043 L
429.834 360.949 L
430.727 361.784 L
431.621 362.619 L
432.515 363.41 L
433.409 364.191 L
434.303 364.953 L
435.196 365.672 L
436.09 366.391 L
436.984 367.047 L
437.878 367.688 L
438.772 368.322 L
439.665 368.941 L
440.559 369.559 L
441.453 370.101 L
442.347 370.627 L
443.24 371.155 L
444.134 371.689 L
445.028 372.223 L
445.922 372.678 L
446.816 373.118 L
447.709 373.565 L
448.603 374.029 L
449.497 374.493 L
450.391 374.89 L
451.285 375.273 L
452.178 375.662 L
453.072 376.064 L
453.966 376.466 L
454.86 376.822 L
455.754 377.17 L
456.647 377.512 L
457.541 377.84 L
458.435 378.169 L
459.329 378.483 L
460.222 378.794 L
461.116 379.068 L
462.01 379.278 L
462.904 379.488 L
463.798 379.65 L
464.691 379.804 L
465.585 379.946 L
466.479 380.069 L
467.373 380.192 L
468.267 380.308 L
469.16 380.424 L
S
GR
GS
1 0 0 RC
2 LJ
1.3 LW
N
469.16 380.424 M
470.054 380.539 L
470.948 380.651 L
471.842 380.763 L
472.735 380.858 L
473.629 380.951 L
474.523 381.047 L
475.417 381.148 L
476.311 381.249 L
477.204 381.331 L
478.098 381.411 L
478.992 381.495 L
479.886 381.584 L
480.78 381.673 L
481.673 381.747 L
482.567 381.819 L
483.461 381.893 L
484.355 381.969 L
485.249 382.045 L
486.142 382.114 L
487.036 382.182 L
487.93 382.248 L
488.824 382.311 L
489.717 382.375 L
490.611 382.44 L
491.505 382.504 L
492.399 382.564 L
493.293 382.616 L
494.186 382.668 L
495.08 382.729 L
495.974 382.791 L
496.868 382.845 L
497.762 382.887 L
498.655 382.93 L
499.549 382.988 L
500.443 383.046 L
501.337 383.094 L
502.23 383.131 L
503.124 383.168 L
504.018 383.22 L
504.912 383.274 L
505.806 383.318 L
506.699 383.353 L
507.593 383.387 L
508.487 383.433 L
509.381 383.479 L
510.275 383.521 L
511.168 383.558 L
512.062 383.595 L
512.956 383.631 L
S
GR
GS
1 0 0 RC
2 LJ
1.3 LW
N
512.956 383.631 M
513.85 383.667 L
514.743 383.707 L
515.637 383.752 L
516.531 383.796 L
517.425 383.82 L
518.319 383.843 L
519.212 383.883 L
520.106 383.941 L
521 383.999 L
S
GR
GS
0 0 1 RC
[8 3 2 3] 0 setdash
2 LJ
1.3 LW
N
75 384 M
75.894 383.916 L
76.788 383.846 L
77.681 383.788 L
78.575 383.735 L
79.469 383.681 L
80.363 383.623 L
81.257 383.564 L
82.15 383.504 L
83.044 383.443 L
83.938 383.383 L
84.832 383.322 L
85.725 383.261 L
86.619 383.198 L
87.513 383.135 L
88.407 383.071 L
89.301 383.007 L
90.194 382.941 L
91.088 382.874 L
91.982 382.806 L
92.876 382.737 L
93.77 382.666 L
94.663 382.594 L
95.557 382.521 L
96.451 382.446 L
97.345 382.37 L
98.238 382.292 L
99.132 382.212 L
100.026 382.13 L
100.92 382.046 L
101.814 381.96 L
102.707 381.872 L
103.601 381.782 L
104.495 381.689 L
105.389 381.594 L
106.283 381.496 L
107.176 381.395 L
108.07 381.291 L
108.964 381.184 L
109.858 381.074 L
110.752 380.96 L
111.645 380.843 L
112.539 380.722 L
113.433 380.597 L
114.327 380.469 L
115.22 380.335 L
116.114 380.198 L
117.008 380.056 L
117.902 379.909 L
118.796 379.757 L
119.689 379.6 L
120.583 379.437 L
121.477 379.268 L
122.371 379.094 L
123.265 378.913 L
124.158 378.726 L
125.052 378.532 L
125.946 378.331 L
126.84 378.123 L
127.733 377.907 L
128.627 377.683 L
129.521 377.451 L
130.415 377.21 L
131.309 376.96 L
132.202 376.701 L
133.096 376.432 L
133.99 376.153 L
134.884 375.863 L
135.778 375.564 L
136.671 375.253 L
137.565 374.93 L
138.459 374.596 L
139.353 374.25 L
140.246 373.892 L
141.14 373.52 L
142.034 373.135 L
142.928 372.737 L
143.822 372.324 L
144.715 371.896 L
145.609 371.454 L
146.503 370.997 L
147.397 370.524 L
148.291 370.035 L
149.184 369.53 L
150.078 369.009 L
150.972 368.469 L
151.866 367.912 L
152.76 367.336 L
153.653 366.742 L
154.547 366.13 L
155.441 365.498 L
156.335 364.846 L
157.228 364.174 L
158.122 363.483 L
159.016 362.772 L
159.91 362.04 L
160.804 361.287 L
161.697 360.512 L
162.591 359.716 L
163.485 358.898 L
164.379 358.059 L
165.273 357.197 L
166.166 356.314 L
167.06 355.408 L
167.954 354.481 L
168.848 353.531 L
169.741 352.559 L
170.635 351.564 L
171.529 350.547 L
172.423 349.507 L
173.317 348.445 L
174.21 347.359 L
175.104 346.252 L
175.998 345.121 L
176.892 343.968 L
177.786 342.794 L
178.679 341.599 L
179.573 340.381 L
180.467 339.142 L
181.361 337.88 L
182.255 336.597 L
183.148 335.293 L
184.042 333.969 L
184.936 332.623 L
185.83 331.257 L
186.723 329.87 L
187.617 328.465 L
188.511 327.039 L
189.405 325.595 L
190.299 324.129 L
191.192 322.644 L
192.086 321.139 L
192.98 319.614 L
193.874 318.07 L
194.768 316.507 L
195.661 314.926 L
196.555 313.325 L
197.449 311.705 L
198.343 310.067 L
199.236 308.409 L
200.13 306.73 L
201.024 305.034 L
201.918 303.318 L
202.812 301.582 L
203.705 299.827 L
204.599 298.052 L
205.493 296.256 L
206.387 294.441 L
207.281 292.604 L
208.174 290.747 L
209.068 288.87 L
209.962 286.972 L
210.856 285.051 L
211.749 283.108 L
212.643 281.142 L
213.537 279.154 L
214.431 277.142 L
215.325 275.106 L
216.218 273.047 L
217.112 270.964 L
218.006 268.855 L
218.9 266.721 L
219.794 264.56 L
220.687 262.373 L
221.581 260.16 L
222.475 257.922 L
223.369 255.657 L
224.263 253.365 L
225.156 251.046 L
226.05 248.701 L
226.944 246.33 L
227.838 243.932 L
228.731 241.507 L
229.625 239.056 L
230.519 236.579 L
231.413 234.074 L
232.307 231.544 L
233.2 228.988 L
234.094 226.406 L
234.988 223.8 L
235.882 221.171 L
236.776 218.517 L
237.669 215.841 L
238.563 213.143 L
239.457 210.423 L
240.351 207.685 L
241.244 204.928 L
242.138 202.154 L
243.032 199.363 L
243.926 196.558 L
244.82 193.738 L
245.713 190.906 L
246.607 188.064 L
247.501 185.212 L
248.395 182.353 L
249.289 179.488 L
250.182 176.621 L
251.076 173.751 L
251.97 170.882 L
252.864 168.016 L
253.758 165.153 L
254.651 162.299 L
255.545 159.454 L
256.439 156.619 L
257.333 153.798 L
258.226 150.994 L
259.12 148.208 L
260.014 145.442 L
260.908 142.699 L
261.802 139.982 L
262.695 137.294 L
263.589 134.636 L
264.483 132.01 L
265.377 129.419 L
266.271 126.866 L
267.164 124.354 L
268.058 121.884 L
268.952 119.457 L
269.846 117.079 L
270.739 114.749 L
271.633 112.472 L
272.527 110.248 L
273.421 108.08 L
274.315 105.97 L
275.208 103.92 L
276.102 101.932 L
276.996 100.007 L
277.89 98.149 L
278.784 96.358 L
279.677 94.636 L
280.571 92.985 L
281.465 91.407 L
282.359 89.902 L
283.253 88.473 L
284.146 87.12 L
285.04 85.846 L
285.934 84.651 L
286.828 83.537 L
287.721 82.503 L
288.615 81.553 L
289.509 80.685 L
290.403 79.901 L
291.297 79.202 L
292.19 78.589 L
293.084 78.062 L
293.978 77.62 L
294.872 77.267 L
295.766 77 L
296.659 76.821 L
297.553 76.729 L
298.447 76.726 L
299.341 76.811 L
300.234 76.982 L
301.128 77.242 L
302.022 77.589 L
302.916 78.023 L
303.81 78.544 L
304.703 79.151 L
305.597 79.844 L
306.491 80.621 L
307.385 81.484 L
308.279 82.43 L
309.172 83.459 L
310.066 84.569 L
310.96 85.76 L
311.854 87.032 L
312.747 88.381 L
313.641 89.808 L
314.535 91.311 L
315.429 92.888 L
316.323 94.539 L
317.216 96.26 L
318.11 98.052 L
319.004 99.912 L
319.898 101.839 L
320.792 103.83 L
321.685 105.884 L
322.579 107.999 L
323.473 110.172 L
324.367 112.403 L
325.261 114.686 L
326.154 117.023 L
327.048 119.41 L
327.942 121.844 L
328.836 124.323 L
329.729 126.847 L
330.623 129.41 L
331.517 132.013 L
332.411 134.652 L
333.305 137.324 L
334.198 140.027 L
335.092 142.758 L
335.986 145.517 L
336.88 148.299 L
337.774 151.101 L
338.667 153.922 L
339.561 156.761 L
340.455 159.615 L
341.349 162.48 L
342.242 165.354 L
343.136 168.237 L
344.03 171.126 L
344.924 174.017 L
345.818 176.909 L
346.711 179.8 L
347.605 182.687 L
348.499 185.569 L
349.393 188.446 L
350.287 191.314 L
351.18 194.173 L
352.074 197.02 L
352.968 199.852 L
353.862 202.67 L
354.755 205.471 L
355.649 208.256 L
356.543 211.022 L
357.437 213.769 L
358.331 216.494 L
359.224 219.197 L
360.118 221.877 L
361.012 224.536 L
361.906 227.17 L
362.8 229.781 L
363.693 232.367 L
364.587 234.927 L
365.481 237.458 L
366.375 239.962 L
367.269 242.444 L
368.162 244.899 L
369.056 247.325 L
369.95 249.723 L
370.844 252.095 L
371.737 254.44 L
372.631 256.759 L
373.525 259.05 L
374.419 261.314 L
375.313 263.55 L
376.206 265.759 L
377.1 267.94 L
377.994 270.094 L
378.888 272.223 L
379.782 274.325 L
380.675 276.402 L
381.569 278.453 L
382.463 280.479 L
383.357 282.48 L
384.251 284.457 L
385.144 286.408 L
386.038 288.335 L
386.932 290.238 L
387.826 292.117 L
388.719 293.973 L
389.613 295.809 L
390.507 297.621 L
391.401 299.411 L
392.295 301.178 L
393.188 302.924 L
394.082 304.648 L
394.976 306.351 L
395.87 308.033 L
396.764 309.692 L
397.657 311.329 L
398.551 312.944 L
399.445 314.539 L
400.339 316.113 L
401.232 317.666 L
402.126 319.2 L
403.02 320.713 L
403.914 322.204 L
404.808 323.675 L
405.701 325.126 L
406.595 326.557 L
407.489 327.968 L
408.383 329.358 L
409.277 330.728 L
410.17 332.078 L
411.064 333.406 L
411.958 334.714 L
412.852 336 L
413.745 337.266 L
414.639 338.511 L
415.533 339.734 L
416.427 340.938 L
417.321 342.121 L
418.214 343.283 L
419.108 344.424 L
420.002 345.545 L
420.896 346.645 L
421.79 347.724 L
422.683 348.782 L
423.577 349.82 L
424.471 350.837 L
425.365 351.834 L
426.259 352.81 L
427.152 353.765 L
428.046 354.7 L
428.94 355.613 L
429.834 356.505 L
430.727 357.378 L
431.621 358.23 L
432.515 359.061 L
433.409 359.872 L
434.303 360.663 L
435.196 361.435 L
436.09 362.187 L
436.984 362.918 L
437.878 363.63 L
438.772 364.323 L
439.665 364.996 L
440.559 365.651 L
441.453 366.287 L
442.347 366.904 L
443.24 367.502 L
444.134 368.083 L
445.028 368.645 L
445.922 369.19 L
446.816 369.718 L
447.709 370.228 L
448.603 370.723 L
449.497 371.202 L
450.391 371.664 L
451.285 372.111 L
452.178 372.542 L
453.072 372.959 L
453.966 373.36 L
454.86 373.747 L
455.754 374.121 L
456.647 374.482 L
457.541 374.828 L
458.435 375.163 L
459.329 375.484 L
460.222 375.794 L
461.116 376.092 L
462.01 376.379 L
462.904 376.655 L
463.798 376.921 L
464.691 377.176 L
465.585 377.422 L
466.479 377.658 L
467.373 377.886 L
468.267 378.105 L
469.16 378.316 L
470.054 378.519 L
470.948 378.714 L
471.842 378.902 L
472.735 379.083 L
473.629 379.258 L
474.523 379.426 L
475.417 379.588 L
476.311 379.745 L
477.204 379.895 L
478.098 380.041 L
478.992 380.182 L
479.886 380.318 L
480.78 380.449 L
481.673 380.576 L
482.567 380.699 L
483.461 380.818 L
484.355 380.933 L
485.249 381.045 L
486.142 381.153 L
487.036 381.259 L
487.93 381.361 L
488.824 381.46 L
489.717 381.557 L
490.611 381.651 L
491.505 381.743 L
492.399 381.832 L
493.293 381.919 L
494.186 382.003 L
495.08 382.086 L
495.974 382.167 L
496.868 382.246 L
497.762 382.324 L
498.655 382.399 L
499.549 382.474 L
500.443 382.547 L
501.337 382.618 L
502.23 382.688 L
503.124 382.757 L
504.018 382.825 L
504.912 382.891 L
505.806 382.957 L
506.699 383.022 L
507.593 383.086 L
508.487 383.149 L
509.381 383.211 L
510.275 383.273 L
511.168 383.334 L
512.062 383.394 L
512.956 383.454 L
513.85 383.514 L
514.743 383.572 L
515.637 383.629 L
516.531 383.684 L
517.425 383.737 L
518.319 383.788 L
519.212 383.841 L
520.106 383.903 L
521 384 L
S
GR
GS
[10 6] 0 setdash
2 LJ
1.3 LW
N
75 384 M
75.894 383.911 L
76.788 383.838 L
77.681 383.775 L
78.575 383.717 L
79.469 383.657 L
80.363 383.595 L
81.257 383.531 L
82.15 383.466 L
83.044 383.401 L
83.938 383.335 L
84.832 383.269 L
85.725 383.202 L
86.619 383.134 L
87.513 383.066 L
88.407 382.996 L
89.301 382.926 L
90.194 382.854 L
91.088 382.781 L
91.982 382.707 L
92.876 382.632 L
93.77 382.555 L
94.663 382.476 L
95.557 382.396 L
96.451 382.314 L
97.345 382.23 L
98.238 382.145 L
99.132 382.057 L
100.026 381.968 L
100.92 381.876 L
101.814 381.782 L
102.707 381.685 L
103.601 381.585 L
104.495 381.483 L
105.389 381.378 L
106.283 381.27 L
107.176 381.159 L
108.07 381.045 L
108.964 380.927 L
109.858 380.806 L
110.752 380.681 L
111.645 380.552 L
112.539 380.419 L
113.433 380.282 L
114.327 380.141 L
115.22 379.995 L
116.114 379.844 L
117.008 379.689 L
117.902 379.528 L
118.796 379.362 L
119.689 379.19 L
120.583 379.013 L
121.477 378.829 L
122.371 378.64 L
123.265 378.443 L
124.158 378.24 L
125.052 378.03 L
125.946 377.812 L
126.84 377.587 L
127.733 377.354 L
128.627 377.113 L
129.521 376.864 L
130.415 376.606 L
131.309 376.338 L
132.202 376.061 L
133.096 375.774 L
133.99 375.478 L
134.884 375.172 L
135.778 374.855 L
136.671 374.527 L
137.565 374.189 L
138.459 373.839 L
139.353 373.476 L
140.246 373.102 L
141.14 372.714 L
142.034 372.314 L
142.928 371.901 L
143.822 371.474 L
144.715 371.034 L
145.609 370.581 L
146.503 370.112 L
147.397 369.629 L
148.291 369.131 L
149.184 368.617 L
150.078 368.088 L
150.972 367.542 L
151.866 366.98 L
152.76 366.401 L
153.653 365.806 L
154.547 365.193 L
155.441 364.562 L
156.335 363.913 L
157.228 363.246 L
158.122 362.56 L
159.016 361.856 L
159.91 361.133 L
160.804 360.391 L
161.697 359.629 L
162.591 358.849 L
163.485 358.049 L
164.379 357.228 L
165.273 356.386 L
166.166 355.523 L
167.06 354.64 L
167.954 353.736 L
168.848 352.81 L
169.741 351.864 L
170.635 350.896 L
171.529 349.906 L
172.423 348.896 L
173.317 347.865 L
174.21 346.812 L
175.104 345.738 L
175.998 344.643 L
176.892 343.526 L
177.786 342.388 L
178.679 341.229 L
179.573 340.049 L
180.467 338.847 L
181.361 337.625 L
182.255 336.381 L
183.148 335.115 L
184.042 333.829 L
184.936 332.522 L
185.83 331.194 L
186.723 329.846 L
187.617 328.476 L
188.511 327.086 L
189.405 325.675 L
190.299 324.244 L
191.192 322.792 L
192.086 321.318 L
192.98 319.823 L
193.874 318.309 L
194.768 316.774 L
195.661 315.219 L
196.555 313.644 L
197.449 312.048 L
198.343 310.431 L
199.236 308.795 L
200.13 307.137 L
201.024 305.46 L
201.918 303.761 L
202.812 302.042 L
203.705 300.302 L
204.599 298.541 L
205.493 296.758 L
206.387 294.953 L
207.281 293.128 L
208.174 291.281 L
209.068 289.412 L
209.962 287.52 L
210.856 285.607 L
211.749 283.671 L
212.643 281.711 L
213.537 279.728 L
214.431 277.723 L
215.325 275.694 L
216.218 273.642 L
217.112 271.567 L
218.006 269.468 L
218.9 267.346 L
219.794 265.2 L
220.687 263.031 L
221.581 260.838 L
222.475 258.622 L
223.369 256.383 L
224.263 254.119 L
225.156 251.831 L
226.05 249.518 L
226.944 247.182 L
227.838 244.822 L
228.731 242.44 L
229.625 240.037 L
230.519 237.611 L
231.413 235.165 L
232.307 232.697 L
233.2 230.209 L
234.094 227.701 L
234.988 225.173 L
235.882 222.626 L
236.776 220.06 L
237.669 217.478 L
238.563 214.878 L
239.457 212.263 L
240.351 209.634 L
241.244 206.991 L
242.138 204.335 L
243.032 201.669 L
243.926 198.993 L
244.82 196.308 L
245.713 193.616 L
246.607 190.918 L
247.501 188.216 L
248.395 185.511 L
249.289 182.804 L
250.182 180.098 L
251.076 177.394 L
251.97 174.693 L
252.864 171.999 L
253.758 169.311 L
254.651 166.633 L
255.545 163.965 L
256.439 161.311 L
257.333 158.673 L
258.226 156.052 L
259.12 153.451 L
260.014 150.87 L
260.908 148.313 L
261.802 145.782 L
262.695 143.277 L
263.589 140.802 L
264.483 138.36 L
265.377 135.951 L
266.271 133.577 L
267.164 131.244 L
268.058 128.949 L
268.952 126.696 L
269.846 124.488 L
270.739 122.326 L
271.633 120.212 L
272.527 118.148 L
273.421 116.136 L
274.315 114.178 L
275.208 112.275 L
276.102 110.429 L
276.996 108.643 L
277.89 106.917 L
278.784 105.254 L
279.677 103.654 L
280.571 102.12 L
281.465 100.653 L
282.359 99.255 L
283.253 97.924 L
284.146 96.666 L
285.04 95.48 L
285.934 94.367 L
286.828 93.328 L
287.721 92.365 L
288.615 91.478 L
289.509 90.667 L
290.403 89.934 L
291.297 89.281 L
292.19 88.706 L
293.084 88.211 L
293.978 87.795 L
294.872 87.461 L
295.766 87.208 L
296.659 87.035 L
297.553 86.945 L
298.447 86.936 L
299.341 87.008 L
300.234 87.161 L
301.128 87.397 L
302.022 87.713 L
302.916 88.11 L
303.81 88.588 L
304.703 89.146 L
305.597 89.783 L
306.491 90.499 L
307.385 91.293 L
308.279 92.165 L
309.172 93.114 L
310.066 94.14 L
310.96 95.24 L
311.854 96.415 L
312.747 97.663 L
313.641 98.982 L
314.535 100.373 L
315.429 101.833 L
316.323 103.361 L
317.216 104.955 L
318.11 106.613 L
319.004 108.335 L
319.898 110.119 L
320.792 111.964 L
321.685 113.869 L
322.579 115.83 L
323.473 117.845 L
324.367 119.915 L
325.261 122.035 L
326.154 124.205 L
327.048 126.423 L
327.942 128.687 L
328.836 130.992 L
329.729 133.34 L
330.623 135.728 L
331.517 138.15 L
332.411 140.608 L
333.305 143.1 L
334.198 145.622 L
335.092 148.176 L
335.986 150.755 L
336.88 153.358 L
337.774 155.983 L
338.667 158.631 L
339.561 161.297 L
340.455 163.979 L
341.349 166.675 L
342.242 169.385 L
343.136 172.104 L
344.03 174.831 L
344.924 177.564 L
345.818 180.303 L
346.711 183.042 L
347.605 185.785 L
348.499 188.527 L
349.393 191.264 L
350.287 193.998 L
351.18 196.728 L
352.074 199.449 L
352.968 202.161 L
353.862 204.865 L
354.755 207.559 L
355.649 210.239 L
356.543 212.904 L
357.437 215.554 L
358.331 218.19 L
359.224 220.811 L
360.118 223.412 L
361.012 225.997 L
361.906 228.564 L
362.8 231.109 L
363.693 233.632 L
364.587 236.133 L
365.481 238.613 L
366.375 241.071 L
367.269 243.504 L
368.162 245.914 L
369.056 248.3 L
369.95 250.662 L
370.844 253 L
371.737 255.314 L
372.631 257.603 L
373.525 259.869 L
374.419 262.112 L
375.313 264.328 L
376.206 266.518 L
377.1 268.682 L
377.994 270.823 L
378.888 272.938 L
379.782 275.026 L
380.675 277.089 L
381.569 279.128 L
382.463 281.143 L
383.357 283.134 L
384.251 285.1 L
385.144 287.04 L
386.038 288.955 L
386.932 290.847 L
387.826 292.716 L
388.719 294.561 L
389.613 296.383 L
390.507 298.181 L
391.401 299.956 L
392.295 301.707 L
393.188 303.435 L
394.082 305.142 L
394.976 306.827 L
395.87 308.488 L
396.764 310.128 L
397.657 311.746 L
398.551 313.342 L
399.445 314.917 L
400.339 316.469 L
401.232 318 L
402.126 319.509 L
403.02 320.996 L
403.914 322.462 L
404.808 323.907 L
405.701 325.33 L
406.595 326.732 L
407.489 328.114 L
408.383 329.474 L
409.277 330.813 L
410.17 332.134 L
411.064 333.432 L
411.958 334.709 L
412.852 335.966 L
413.745 337.2 L
414.639 338.414 L
415.533 339.607 L
416.427 340.777 L
417.321 341.928 L
418.214 343.058 L
419.108 344.167 L
420.002 345.255 L
420.896 346.324 L
421.79 347.372 L
422.683 348.4 L
423.577 349.407 L
424.471 350.394 L
425.365 351.363 L
426.259 352.311 L
427.152 353.238 L
428.046 354.147 L
428.94 355.035 L
429.834 355.904 L
430.727 356.753 L
431.621 357.583 L
432.515 358.392 L
433.409 359.183 L
434.303 359.956 L
435.196 360.71 L
436.09 361.446 L
436.984 362.162 L
437.878 362.859 L
438.772 363.54 L
439.665 364.203 L
440.559 364.848 L
441.453 365.476 L
442.347 366.087 L
443.24 366.68 L
444.134 367.257 L
445.028 367.816 L
445.922 368.359 L
446.816 368.887 L
447.709 369.399 L
448.603 369.895 L
449.497 370.376 L
450.391 370.842 L
451.285 371.295 L
452.178 371.733 L
453.072 372.157 L
453.966 372.568 L
454.86 372.965 L
455.754 373.349 L
456.647 373.72 L
457.541 374.079 L
458.435 374.426 L
459.329 374.761 L
460.222 375.085 L
461.116 375.398 L
462.01 375.7 L
462.904 375.992 L
463.798 376.273 L
464.691 376.545 L
465.585 376.808 L
466.479 377.061 L
467.373 377.306 L
468.267 377.542 L
469.16 377.769 L
470.054 377.989 L
470.948 378.201 L
471.842 378.405 L
472.735 378.603 L
473.629 378.794 L
474.523 378.978 L
475.417 379.156 L
476.311 379.328 L
477.204 379.494 L
478.098 379.655 L
478.992 379.81 L
479.886 379.96 L
480.78 380.105 L
481.673 380.245 L
482.567 380.381 L
483.461 380.513 L
484.355 380.641 L
485.249 380.765 L
486.142 380.885 L
487.036 381.002 L
487.93 381.115 L
488.824 381.225 L
489.717 381.332 L
490.611 381.436 L
491.505 381.537 L
492.399 381.635 L
493.293 381.731 L
494.186 381.825 L
495.08 381.916 L
495.974 382.005 L
496.868 382.092 L
497.762 382.177 L
498.655 382.26 L
499.549 382.341 L
500.443 382.421 L
501.337 382.499 L
502.23 382.575 L
503.124 382.651 L
504.018 382.724 L
504.912 382.797 L
505.806 382.868 L
506.699 382.939 L
507.593 383.008 L
508.487 383.077 L
509.381 383.144 L
510.275 383.211 L
511.168 383.277 L
512.062 383.342 L
512.956 383.407 L
513.85 383.471 L
514.743 383.534 L
515.637 383.595 L
516.531 383.655 L
517.425 383.712 L
518.319 383.768 L
519.212 383.825 L
520.106 383.891 L
521 384 L
S
GR
GS
1 GC
N
85 101 M
85 42 L
206 42 L
206 101 L
cp
f
GR
GS
[1 0 0 1 124 53] CT
/Helvetica 17 F
GS
[1 0 0 1 0 0] CT
0 5 moveto 
1 -1 scale
(Mean) t 
GR
GR
GS
1 0 0 RC
2 setlinecap
10.0 ML
1.3 LW
N
91 53 M
121 53 L
S
GR
GS
[1 0 0 1 124 71.5] CT
/Helvetica 17 F
GS
[1 0 0 1 0 0] CT
0 5 moveto 
1 -1 scale
(Var = 0.04) t 
GR
GR
GS
0 0 1 RC
[8 3 2 3] 0 setdash
2 LJ
1.3 LW
N
91 71.5 M
121 71.5 L
S
GR
GS
[1 0 0 1 124 90] CT
/Helvetica 17 F
GS
[1 0 0 1 0 0] CT
0 5 moveto 
1 -1 scale
(Var = 0.05) t 
GR
GR
GS
[10 6] 0 setdash
2 LJ
1.3 LW
N
91 90 M
121 90 L
S
GR
GS
0.149 GC
2 setlinecap
10.0 ML
N
85 101 M
85 42 L
206 42 L
206 101 L
85 101 L
S
GR
%%Trailer
%%BoundingBox: 8 0 526 409
%%Pages: 1
%%EOF
