%!PS-Adobe-3.0 EPSF-3.0
%%Creator: (MATLAB, The Mathworks, Inc. Version 8.4.0.150421 \(R2014b\). Operating System: Mac OS X)
%%Title: ./mean_control_p24.eps
%%CreationDate: 2015-06-01T16:27:34
%%Pages: (atend)
%%BoundingBox: (atend)
%%LanguageLevel: 3
%%EndComments
%%BeginProlog
%%BeginResource: procset (Apache XML Graphics Std ProcSet) 1.2 0
%%Version: 1.2 0
%%Copyright: (Copyright 2001-2003,2010 The Apache Software Foundation. License terms: http://www.apache.org/licenses/LICENSE-2.0)
/bd{bind def}bind def
/ld{load def}bd
/GR/grestore ld
/M/moveto ld
/LJ/setlinejoin ld
/C/curveto ld
/f/fill ld
/LW/setlinewidth ld
/GC/setgray ld
/t/show ld
/N/newpath ld
/CT/concat ld
/cp/closepath ld
/S/stroke ld
/L/lineto ld
/CC/setcmykcolor ld
/A/ashow ld
/GS/gsave ld
/RC/setrgbcolor ld
/RM/rmoveto ld
/ML/setmiterlimit ld
/re {4 2 roll M
1 index 0 rlineto
0 exch rlineto
neg 0 rlineto
cp } bd
/_ctm matrix def
/_tm matrix def
/BT { _ctm currentmatrix pop matrix _tm copy pop 0 0 moveto } bd
/ET { _ctm setmatrix } bd
/iTm { _ctm setmatrix _tm concat } bd
/Tm { _tm astore pop iTm 0 0 moveto } bd
/ux 0.0 def
/uy 0.0 def
/F {
  /Tp exch def
  /Tf exch def
  Tf findfont Tp scalefont setfont
  /cf Tf def  /cs Tp def
} bd
/ULS {currentpoint /uy exch def /ux exch def} bd
/ULE {
  /Tcx currentpoint pop def
  gsave
  newpath
  cf findfont cs scalefont dup
  /FontMatrix get 0 get /Ts exch def /FontInfo get dup
  /UnderlinePosition get Ts mul /To exch def
  /UnderlineThickness get Ts mul /Tt exch def
  ux uy To add moveto  Tcx uy To add lineto
  Tt setlinewidth stroke
  grestore
} bd
/OLE {
  /Tcx currentpoint pop def
  gsave
  newpath
  cf findfont cs scalefont dup
  /FontMatrix get 0 get /Ts exch def /FontInfo get dup
  /UnderlinePosition get Ts mul /To exch def
  /UnderlineThickness get Ts mul /Tt exch def
  ux uy To add cs add moveto Tcx uy To add cs add lineto
  Tt setlinewidth stroke
  grestore
} bd
/SOE {
  /Tcx currentpoint pop def
  gsave
  newpath
  cf findfont cs scalefont dup
  /FontMatrix get 0 get /Ts exch def /FontInfo get dup
  /UnderlinePosition get Ts mul /To exch def
  /UnderlineThickness get Ts mul /Tt exch def
  ux uy To add cs 10 mul 26 idiv add moveto Tcx uy To add cs 10 mul 26 idiv add lineto
  Tt setlinewidth stroke
  grestore
} bd
/QT {
/Y22 exch store
/X22 exch store
/Y21 exch store
/X21 exch store
currentpoint
/Y21 load 2 mul add 3 div exch
/X21 load 2 mul add 3 div exch
/X21 load 2 mul /X22 load add 3 div
/Y21 load 2 mul /Y22 load add 3 div
/X22 load /Y22 load curveto
} bd
/SSPD {
dup length /d exch dict def
{
/v exch def
/k exch def
currentpagedevice k known {
/cpdv currentpagedevice k get def
v cpdv ne {
/upd false def
/nullv v type /nulltype eq def
/nullcpdv cpdv type /nulltype eq def
nullv nullcpdv or
{
/upd true def
} {
/sametype v type cpdv type eq def
sametype {
v type /arraytype eq {
/vlen v length def
/cpdvlen cpdv length def
vlen cpdvlen eq {
0 1 vlen 1 sub {
/i exch def
/obj v i get def
/cpdobj cpdv i get def
obj cpdobj ne {
/upd true def
exit
} if
} for
} {
/upd true def
} ifelse
} {
v type /dicttype eq {
v {
/dv exch def
/dk exch def
/cpddv cpdv dk get def
dv cpddv ne {
/upd true def
exit
} if
} forall
} {
/upd true def
} ifelse
} ifelse
} if
} ifelse
upd true eq {
d k v put
} if
} if
} if
} forall
d length 0 gt {
d setpagedevice
} if
} bd
%%EndResource
%%BeginResource: procset (Apache XML Graphics EPS ProcSet) 1.0 0
%%Version: 1.0 0
%%Copyright: (Copyright 2002-2003 The Apache Software Foundation. License terms: http://www.apache.org/licenses/LICENSE-2.0)
/BeginEPSF { %def
/b4_Inc_state save def         % Save state for cleanup
/dict_count countdictstack def % Count objects on dict stack
/op_count count 1 sub def      % Count objects on operand stack
userdict begin                 % Push userdict on dict stack
/showpage { } def              % Redefine showpage, { } = null proc
0 setgray 0 setlinecap         % Prepare graphics state
1 setlinewidth 0 setlinejoin
10 setmiterlimit [ ] 0 setdash newpath
/languagelevel where           % If level not equal to 1 then
{pop languagelevel             % set strokeadjust and
1 ne                           % overprint to their defaults.
{false setstrokeadjust false setoverprint
} if
} if
} bd
/EndEPSF { %def
count op_count sub {pop} repeat            % Clean up stacks
countdictstack dict_count sub {end} repeat
b4_Inc_state restore
} bd
%%EndResource
%FOPBeginFontDict
%%IncludeResource: font Courier-Bold
%%IncludeResource: font Helvetica
%%IncludeResource: font Courier-BoldOblique
%%IncludeResource: font Courier-Oblique
%%IncludeResource: font Times-Roman
%%IncludeResource: font Helvetica-BoldOblique
%%IncludeResource: font Helvetica-Bold
%%IncludeResource: font Helvetica-Oblique
%%IncludeResource: font Times-BoldItalic
%%IncludeResource: font Courier
%%IncludeResource: font Times-Italic
%%IncludeResource: font Times-Bold
%%IncludeResource: font Symbol
%%IncludeResource: font ZapfDingbats
%FOPEndFontDict
%%BeginResource: encoding WinAnsiEncoding
/WinAnsiEncoding [
/.notdef /.notdef /.notdef /.notdef /.notdef
/.notdef /.notdef /.notdef /.notdef /.notdef
/.notdef /.notdef /.notdef /.notdef /.notdef
/.notdef /.notdef /.notdef /.notdef /.notdef
/.notdef /.notdef /.notdef /.notdef /.notdef
/.notdef /.notdef /.notdef /.notdef /.notdef
/.notdef /.notdef /space /exclam /quotedbl
/numbersign /dollar /percent /ampersand /quotesingle
/parenleft /parenright /asterisk /plus /comma
/hyphen /period /slash /zero /one
/two /three /four /five /six
/seven /eight /nine /colon /semicolon
/less /equal /greater /question /at
/A /B /C /D /E
/F /G /H /I /J
/K /L /M /N /O
/P /Q /R /S /T
/U /V /W /X /Y
/Z /bracketleft /backslash /bracketright /asciicircum
/underscore /quoteleft /a /b /c
/d /e /f /g /h
/i /j /k /l /m
/n /o /p /q /r
/s /t /u /v /w
/x /y /z /braceleft /bar
/braceright /asciitilde /bullet /Euro /bullet
/quotesinglbase /florin /quotedblbase /ellipsis /dagger
/daggerdbl /circumflex /perthousand /Scaron /guilsinglleft
/OE /bullet /Zcaron /bullet /bullet
/quoteleft /quoteright /quotedblleft /quotedblright /bullet
/endash /emdash /asciitilde /trademark /scaron
/guilsinglright /oe /bullet /zcaron /Ydieresis
/space /exclamdown /cent /sterling /currency
/yen /brokenbar /section /dieresis /copyright
/ordfeminine /guillemotleft /logicalnot /sfthyphen /registered
/macron /degree /plusminus /twosuperior /threesuperior
/acute /mu /paragraph /middot /cedilla
/onesuperior /ordmasculine /guillemotright /onequarter /onehalf
/threequarters /questiondown /Agrave /Aacute /Acircumflex
/Atilde /Adieresis /Aring /AE /Ccedilla
/Egrave /Eacute /Ecircumflex /Edieresis /Igrave
/Iacute /Icircumflex /Idieresis /Eth /Ntilde
/Ograve /Oacute /Ocircumflex /Otilde /Odieresis
/multiply /Oslash /Ugrave /Uacute /Ucircumflex
/Udieresis /Yacute /Thorn /germandbls /agrave
/aacute /acircumflex /atilde /adieresis /aring
/ae /ccedilla /egrave /eacute /ecircumflex
/edieresis /igrave /iacute /icircumflex /idieresis
/eth /ntilde /ograve /oacute /ocircumflex
/otilde /odieresis /divide /oslash /ugrave
/uacute /ucircumflex /udieresis /yacute /thorn
/ydieresis
] def
%%EndResource
%FOPBeginFontReencode
/Courier-Bold findfont
dup length dict begin
  {1 index /FID ne {def} {pop pop} ifelse} forall
  /Encoding WinAnsiEncoding def
  currentdict
end
/Courier-Bold exch definefont pop
/Helvetica findfont
dup length dict begin
  {1 index /FID ne {def} {pop pop} ifelse} forall
  /Encoding WinAnsiEncoding def
  currentdict
end
/Helvetica exch definefont pop
/Courier-BoldOblique findfont
dup length dict begin
  {1 index /FID ne {def} {pop pop} ifelse} forall
  /Encoding WinAnsiEncoding def
  currentdict
end
/Courier-BoldOblique exch definefont pop
/Courier-Oblique findfont
dup length dict begin
  {1 index /FID ne {def} {pop pop} ifelse} forall
  /Encoding WinAnsiEncoding def
  currentdict
end
/Courier-Oblique exch definefont pop
/Times-Roman findfont
dup length dict begin
  {1 index /FID ne {def} {pop pop} ifelse} forall
  /Encoding WinAnsiEncoding def
  currentdict
end
/Times-Roman exch definefont pop
/Helvetica-BoldOblique findfont
dup length dict begin
  {1 index /FID ne {def} {pop pop} ifelse} forall
  /Encoding WinAnsiEncoding def
  currentdict
end
/Helvetica-BoldOblique exch definefont pop
/Helvetica-Bold findfont
dup length dict begin
  {1 index /FID ne {def} {pop pop} ifelse} forall
  /Encoding WinAnsiEncoding def
  currentdict
end
/Helvetica-Bold exch definefont pop
/Helvetica-Oblique findfont
dup length dict begin
  {1 index /FID ne {def} {pop pop} ifelse} forall
  /Encoding WinAnsiEncoding def
  currentdict
end
/Helvetica-Oblique exch definefont pop
/Times-BoldItalic findfont
dup length dict begin
  {1 index /FID ne {def} {pop pop} ifelse} forall
  /Encoding WinAnsiEncoding def
  currentdict
end
/Times-BoldItalic exch definefont pop
/Courier findfont
dup length dict begin
  {1 index /FID ne {def} {pop pop} ifelse} forall
  /Encoding WinAnsiEncoding def
  currentdict
end
/Courier exch definefont pop
/Times-Italic findfont
dup length dict begin
  {1 index /FID ne {def} {pop pop} ifelse} forall
  /Encoding WinAnsiEncoding def
  currentdict
end
/Times-Italic exch definefont pop
/Times-Bold findfont
dup length dict begin
  {1 index /FID ne {def} {pop pop} ifelse} forall
  /Encoding WinAnsiEncoding def
  currentdict
end
/Times-Bold exch definefont pop
%FOPEndFontReencode
%%EndProlog
%%Page: 1 1
%%PageBoundingBox: 0 0 576 432
%%BeginPageSetup
[1 0 0 -1 0 432] CT
%%EndPageSetup
GS
1 GC
N
0 0 576 432 re
f
GR
GS
1 GC
N
0 0 576 432 re
f
GR
GS
1 GC
N
75 384 M
521 384 L
521 32 L
75 32 L
cp
f
GR
GS
[1 0 0 1 298 408.79999] CT
0.149 GC
/Helvetica 21 F
GS
[1 0 0 1 0 0] CT
-5.25 16.17 moveto 
1 -1 scale
(x) t 
GR
GR
GS
0.149 GC
2 setlinecap
10.0 ML
N
75 384 M
521 384 L
S
GR
GS
0.149 GC
2 setlinecap
10.0 ML
N
75 32 M
521 32 L
S
GR
GS
0.149 GC
2 setlinecap
10.0 ML
N
75 384 M
75 379.54 L
S
GR
GS
0.149 GC
2 setlinecap
10.0 ML
N
75 32 M
75 36.46 L
S
GR
GS
0.149 GC
2 setlinecap
10.0 ML
N
164.2 384 M
164.2 379.54 L
S
GR
GS
0.149 GC
2 setlinecap
10.0 ML
N
164.2 32 M
164.2 36.46 L
S
GR
GS
0.149 GC
2 setlinecap
10.0 ML
N
253.4 384 M
253.4 379.54 L
S
GR
GS
0.149 GC
2 setlinecap
10.0 ML
N
253.4 32 M
253.4 36.46 L
S
GR
GS
0.149 GC
2 setlinecap
10.0 ML
N
342.6 384 M
342.6 379.54 L
S
GR
GS
0.149 GC
2 setlinecap
10.0 ML
N
342.6 32 M
342.6 36.46 L
S
GR
GS
0.149 GC
2 setlinecap
10.0 ML
N
431.8 384 M
431.8 379.54 L
S
GR
GS
0.149 GC
2 setlinecap
10.0 ML
N
431.8 32 M
431.8 36.46 L
S
GR
GS
0.149 GC
2 setlinecap
10.0 ML
N
521 384 M
521 379.54 L
S
GR
GS
0.149 GC
2 setlinecap
10.0 ML
N
521 32 M
521 36.46 L
S
GR
GS
[1 0 0 1 75 389.79999] CT
0.149 GC
/Helvetica 19 F
GS
[1 0 0 1 0 0] CT
-5.283 14.63 moveto 
1 -1 scale
(0) t 
GR
GR
GS
[1 0 0 1 164.2 389.79999] CT
0.149 GC
/Helvetica 19 F
GS
[1 0 0 1 0 0] CT
-13.206 14.63 moveto 
1 -1 scale
(0.2) t 
GR
GR
GS
[1 0 0 1 253.40001 389.79999] CT
0.149 GC
/Helvetica 19 F
GS
[1 0 0 1 0 0] CT
-13.206 14.63 moveto 
1 -1 scale
(0.4) t 
GR
GR
GS
[1 0 0 1 342.60001 389.79999] CT
0.149 GC
/Helvetica 19 F
GS
[1 0 0 1 0 0] CT
-13.206 14.63 moveto 
1 -1 scale
(0.6) t 
GR
GR
GS
[1 0 0 1 431.80002 389.79999] CT
0.149 GC
/Helvetica 19 F
GS
[1 0 0 1 0 0] CT
-13.206 14.63 moveto 
1 -1 scale
(0.8) t 
GR
GR
GS
[1 0 0 1 521 389.79999] CT
0.149 GC
/Helvetica 19 F
GS
[1 0 0 1 0 0] CT
-5.283 14.63 moveto 
1 -1 scale
(1) t 
GR
GR
GS
[0 -1 1 0 29.22051 208] CT
0.149 GC
/Helvetica 21 F
GS
[1 0 0 1 0 0] CT
-114.387 -3.83 moveto 
1 -1 scale
(Average Optimal Source) t 
GR
GR
GS
0.149 GC
2 setlinecap
10.0 ML
N
75 384 M
75 32 L
S
GR
GS
0.149 GC
2 setlinecap
10.0 ML
N
521 384 M
521 32 L
S
GR
GS
0.149 GC
2 setlinecap
10.0 ML
N
75 384 M
79.46 384 L
S
GR
GS
0.149 GC
2 setlinecap
10.0 ML
N
521 384 M
516.54 384 L
S
GR
GS
0.149 GC
2 setlinecap
10.0 ML
N
75 325.333 M
79.46 325.333 L
S
GR
GS
0.149 GC
2 setlinecap
10.0 ML
N
521 325.333 M
516.54 325.333 L
S
GR
GS
0.149 GC
2 setlinecap
10.0 ML
N
75 266.667 M
79.46 266.667 L
S
GR
GS
0.149 GC
2 setlinecap
10.0 ML
N
521 266.667 M
516.54 266.667 L
S
GR
GS
0.149 GC
2 setlinecap
10.0 ML
N
75 208 M
79.46 208 L
S
GR
GS
0.149 GC
2 setlinecap
10.0 ML
N
521 208 M
516.54 208 L
S
GR
GS
0.149 GC
2 setlinecap
10.0 ML
N
75 149.333 M
79.46 149.333 L
S
GR
GS
0.149 GC
2 setlinecap
10.0 ML
N
521 149.333 M
516.54 149.333 L
S
GR
GS
0.149 GC
2 setlinecap
10.0 ML
N
75 90.667 M
79.46 90.667 L
S
GR
GS
0.149 GC
2 setlinecap
10.0 ML
N
521 90.667 M
516.54 90.667 L
S
GR
GS
0.149 GC
2 setlinecap
10.0 ML
N
75 32 M
79.46 32 L
S
GR
GS
0.149 GC
2 setlinecap
10.0 ML
N
521 32 M
516.54 32 L
S
GR
GS
[1 0 0 1 69.2 384] CT
0.149 GC
/Helvetica 19 F
GS
[1 0 0 1 0 0] CT
-10.567 5.63 moveto 
1 -1 scale
(0) t 
GR
GR
GS
[1 0 0 1 69.2 325.33334] CT
0.149 GC
/Helvetica 19 F
GS
[1 0 0 1 0 0] CT
-36.979 5.63 moveto 
1 -1 scale
(0.05) t 
GR
GR
GS
[1 0 0 1 69.2 266.66666] CT
0.149 GC
/Helvetica 19 F
GS
[1 0 0 1 0 0] CT
-26.413 5.63 moveto 
1 -1 scale
(0.1) t 
GR
GR
GS
[1 0 0 1 69.2 208] CT
0.149 GC
/Helvetica 19 F
GS
[1 0 0 1 0 0] CT
-36.979 5.63 moveto 
1 -1 scale
(0.15) t 
GR
GR
GS
[1 0 0 1 69.2 149.33333] CT
0.149 GC
/Helvetica 19 F
GS
[1 0 0 1 0 0] CT
-26.413 5.63 moveto 
1 -1 scale
(0.2) t 
GR
GR
GS
[1 0 0 1 69.2 90.66666] CT
0.149 GC
/Helvetica 19 F
GS
[1 0 0 1 0 0] CT
-36.979 5.63 moveto 
1 -1 scale
(0.25) t 
GR
GR
GS
[1 0 0 1 69.2 31.99999] CT
0.149 GC
/Helvetica 19 F
GS
[1 0 0 1 0 0] CT
-26.413 5.63 moveto 
1 -1 scale
(0.3) t 
GR
GR
GS
1 0 0 RC
2 setlinecap
10.0 ML
1.3 LW
N
75 383.992 M
75.894 383.919 L
76.788 383.846 L
77.681 383.768 L
78.575 383.686 L
79.469 383.604 L
80.363 383.527 L
81.257 383.449 L
82.15 383.369 L
83.044 383.287 L
83.938 383.205 L
84.832 383.124 L
85.725 383.042 L
86.619 382.959 L
87.513 382.874 L
88.407 382.789 L
89.301 382.703 L
90.194 382.616 L
91.088 382.528 L
91.982 382.439 L
92.876 382.35 L
93.77 382.257 L
94.663 382.164 L
95.557 382.07 L
96.451 381.975 L
97.345 381.88 L
98.238 381.78 L
99.132 381.68 L
100.026 381.579 L
100.92 381.476 L
101.814 381.373 L
102.707 381.265 L
103.601 381.157 L
104.495 381.047 L
105.389 380.936 L
106.283 380.824 L
107.176 380.707 L
108.07 380.589 L
108.964 380.469 L
109.858 380.348 L
110.752 380.226 L
111.645 380.096 L
112.539 379.967 L
113.433 379.836 L
114.327 379.703 L
115.22 379.569 L
116.114 379.425 L
117.008 379.281 L
117.902 379.136 L
118.796 378.99 L
119.689 378.843 L
120.583 378.682 L
121.477 378.521 L
122.371 378.359 L
123.265 378.198 L
124.158 378.034 L
125.052 377.852 L
125.946 377.671 L
126.84 377.491 L
127.733 377.312 L
128.627 377.129 L
129.521 376.925 L
130.415 376.721 L
131.309 376.521 L
132.202 376.323 L
133.096 376.097 L
133.99 375.683 L
134.884 375.268 L
135.778 374.82 L
136.671 374.352 L
137.565 373.88 L
138.459 373.391 L
139.353 372.901 L
140.246 372.377 L
141.14 371.835 L
142.034 371.288 L
142.928 370.719 L
143.822 370.15 L
144.715 369.546 L
145.609 368.924 L
146.503 368.296 L
147.397 367.637 L
148.291 366.977 L
149.184 366.281 L
150.078 365.565 L
150.972 364.84 L
151.866 364.075 L
152.76 363.31 L
153.653 362.501 L
154.547 361.671 L
155.441 360.829 L
156.335 359.938 L
157.228 359.047 L
158.122 358.103 L
159.016 357.134 L
159.91 356.152 L
160.804 355.112 L
161.697 354.072 L
162.591 352.968 L
163.485 351.836 L
164.379 350.688 L
165.273 349.474 L
166.166 348.26 L
167.06 346.971 L
167.954 345.651 L
168.848 344.311 L
169.741 342.897 L
170.635 341.482 L
171.529 339.982 L
172.423 338.449 L
173.317 336.891 L
174.21 335.245 L
175.104 333.6 L
175.998 331.862 L
176.892 330.088 L
177.786 328.283 L
178.679 326.373 L
179.573 324.463 L
180.467 322.452 L
181.361 320.406 L
182.255 318.319 L
183.148 316.101 L
184.042 313.883 L
184.936 311.556 L
185.83 309.192 L
186.723 306.774 L
187.617 304.191 L
188.511 301.607 L
189.405 298.899 L
190.299 296.15 L
191.192 293.329 L
192.086 290.3 L
192.98 287.27 L
193.874 284.081 L
194.768 280.842 L
195.661 278.007 L
196.555 276.264 L
197.449 274.52 L
198.343 272.884 L
199.236 271.28 L
200.13 269.582 L
201.024 267.642 L
201.918 265.702 L
202.812 263.838 L
203.705 261.994 L
204.599 260.063 L
205.493 257.915 L
206.387 255.768 L
207.281 253.675 L
208.174 251.597 L
209.068 249.441 L
209.962 247.1 L
210.856 244.76 L
211.749 242.466 L
212.643 240.182 L
213.537 237.832 L
214.431 235.335 L
215.325 232.837 L
216.218 230.384 L
217.112 227.941 L
218.006 225.446 L
218.9 222.84 L
219.794 220.234 L
220.687 217.677 L
221.581 215.131 L
222.475 212.547 L
223.369 209.887 L
224.263 207.226 L
225.156 204.623 L
226.05 202.031 L
226.944 199.414 L
227.838 196.749 L
228.731 194.083 L
229.625 191.484 L
230.519 188.896 L
231.413 186.292 L
232.307 183.657 L
233.2 181.023 L
234.094 178.458 L
234.988 175.906 L
235.882 173.339 L
236.776 170.745 L
237.669 168.152 L
238.563 165.641 L
239.457 163.143 L
240.351 160.65 L
241.244 158.163 L
242.138 155.676 L
243.032 153.291 L
243.926 150.92 L
244.82 148.566 L
245.713 146.237 L
246.607 143.908 L
247.501 141.693 L
248.395 139.493 L
249.289 137.315 L
250.182 135.173 L
251.076 133.03 L
251.97 131.008 L
252.864 129.001 L
253.758 127.018 L
254.651 125.074 L
255.545 123.13 L
256.439 121.31 L
257.333 119.504 L
258.226 117.725 L
259.12 115.984 L
260.014 114.242 L
260.908 112.63 L
261.802 111.03 L
262.695 109.458 L
263.589 107.925 L
264.483 106.392 L
265.377 104.994 L
266.271 103.607 L
267.164 102.253 L
268.058 100.944 L
268.952 99.634 L
269.846 98.47 L
270.739 97.315 L
271.633 96.205 L
272.527 95.153 L
273.421 94.101 L
274.315 93.194 L
275.208 92.295 L
276.102 91.43 L
276.996 90.607 L
277.89 89.783 L
278.784 89.096 L
279.677 88.415 L
280.571 87.762 L
281.465 87.143 L
282.359 86.524 L
283.253 86.037 L
284.146 85.554 L
285.04 85.1 L
285.934 84.676 L
286.828 84.252 L
287.721 83.959 L
288.615 83.669 L
289.509 83.408 L
290.403 83.179 L
291.297 82.95 L
292.19 82.85 L
293.084 82.752 L
293.978 82.686 L
294.872 82.653 L
295.766 82.62 L
296.659 82.714 L
297.553 82.809 L
298.447 82.938 L
299.341 83.103 L
300.234 83.268 L
301.128 83.556 L
302.022 83.844 L
302.916 84.17 L
303.81 84.532 L
304.703 84.896 L
305.597 85.375 L
306.491 85.855 L
307.385 86.375 L
308.279 86.933 L
309.172 87.493 L
310.066 88.162 L
310.96 88.832 L
311.854 89.545 L
312.747 90.297 L
313.641 91.053 L
314.535 91.913 L
315.429 92.773 L
316.323 93.683 L
317.216 94.634 L
318.11 95.591 L
319.004 96.65 L
319.898 97.708 L
320.792 98.826 L
321.685 99.993 L
322.579 101.165 L
323.473 102.446 L
324.367 103.726 L
325.261 105.082 L
326.154 106.498 L
327.048 107.921 L
327.942 109.449 L
328.836 110.978 L
329.729 112.568 L
330.623 114.204 L
331.517 115.849 L
332.411 117.588 L
333.305 119.328 L
334.198 121.121 L
335.092 122.952 L
335.986 124.792 L
336.88 126.724 L
337.774 128.656 L
338.667 130.635 L
339.561 132.648 L
340.455 134.67 L
341.349 136.784 L
342.242 138.898 L
343.136 141.052 L
344.03 143.234 L
344.924 145.426 L
345.818 147.712 L
346.711 149.998 L
347.605 152.313 L
348.499 154.647 L
349.393 156.992 L
350.287 159.433 L
351.18 161.873 L
352.074 164.323 L
352.968 166.778 L
353.862 169.247 L
354.755 171.808 L
355.649 174.368 L
356.543 176.909 L
357.437 179.437 L
358.331 181.979 L
359.224 184.603 L
360.118 187.227 L
361.012 189.787 L
361.906 192.311 L
362.8 194.848 L
363.693 197.467 L
364.587 200.085 L
365.481 202.626 L
366.375 205.124 L
367.269 207.639 L
368.162 210.239 L
369.056 212.839 L
369.95 215.337 L
370.844 217.783 L
371.737 220.246 L
372.631 222.793 L
373.525 225.34 L
374.419 227.757 L
375.313 230.11 L
376.206 232.48 L
377.1 234.93 L
377.994 237.38 L
378.888 239.674 L
379.782 241.894 L
380.675 244.131 L
381.569 246.442 L
382.463 248.753 L
383.357 250.891 L
384.251 252.951 L
385.144 255.028 L
386.038 257.171 L
386.932 259.314 L
387.826 261.284 L
388.719 263.18 L
389.613 265.092 L
390.507 267.061 L
391.401 269.031 L
392.295 270.854 L
393.188 272.617 L
394.082 274.393 L
394.976 276.217 L
395.87 278.041 L
396.764 279.78 L
397.657 281.486 L
398.551 283.202 L
399.445 284.95 L
400.339 286.699 L
401.232 289.312 L
402.126 292.244 L
403.02 295.111 L
403.914 297.767 L
404.808 300.422 L
405.701 303.017 L
406.595 305.59 L
407.489 308.114 L
408.383 310.487 L
409.277 312.86 L
410.17 315.119 L
411.064 317.34 L
411.958 319.526 L
412.852 321.608 L
413.745 323.69 L
414.639 325.634 L
415.533 327.533 L
416.427 329.407 L
417.321 331.21 L
418.214 333.014 L
419.108 334.675 L
420.002 336.294 L
420.896 337.894 L
421.79 339.442 L
422.683 340.99 L
423.577 342.41 L
424.471 343.794 L
425.365 345.161 L
426.259 346.483 L
427.152 347.805 L
428.046 349.023 L
428.94 350.214 L
429.834 351.386 L
430.727 352.513 L
431.621 353.639 L
432.515 354.691 L
433.409 355.723 L
434.303 356.734 L
435.196 357.693 L
436.09 358.652 L
436.984 359.563 L
437.878 360.464 L
438.772 361.337 L
439.665 362.154 L
440.559 362.971 L
441.453 363.761 L
442.347 364.545 L
443.24 365.3 L
444.134 365.994 L
445.028 366.689 L
445.922 367.369 L
446.816 368.047 L
447.709 368.695 L
448.603 369.286 L
449.497 369.876 L
450.391 370.455 L
451.285 371.032 L
452.178 371.584 L
453.072 372.088 L
453.966 372.593 L
454.86 373.081 L
455.754 373.566 L
456.647 374.036 L
457.541 374.48 L
458.435 374.923 L
459.329 375.341 L
460.222 375.755 L
461.116 376.171 L
462.01 376.591 L
462.904 377.011 L
463.798 377.215 L
464.691 377.386 L
465.585 377.559 L
466.479 377.732 L
467.373 377.905 L
468.267 378.073 L
469.16 378.241 L
470.054 378.402 L
470.948 378.553 L
471.842 378.704 L
472.735 378.86 L
473.629 379.016 L
474.523 379.164 L
475.417 379.299 L
476.311 379.434 L
477.204 379.575 L
478.098 379.716 L
478.992 379.85 L
479.886 379.973 L
480.78 380.096 L
481.673 380.221 L
482.567 380.346 L
483.461 380.466 L
484.355 380.58 L
485.249 380.694 L
486.142 380.803 L
487.036 380.912 L
487.93 381.02 L
488.824 381.127 L
489.717 381.234 L
490.611 381.329 L
491.505 381.424 L
492.399 381.521 L
493.293 381.621 L
494.186 381.722 L
495.08 381.806 L
495.974 381.889 L
496.868 381.977 L
497.762 382.072 L
498.655 382.166 L
499.549 382.242 L
500.443 382.316 L
501.337 382.397 L
502.23 382.485 L
503.124 382.574 L
504.018 382.644 L
504.912 382.714 L
505.806 382.789 L
506.699 382.87 L
507.593 382.951 L
508.487 383.021 L
509.381 383.09 L
510.275 383.161 L
511.168 383.234 L
512.062 383.307 L
512.956 383.379 L
513.85 383.452 L
514.743 383.52 L
515.637 383.583 L
516.531 383.646 L
517.425 383.726 L
518.319 383.806 L
519.212 383.872 L
520.106 383.923 L
521 383.975 L
S
GR
GS
0 0 1 RC
[8 3 2 3] 0 setdash
2 LJ
1.3 LW
N
75 383.991 M
75.894 383.896 L
76.788 383.798 L
77.681 383.695 L
78.575 383.591 L
79.469 383.487 L
80.363 383.383 L
81.257 383.28 L
82.15 383.176 L
83.044 383.071 L
83.938 382.965 L
84.832 382.859 L
85.725 382.751 L
86.619 382.643 L
87.513 382.534 L
88.407 382.424 L
89.301 382.314 L
90.194 382.202 L
91.088 382.089 L
91.982 381.974 L
92.876 381.858 L
93.77 381.741 L
94.663 381.623 L
95.557 381.503 L
96.451 381.381 L
97.345 381.258 L
98.238 381.134 L
99.132 381.007 L
100.026 380.878 L
100.92 380.748 L
101.814 380.615 L
102.707 380.48 L
103.601 380.343 L
104.495 380.203 L
105.389 380.061 L
106.283 379.917 L
107.176 379.769 L
108.07 379.619 L
108.964 379.465 L
109.858 379.308 L
110.752 379.148 L
111.645 378.985 L
112.539 378.817 L
113.433 378.646 L
114.327 378.471 L
115.22 378.291 L
116.114 378.106 L
117.008 377.917 L
117.902 377.723 L
118.796 377.523 L
119.689 377.318 L
120.583 377.108 L
121.477 376.891 L
122.371 376.667 L
123.265 376.437 L
124.158 376.2 L
125.052 375.955 L
125.946 375.703 L
126.84 375.441 L
127.733 375.172 L
128.627 374.893 L
129.521 374.604 L
130.415 374.306 L
131.309 373.997 L
132.202 373.677 L
133.096 373.346 L
133.99 373.002 L
134.884 372.646 L
135.778 372.277 L
136.671 371.894 L
137.565 371.497 L
138.459 371.085 L
139.353 370.657 L
140.246 370.214 L
141.14 369.753 L
142.034 369.275 L
142.928 368.779 L
143.822 368.264 L
144.715 367.729 L
145.609 367.175 L
146.503 366.599 L
147.397 366 L
148.291 365.379 L
149.184 364.735 L
150.078 364.065 L
150.972 363.37 L
151.866 362.649 L
152.76 361.9 L
153.653 361.123 L
154.547 360.318 L
155.441 359.484 L
156.335 358.618 L
157.228 357.719 L
158.122 356.788 L
159.016 355.822 L
159.91 354.82 L
160.804 353.782 L
161.697 352.705 L
162.591 351.589 L
163.485 350.433 L
164.379 349.237 L
165.273 348.001 L
166.166 346.714 L
167.06 345.35 L
167.954 343.939 L
168.848 342.487 L
169.741 340.986 L
170.635 339.454 L
171.529 337.893 L
172.423 336.296 L
173.317 334.658 L
174.21 332.984 L
175.104 331.274 L
175.998 329.533 L
176.892 327.755 L
177.786 325.943 L
178.679 324.098 L
179.573 322.22 L
180.467 320.309 L
181.361 318.364 L
182.255 316.388 L
183.148 314.382 L
184.042 312.348 L
184.936 310.287 L
185.83 308.2 L
186.723 306.089 L
187.617 303.954 L
188.511 301.797 L
189.405 299.62 L
190.299 297.423 L
191.192 295.208 L
192.086 292.977 L
192.98 290.73 L
193.874 288.471 L
194.768 286.2 L
195.661 283.918 L
196.555 281.628 L
197.449 279.327 L
198.343 277.018 L
199.236 274.701 L
200.13 272.38 L
201.024 270.051 L
201.918 267.716 L
202.812 265.376 L
203.705 263.032 L
204.599 260.68 L
205.493 258.323 L
206.387 255.959 L
207.281 253.588 L
208.174 251.21 L
209.068 248.825 L
209.962 246.433 L
210.856 244.036 L
211.749 241.634 L
212.643 239.223 L
213.537 236.806 L
214.431 234.382 L
215.325 231.95 L
216.218 229.51 L
217.112 227.061 L
218.006 224.605 L
218.9 222.142 L
219.794 219.671 L
220.687 217.192 L
221.581 214.706 L
222.475 212.214 L
223.369 209.717 L
224.263 207.213 L
225.156 204.706 L
226.05 202.197 L
226.944 199.685 L
227.838 197.172 L
228.731 194.657 L
229.625 192.143 L
230.519 189.631 L
231.413 187.12 L
232.307 184.613 L
233.2 182.111 L
234.094 179.616 L
234.988 177.13 L
235.882 174.653 L
236.776 172.185 L
237.669 169.73 L
238.563 167.291 L
239.457 164.865 L
240.351 162.454 L
241.244 160.061 L
242.138 157.689 L
243.032 155.337 L
243.926 153.005 L
244.82 150.696 L
245.713 148.415 L
246.607 146.158 L
247.501 143.927 L
248.395 141.723 L
249.289 139.55 L
250.182 137.407 L
251.076 135.295 L
251.97 133.215 L
252.864 131.169 L
253.758 129.158 L
254.651 127.182 L
255.545 125.242 L
256.439 123.34 L
257.333 121.477 L
258.226 119.653 L
259.12 117.868 L
260.014 116.123 L
260.908 114.42 L
261.802 112.759 L
262.695 111.139 L
263.589 109.562 L
264.483 108.028 L
265.377 106.539 L
266.271 105.093 L
267.164 103.69 L
268.058 102.332 L
268.952 101.02 L
269.846 99.752 L
270.739 98.528 L
271.633 97.35 L
272.527 96.218 L
273.421 95.13 L
274.315 94.088 L
275.208 93.09 L
276.102 92.139 L
276.996 91.233 L
277.89 90.371 L
278.784 89.553 L
279.677 88.781 L
280.571 88.055 L
281.465 87.372 L
282.359 86.732 L
283.253 86.138 L
284.146 85.588 L
285.04 85.08 L
285.934 84.617 L
286.828 84.198 L
287.721 83.821 L
288.615 83.487 L
289.509 83.197 L
290.403 82.949 L
291.297 82.744 L
292.19 82.582 L
293.084 82.462 L
293.978 82.384 L
294.872 82.349 L
295.766 82.356 L
296.659 82.406 L
297.553 82.497 L
298.447 82.63 L
299.341 82.806 L
300.234 83.023 L
301.128 83.283 L
302.022 83.585 L
302.916 83.929 L
303.81 84.315 L
304.703 84.744 L
305.597 85.215 L
306.491 85.728 L
307.385 86.283 L
308.279 86.881 L
309.172 87.522 L
310.066 88.205 L
310.96 88.931 L
311.854 89.7 L
312.747 90.512 L
313.641 91.367 L
314.535 92.264 L
315.429 93.205 L
316.323 94.19 L
317.216 95.217 L
318.11 96.287 L
319.004 97.401 L
319.898 98.559 L
320.792 99.758 L
321.685 101.002 L
322.579 102.289 L
323.473 103.618 L
324.367 104.99 L
325.261 106.405 L
326.154 107.863 L
327.048 109.361 L
327.942 110.902 L
328.836 112.485 L
329.729 114.108 L
330.623 115.771 L
331.517 117.474 L
332.411 119.217 L
333.305 120.998 L
334.198 122.818 L
335.092 124.674 L
335.986 126.567 L
336.88 128.497 L
337.774 130.461 L
338.667 132.459 L
339.561 134.491 L
340.455 136.555 L
341.349 138.649 L
342.242 140.774 L
343.136 142.93 L
344.03 145.114 L
344.924 147.325 L
345.818 149.564 L
346.711 151.828 L
347.605 154.115 L
348.499 156.426 L
349.393 158.757 L
350.287 161.11 L
351.18 163.483 L
352.074 165.874 L
352.968 168.281 L
353.862 170.703 L
354.755 173.137 L
355.649 175.584 L
356.543 178.043 L
357.437 180.514 L
358.331 182.992 L
359.224 185.478 L
360.118 187.97 L
361.012 190.47 L
361.906 192.976 L
362.8 195.483 L
363.693 197.992 L
364.587 200.501 L
365.481 203.009 L
366.375 205.516 L
367.269 208.021 L
368.162 210.527 L
369.056 213.03 L
369.95 215.527 L
370.844 218.02 L
371.737 220.508 L
372.631 222.99 L
373.525 225.468 L
374.419 227.935 L
375.313 230.394 L
376.206 232.847 L
377.1 235.291 L
377.994 237.724 L
378.888 240.146 L
379.782 242.559 L
380.675 244.962 L
381.569 247.355 L
382.463 249.738 L
383.357 252.108 L
384.251 254.467 L
385.144 256.813 L
386.038 259.146 L
386.932 261.464 L
387.826 263.77 L
388.719 266.06 L
389.613 268.335 L
390.507 270.596 L
391.401 272.842 L
392.295 275.074 L
393.188 277.287 L
394.082 279.484 L
394.976 281.664 L
395.87 283.826 L
396.764 285.97 L
397.657 288.098 L
398.551 290.207 L
399.445 292.296 L
400.339 294.365 L
401.232 296.413 L
402.126 298.439 L
403.02 300.445 L
403.914 302.43 L
404.808 304.393 L
405.701 306.333 L
406.595 308.249 L
407.489 310.143 L
408.383 312.013 L
409.277 313.86 L
410.17 315.681 L
411.064 317.478 L
411.958 319.249 L
412.852 320.995 L
413.745 322.715 L
414.639 324.408 L
415.533 326.074 L
416.427 327.713 L
417.321 329.325 L
418.214 330.909 L
419.108 332.465 L
420.002 333.993 L
420.896 335.493 L
421.79 336.965 L
422.683 338.409 L
423.577 339.825 L
424.471 341.214 L
425.365 342.575 L
426.259 343.906 L
427.152 345.208 L
428.046 346.48 L
428.94 347.725 L
429.834 348.942 L
430.727 350.133 L
431.621 351.297 L
432.515 352.439 L
433.409 353.564 L
434.303 354.669 L
435.196 355.749 L
436.09 356.804 L
436.984 357.825 L
437.878 358.81 L
438.772 359.76 L
439.665 360.674 L
440.559 361.554 L
441.453 362.4 L
442.347 363.214 L
443.24 363.995 L
444.134 364.745 L
445.028 365.466 L
445.922 366.157 L
446.816 366.819 L
447.709 367.453 L
448.603 368.061 L
449.497 368.643 L
450.391 369.199 L
451.285 369.732 L
452.178 370.242 L
453.072 370.729 L
453.966 371.195 L
454.86 371.64 L
455.754 372.066 L
456.647 372.473 L
457.541 372.862 L
458.435 373.235 L
459.329 373.591 L
460.222 373.931 L
461.116 374.257 L
462.01 374.57 L
462.904 374.869 L
463.798 375.157 L
464.691 375.432 L
465.585 375.698 L
466.479 375.952 L
467.373 376.198 L
468.267 376.434 L
469.16 376.663 L
470.054 376.883 L
470.948 377.096 L
471.842 377.303 L
472.735 377.502 L
473.629 377.696 L
474.523 377.885 L
475.417 378.068 L
476.311 378.246 L
477.204 378.419 L
478.098 378.589 L
478.992 378.754 L
479.886 378.915 L
480.78 379.072 L
481.673 379.226 L
482.567 379.376 L
483.461 379.523 L
484.355 379.668 L
485.249 379.809 L
486.142 379.948 L
487.036 380.084 L
487.93 380.217 L
488.824 380.348 L
489.717 380.477 L
490.611 380.603 L
491.505 380.728 L
492.399 380.85 L
493.293 380.97 L
494.186 381.088 L
495.08 381.204 L
495.974 381.319 L
496.868 381.432 L
497.762 381.543 L
498.655 381.652 L
499.549 381.76 L
500.443 381.867 L
501.337 381.972 L
502.23 382.075 L
503.124 382.178 L
504.018 382.279 L
504.912 382.379 L
505.806 382.478 L
506.699 382.576 L
507.593 382.673 L
508.487 382.769 L
509.381 382.865 L
510.275 382.96 L
511.168 383.054 L
512.062 383.147 L
512.956 383.24 L
513.85 383.331 L
514.743 383.423 L
515.637 383.514 L
516.531 383.605 L
517.425 383.69 L
518.319 383.77 L
519.212 383.844 L
520.106 383.913 L
521 383.974 L
S
GR
GS
[10 6] 0 setdash
2 LJ
1.3 LW
N
75 383.991 M
75.894 383.894 L
76.788 383.793 L
77.681 383.689 L
78.575 383.582 L
79.469 383.476 L
80.363 383.37 L
81.257 383.265 L
82.15 383.158 L
83.044 383.051 L
83.938 382.944 L
84.832 382.835 L
85.725 382.725 L
86.619 382.615 L
87.513 382.504 L
88.407 382.392 L
89.301 382.279 L
90.194 382.165 L
91.088 382.049 L
91.982 381.933 L
92.876 381.815 L
93.77 381.695 L
94.663 381.574 L
95.557 381.452 L
96.451 381.328 L
97.345 381.202 L
98.238 381.075 L
99.132 380.945 L
100.026 380.814 L
100.92 380.68 L
101.814 380.545 L
102.707 380.407 L
103.601 380.266 L
104.495 380.124 L
105.389 379.978 L
106.283 379.83 L
107.176 379.678 L
108.07 379.524 L
108.964 379.367 L
109.858 379.206 L
110.752 379.042 L
111.645 378.874 L
112.539 378.702 L
113.433 378.526 L
114.327 378.346 L
115.22 378.162 L
116.114 377.973 L
117.008 377.778 L
117.902 377.579 L
118.796 377.375 L
119.689 377.165 L
120.583 376.949 L
121.477 376.727 L
122.371 376.498 L
123.265 376.263 L
124.158 376.02 L
125.052 375.771 L
125.946 375.513 L
126.84 375.247 L
127.733 374.973 L
128.627 374.689 L
129.521 374.396 L
130.415 374.093 L
131.309 373.781 L
132.202 373.457 L
133.096 373.122 L
133.99 372.776 L
134.884 372.417 L
135.778 372.046 L
136.671 371.662 L
137.565 371.264 L
138.459 370.852 L
139.353 370.425 L
140.246 369.983 L
141.14 369.524 L
142.034 369.049 L
142.928 368.556 L
143.822 368.044 L
144.715 367.514 L
145.609 366.965 L
146.503 366.396 L
147.397 365.805 L
148.291 365.192 L
149.184 364.556 L
150.078 363.897 L
150.972 363.212 L
151.866 362.501 L
152.76 361.764 L
153.653 361 L
154.547 360.208 L
155.441 359.386 L
156.335 358.534 L
157.228 357.65 L
158.122 356.735 L
159.016 355.786 L
159.91 354.802 L
160.804 353.781 L
161.697 352.721 L
162.591 351.62 L
163.485 350.481 L
164.379 349.301 L
165.273 348.078 L
166.166 346.795 L
167.06 345.434 L
167.954 344.021 L
168.848 342.564 L
169.741 341.06 L
170.635 339.528 L
171.529 337.969 L
172.423 336.38 L
173.317 334.756 L
174.21 333.099 L
175.104 331.412 L
175.998 329.694 L
176.892 327.946 L
177.786 326.168 L
178.679 324.357 L
179.573 322.516 L
180.467 320.644 L
181.361 318.742 L
182.255 316.81 L
183.148 314.85 L
184.042 312.862 L
184.936 310.849 L
185.83 308.81 L
186.723 306.747 L
187.617 304.658 L
188.511 302.546 L
189.405 300.411 L
190.299 298.254 L
191.192 296.077 L
192.086 293.881 L
192.98 291.667 L
193.874 289.434 L
194.768 287.184 L
195.661 284.918 L
196.555 282.637 L
197.449 280.343 L
198.343 278.037 L
199.236 275.719 L
200.13 273.392 L
201.024 271.054 L
201.918 268.706 L
202.812 266.349 L
203.705 263.982 L
204.599 261.606 L
205.493 259.221 L
206.387 256.826 L
207.281 254.422 L
208.174 252.009 L
209.068 249.588 L
209.962 247.157 L
210.856 244.719 L
211.749 242.274 L
212.643 239.819 L
213.537 237.358 L
214.431 234.889 L
215.325 232.412 L
216.218 229.927 L
217.112 227.435 L
218.006 224.936 L
218.9 222.431 L
219.794 219.921 L
220.687 217.408 L
221.581 214.89 L
222.475 212.368 L
223.369 209.842 L
224.263 207.314 L
225.156 204.784 L
226.05 202.252 L
226.944 199.721 L
227.838 197.191 L
228.731 194.663 L
229.625 192.136 L
230.519 189.614 L
231.413 187.096 L
232.307 184.584 L
233.2 182.077 L
234.094 179.576 L
234.988 177.083 L
235.882 174.602 L
236.776 172.133 L
237.669 169.676 L
238.563 167.233 L
239.457 164.806 L
240.351 162.396 L
241.244 160.003 L
242.138 157.628 L
243.032 155.273 L
243.926 152.937 L
244.82 150.625 L
245.713 148.335 L
246.607 146.071 L
247.501 143.83 L
248.395 141.615 L
249.289 139.427 L
250.182 137.266 L
251.076 135.133 L
251.97 133.029 L
252.864 130.958 L
253.758 128.919 L
254.651 126.911 L
255.545 124.939 L
256.439 123.004 L
257.333 121.106 L
258.226 119.244 L
259.12 117.422 L
260.014 115.639 L
260.908 113.896 L
261.802 112.194 L
262.695 110.534 L
263.589 108.915 L
264.483 107.338 L
265.377 105.806 L
266.271 104.317 L
267.164 102.872 L
268.058 101.471 L
268.952 100.114 L
269.846 98.803 L
270.739 97.538 L
271.633 96.316 L
272.527 95.142 L
273.421 94.013 L
274.315 92.93 L
275.208 91.891 L
276.102 90.9 L
276.996 89.956 L
277.89 89.056 L
278.784 88.203 L
279.677 87.396 L
280.571 86.635 L
281.465 85.92 L
282.359 85.25 L
283.253 84.625 L
284.146 84.048 L
285.04 83.515 L
285.934 83.027 L
286.828 82.585 L
287.721 82.188 L
288.615 81.836 L
289.509 81.529 L
290.403 81.267 L
291.297 81.049 L
292.19 80.877 L
293.084 80.749 L
293.978 80.665 L
294.872 80.626 L
295.766 80.631 L
296.659 80.681 L
297.553 80.774 L
298.447 80.912 L
299.341 81.096 L
300.234 81.323 L
301.128 81.593 L
302.022 81.908 L
302.916 82.268 L
303.81 82.672 L
304.703 83.118 L
305.597 83.611 L
306.491 84.148 L
307.385 84.728 L
308.279 85.352 L
309.172 86.022 L
310.066 86.736 L
310.96 87.493 L
311.854 88.296 L
312.747 89.143 L
313.641 90.034 L
314.535 90.969 L
315.429 91.95 L
316.323 92.974 L
317.216 94.04 L
318.11 95.154 L
319.004 96.311 L
319.898 97.51 L
320.792 98.754 L
321.685 100.042 L
322.579 101.372 L
323.473 102.747 L
324.367 104.163 L
325.261 105.623 L
326.154 107.124 L
327.048 108.667 L
327.942 110.252 L
328.836 111.877 L
329.729 113.542 L
330.623 115.248 L
331.517 116.992 L
332.411 118.775 L
333.305 120.595 L
334.198 122.453 L
335.092 124.346 L
335.986 126.275 L
336.88 128.239 L
337.774 130.237 L
338.667 132.265 L
339.561 134.326 L
340.455 136.419 L
341.349 138.541 L
342.242 140.689 L
343.136 142.867 L
344.03 145.078 L
344.924 147.32 L
345.818 149.587 L
346.711 151.882 L
347.605 154.205 L
348.499 156.549 L
349.393 158.91 L
350.287 161.291 L
351.18 163.695 L
352.074 166.117 L
352.968 168.555 L
353.862 171.011 L
354.755 173.48 L
355.649 175.959 L
356.543 178.452 L
357.437 180.959 L
358.331 183.474 L
359.224 185.993 L
360.118 188.521 L
361.012 191.061 L
361.906 193.604 L
362.8 196.147 L
363.693 198.695 L
364.587 201.251 L
365.481 203.808 L
366.375 206.364 L
367.269 208.917 L
368.162 211.466 L
369.056 214.016 L
369.95 216.562 L
370.844 219.103 L
371.737 221.639 L
372.631 224.169 L
373.525 226.693 L
374.419 229.207 L
375.313 231.707 L
376.206 234.198 L
377.1 236.681 L
377.994 239.154 L
378.888 241.614 L
379.782 244.06 L
380.675 246.496 L
381.569 248.919 L
382.463 251.331 L
383.357 253.729 L
384.251 256.108 L
385.144 258.47 L
386.038 260.818 L
386.932 263.149 L
387.826 265.465 L
388.719 267.763 L
389.613 270.044 L
390.507 272.306 L
391.401 274.549 L
392.295 276.773 L
393.188 278.98 L
394.082 281.168 L
394.976 283.335 L
395.87 285.483 L
396.764 287.611 L
397.657 289.719 L
398.551 291.803 L
399.445 293.864 L
400.339 295.903 L
401.232 297.92 L
402.126 299.914 L
403.02 301.884 L
403.914 303.832 L
404.808 305.755 L
405.701 307.654 L
406.595 309.528 L
407.489 311.378 L
408.383 313.203 L
409.277 315.004 L
410.17 316.779 L
411.064 318.528 L
411.958 320.253 L
412.852 321.952 L
413.745 323.625 L
414.639 325.272 L
415.533 326.893 L
416.427 328.488 L
417.321 330.056 L
418.214 331.597 L
419.108 333.112 L
420.002 334.601 L
420.896 336.062 L
421.79 337.496 L
422.683 338.903 L
423.577 340.284 L
424.471 341.639 L
425.365 342.968 L
426.259 344.269 L
427.152 345.544 L
428.046 346.792 L
428.94 348.014 L
429.834 349.21 L
430.727 350.381 L
431.621 351.528 L
432.515 352.656 L
433.409 353.774 L
434.303 354.878 L
435.196 355.959 L
436.09 357.01 L
436.984 358.028 L
437.878 359.005 L
438.772 359.944 L
439.665 360.847 L
440.559 361.716 L
441.453 362.548 L
442.347 363.347 L
443.24 364.114 L
444.134 364.85 L
445.028 365.555 L
445.922 366.231 L
446.816 366.878 L
447.709 367.498 L
448.603 368.091 L
449.497 368.659 L
450.391 369.203 L
451.285 369.724 L
452.178 370.222 L
453.072 370.699 L
453.966 371.155 L
454.86 371.592 L
455.754 372.01 L
456.647 372.41 L
457.541 372.793 L
458.435 373.16 L
459.329 373.512 L
460.222 373.849 L
461.116 374.173 L
462.01 374.484 L
462.904 374.782 L
463.798 375.069 L
464.691 375.345 L
465.585 375.611 L
466.479 375.867 L
467.373 376.113 L
468.267 376.352 L
469.16 376.582 L
470.054 376.804 L
470.948 377.02 L
471.842 377.228 L
472.735 377.431 L
473.629 377.627 L
474.523 377.818 L
475.417 378.004 L
476.311 378.184 L
477.204 378.36 L
478.098 378.532 L
478.992 378.699 L
479.886 378.862 L
480.78 379.022 L
481.673 379.178 L
482.567 379.33 L
483.461 379.479 L
484.355 379.625 L
485.249 379.769 L
486.142 379.909 L
487.036 380.047 L
487.93 380.181 L
488.824 380.314 L
489.717 380.444 L
490.611 380.572 L
491.505 380.697 L
492.399 380.821 L
493.293 380.942 L
494.186 381.062 L
495.08 381.179 L
495.974 381.295 L
496.868 381.409 L
497.762 381.521 L
498.655 381.632 L
499.549 381.741 L
500.443 381.849 L
501.337 381.955 L
502.23 382.06 L
503.124 382.164 L
504.018 382.267 L
504.912 382.368 L
505.806 382.468 L
506.699 382.568 L
507.593 382.666 L
508.487 382.764 L
509.381 382.861 L
510.275 382.957 L
511.168 383.052 L
512.062 383.147 L
512.956 383.241 L
513.85 383.334 L
514.743 383.427 L
515.637 383.52 L
516.531 383.61 L
517.425 383.694 L
518.319 383.772 L
519.212 383.845 L
520.106 383.914 L
521 383.974 L
S
GR
GS
1 GC
N
85 95 M
85 42 L
206 42 L
206 95 L
cp
f
GR
GS
[1 0 0 1 124.02724 52] CT
/Helvetica 17 F
GS
[1 0 0 1 0 0] CT
0 5.09 moveto 
1 -1 scale
(Mean) t 
GR
GR
GS
1 0 0 RC
2 setlinecap
10.0 ML
1.3 LW
N
91.004 52 M
121.025 52 L
S
GR
GS
[1 0 0 1 124.02724 68.5] CT
/Helvetica 17 F
GS
[1 0 0 1 0 0] CT
0 5.09 moveto 
1 -1 scale
(Var = 0.04) t 
GR
GR
GS
0 0 1 RC
[8 3 2 3] 0 setdash
2 LJ
1.3 LW
N
91.004 68.5 M
121.025 68.5 L
S
GR
GS
[1 0 0 1 124.02724 85] CT
/Helvetica 17 F
GS
[1 0 0 1 0 0] CT
0 5.09 moveto 
1 -1 scale
(Var = 0.05) t 
GR
GR
GS
[10 6] 0 setdash
2 LJ
1.3 LW
N
91.004 85 M
121.025 85 L
S
GR
GS
0.149 GC
2 setlinecap
10.0 ML
N
85 95 M
85 42 L
206 42 L
206 95 L
85 95 L
S
GR
%%Trailer
%%BoundingBox: 9 2 526 409
%%Pages: 1
%%EOF
