%!PS-Adobe-3.0 EPSF-3.0
%%Creator: (MATLAB, The Mathworks, Inc. Version 8.5.0.197613 \(R2015a\). Operating System: Mac OS X)
%%Title: ./mean_control_p13.eps
%%CreationDate: 2015-06-01T15:54:00
%%Pages: (atend)
%%BoundingBox: (atend)
%%LanguageLevel: 3
%%EndComments
%%BeginProlog
%%BeginResource: procset (Apache XML Graphics Std ProcSet) 1.2 0
%%Version: 1.2 0
%%Copyright: (Copyright 2001-2003,2010 The Apache Software Foundation. License terms: http://www.apache.org/licenses/LICENSE-2.0)
/bd{bind def}bind def
/ld{load def}bd
/GR/grestore ld
/M/moveto ld
/LJ/setlinejoin ld
/C/curveto ld
/f/fill ld
/LW/setlinewidth ld
/GC/setgray ld
/t/show ld
/N/newpath ld
/CT/concat ld
/cp/closepath ld
/S/stroke ld
/L/lineto ld
/CC/setcmykcolor ld
/A/ashow ld
/GS/gsave ld
/RC/setrgbcolor ld
/RM/rmoveto ld
/ML/setmiterlimit ld
/re {4 2 roll M
1 index 0 rlineto
0 exch rlineto
neg 0 rlineto
cp } bd
/_ctm matrix def
/_tm matrix def
/BT { _ctm currentmatrix pop matrix _tm copy pop 0 0 moveto } bd
/ET { _ctm setmatrix } bd
/iTm { _ctm setmatrix _tm concat } bd
/Tm { _tm astore pop iTm 0 0 moveto } bd
/ux 0.0 def
/uy 0.0 def
/F {
  /Tp exch def
  /Tf exch def
  Tf findfont Tp scalefont setfont
  /cf Tf def  /cs Tp def
} bd
/ULS {currentpoint /uy exch def /ux exch def} bd
/ULE {
  /Tcx currentpoint pop def
  gsave
  newpath
  cf findfont cs scalefont dup
  /FontMatrix get 0 get /Ts exch def /FontInfo get dup
  /UnderlinePosition get Ts mul /To exch def
  /UnderlineThickness get Ts mul /Tt exch def
  ux uy To add moveto  Tcx uy To add lineto
  Tt setlinewidth stroke
  grestore
} bd
/OLE {
  /Tcx currentpoint pop def
  gsave
  newpath
  cf findfont cs scalefont dup
  /FontMatrix get 0 get /Ts exch def /FontInfo get dup
  /UnderlinePosition get Ts mul /To exch def
  /UnderlineThickness get Ts mul /Tt exch def
  ux uy To add cs add moveto Tcx uy To add cs add lineto
  Tt setlinewidth stroke
  grestore
} bd
/SOE {
  /Tcx currentpoint pop def
  gsave
  newpath
  cf findfont cs scalefont dup
  /FontMatrix get 0 get /Ts exch def /FontInfo get dup
  /UnderlinePosition get Ts mul /To exch def
  /UnderlineThickness get Ts mul /Tt exch def
  ux uy To add cs 10 mul 26 idiv add moveto Tcx uy To add cs 10 mul 26 idiv add lineto
  Tt setlinewidth stroke
  grestore
} bd
/QT {
/Y22 exch store
/X22 exch store
/Y21 exch store
/X21 exch store
currentpoint
/Y21 load 2 mul add 3 div exch
/X21 load 2 mul add 3 div exch
/X21 load 2 mul /X22 load add 3 div
/Y21 load 2 mul /Y22 load add 3 div
/X22 load /Y22 load curveto
} bd
/SSPD {
dup length /d exch dict def
{
/v exch def
/k exch def
currentpagedevice k known {
/cpdv currentpagedevice k get def
v cpdv ne {
/upd false def
/nullv v type /nulltype eq def
/nullcpdv cpdv type /nulltype eq def
nullv nullcpdv or
{
/upd true def
} {
/sametype v type cpdv type eq def
sametype {
v type /arraytype eq {
/vlen v length def
/cpdvlen cpdv length def
vlen cpdvlen eq {
0 1 vlen 1 sub {
/i exch def
/obj v i get def
/cpdobj cpdv i get def
obj cpdobj ne {
/upd true def
exit
} if
} for
} {
/upd true def
} ifelse
} {
v type /dicttype eq {
v {
/dv exch def
/dk exch def
/cpddv cpdv dk get def
dv cpddv ne {
/upd true def
exit
} if
} forall
} {
/upd true def
} ifelse
} ifelse
} if
} ifelse
upd true eq {
d k v put
} if
} if
} if
} forall
d length 0 gt {
d setpagedevice
} if
} bd
%%EndResource
%%BeginResource: procset (Apache XML Graphics EPS ProcSet) 1.0 0
%%Version: 1.0 0
%%Copyright: (Copyright 2002-2003 The Apache Software Foundation. License terms: http://www.apache.org/licenses/LICENSE-2.0)
/BeginEPSF { %def
/b4_Inc_state save def         % Save state for cleanup
/dict_count countdictstack def % Count objects on dict stack
/op_count count 1 sub def      % Count objects on operand stack
userdict begin                 % Push userdict on dict stack
/showpage { } def              % Redefine showpage, { } = null proc
0 setgray 0 setlinecap         % Prepare graphics state
1 setlinewidth 0 setlinejoin
10 setmiterlimit [ ] 0 setdash newpath
/languagelevel where           % If level not equal to 1 then
{pop languagelevel             % set strokeadjust and
1 ne                           % overprint to their defaults.
{false setstrokeadjust false setoverprint
} if
} if
} bd
/EndEPSF { %def
count op_count sub {pop} repeat            % Clean up stacks
countdictstack dict_count sub {end} repeat
b4_Inc_state restore
} bd
%%EndResource
%FOPBeginFontDict
%%IncludeResource: font Courier-Bold
%%IncludeResource: font Helvetica
%%IncludeResource: font Courier-BoldOblique
%%IncludeResource: font Courier-Oblique
%%IncludeResource: font Times-Roman
%%IncludeResource: font Helvetica-BoldOblique
%%IncludeResource: font Helvetica-Bold
%%IncludeResource: font Helvetica-Oblique
%%IncludeResource: font Times-BoldItalic
%%IncludeResource: font Courier
%%IncludeResource: font Times-Italic
%%IncludeResource: font Times-Bold
%%IncludeResource: font Symbol
%%IncludeResource: font ZapfDingbats
%FOPEndFontDict
%%BeginResource: encoding WinAnsiEncoding
/WinAnsiEncoding [
/.notdef /.notdef /.notdef /.notdef /.notdef
/.notdef /.notdef /.notdef /.notdef /.notdef
/.notdef /.notdef /.notdef /.notdef /.notdef
/.notdef /.notdef /.notdef /.notdef /.notdef
/.notdef /.notdef /.notdef /.notdef /.notdef
/.notdef /.notdef /.notdef /.notdef /.notdef
/.notdef /.notdef /space /exclam /quotedbl
/numbersign /dollar /percent /ampersand /quotesingle
/parenleft /parenright /asterisk /plus /comma
/hyphen /period /slash /zero /one
/two /three /four /five /six
/seven /eight /nine /colon /semicolon
/less /equal /greater /question /at
/A /B /C /D /E
/F /G /H /I /J
/K /L /M /N /O
/P /Q /R /S /T
/U /V /W /X /Y
/Z /bracketleft /backslash /bracketright /asciicircum
/underscore /quoteleft /a /b /c
/d /e /f /g /h
/i /j /k /l /m
/n /o /p /q /r
/s /t /u /v /w
/x /y /z /braceleft /bar
/braceright /asciitilde /bullet /Euro /bullet
/quotesinglbase /florin /quotedblbase /ellipsis /dagger
/daggerdbl /circumflex /perthousand /Scaron /guilsinglleft
/OE /bullet /Zcaron /bullet /bullet
/quoteleft /quoteright /quotedblleft /quotedblright /bullet
/endash /emdash /asciitilde /trademark /scaron
/guilsinglright /oe /bullet /zcaron /Ydieresis
/space /exclamdown /cent /sterling /currency
/yen /brokenbar /section /dieresis /copyright
/ordfeminine /guillemotleft /logicalnot /sfthyphen /registered
/macron /degree /plusminus /twosuperior /threesuperior
/acute /mu /paragraph /middot /cedilla
/onesuperior /ordmasculine /guillemotright /onequarter /onehalf
/threequarters /questiondown /Agrave /Aacute /Acircumflex
/Atilde /Adieresis /Aring /AE /Ccedilla
/Egrave /Eacute /Ecircumflex /Edieresis /Igrave
/Iacute /Icircumflex /Idieresis /Eth /Ntilde
/Ograve /Oacute /Ocircumflex /Otilde /Odieresis
/multiply /Oslash /Ugrave /Uacute /Ucircumflex
/Udieresis /Yacute /Thorn /germandbls /agrave
/aacute /acircumflex /atilde /adieresis /aring
/ae /ccedilla /egrave /eacute /ecircumflex
/edieresis /igrave /iacute /icircumflex /idieresis
/eth /ntilde /ograve /oacute /ocircumflex
/otilde /odieresis /divide /oslash /ugrave
/uacute /ucircumflex /udieresis /yacute /thorn
/ydieresis
] def
%%EndResource
%FOPBeginFontReencode
/Courier-Bold findfont
dup length dict begin
  {1 index /FID ne {def} {pop pop} ifelse} forall
  /Encoding WinAnsiEncoding def
  currentdict
end
/Courier-Bold exch definefont pop
/Helvetica findfont
dup length dict begin
  {1 index /FID ne {def} {pop pop} ifelse} forall
  /Encoding WinAnsiEncoding def
  currentdict
end
/Helvetica exch definefont pop
/Courier-BoldOblique findfont
dup length dict begin
  {1 index /FID ne {def} {pop pop} ifelse} forall
  /Encoding WinAnsiEncoding def
  currentdict
end
/Courier-BoldOblique exch definefont pop
/Courier-Oblique findfont
dup length dict begin
  {1 index /FID ne {def} {pop pop} ifelse} forall
  /Encoding WinAnsiEncoding def
  currentdict
end
/Courier-Oblique exch definefont pop
/Times-Roman findfont
dup length dict begin
  {1 index /FID ne {def} {pop pop} ifelse} forall
  /Encoding WinAnsiEncoding def
  currentdict
end
/Times-Roman exch definefont pop
/Helvetica-BoldOblique findfont
dup length dict begin
  {1 index /FID ne {def} {pop pop} ifelse} forall
  /Encoding WinAnsiEncoding def
  currentdict
end
/Helvetica-BoldOblique exch definefont pop
/Helvetica-Bold findfont
dup length dict begin
  {1 index /FID ne {def} {pop pop} ifelse} forall
  /Encoding WinAnsiEncoding def
  currentdict
end
/Helvetica-Bold exch definefont pop
/Helvetica-Oblique findfont
dup length dict begin
  {1 index /FID ne {def} {pop pop} ifelse} forall
  /Encoding WinAnsiEncoding def
  currentdict
end
/Helvetica-Oblique exch definefont pop
/Times-BoldItalic findfont
dup length dict begin
  {1 index /FID ne {def} {pop pop} ifelse} forall
  /Encoding WinAnsiEncoding def
  currentdict
end
/Times-BoldItalic exch definefont pop
/Courier findfont
dup length dict begin
  {1 index /FID ne {def} {pop pop} ifelse} forall
  /Encoding WinAnsiEncoding def
  currentdict
end
/Courier exch definefont pop
/Times-Italic findfont
dup length dict begin
  {1 index /FID ne {def} {pop pop} ifelse} forall
  /Encoding WinAnsiEncoding def
  currentdict
end
/Times-Italic exch definefont pop
/Times-Bold findfont
dup length dict begin
  {1 index /FID ne {def} {pop pop} ifelse} forall
  /Encoding WinAnsiEncoding def
  currentdict
end
/Times-Bold exch definefont pop
%FOPEndFontReencode
%%EndProlog
%%Page: 1 1
%%PageBoundingBox: 0 0 576 432
%%BeginPageSetup
[1 0 0 -1 0 432] CT
%%EndPageSetup
GS
1 GC
N
0 0 576 432 re
f
GR
GS
1 GC
N
0 0 576 432 re
f
GR
GS
1 GC
N
75 384 M
521 384 L
521 32 L
75 32 L
cp
f
GR
GS
[1 0 0 1 298.00021 409.79999] CT
0.149 GC
/Helvetica 21 F
GS
[1 0 0 1 0 0] CT
-5.5 17 moveto 
1 -1 scale
(x) t 
GR
GR
GS
0.149 GC
2 setlinecap
10.0 ML
N
75 384 M
521 384 L
S
GR
GS
0.149 GC
2 setlinecap
10.0 ML
N
75 32 M
521 32 L
S
GR
GS
0.149 GC
2 setlinecap
10.0 ML
N
75 384 M
75 379.54 L
S
GR
GS
0.149 GC
2 setlinecap
10.0 ML
N
164.2 384 M
164.2 379.54 L
S
GR
GS
0.149 GC
2 setlinecap
10.0 ML
N
253.4 384 M
253.4 379.54 L
S
GR
GS
0.149 GC
2 setlinecap
10.0 ML
N
342.6 384 M
342.6 379.54 L
S
GR
GS
0.149 GC
2 setlinecap
10.0 ML
N
431.8 384 M
431.8 379.54 L
S
GR
GS
0.149 GC
2 setlinecap
10.0 ML
N
521 384 M
521 379.54 L
S
GR
GS
0.149 GC
2 setlinecap
10.0 ML
N
75 32 M
75 36.46 L
S
GR
GS
0.149 GC
2 setlinecap
10.0 ML
N
164.2 32 M
164.2 36.46 L
S
GR
GS
0.149 GC
2 setlinecap
10.0 ML
N
253.4 32 M
253.4 36.46 L
S
GR
GS
0.149 GC
2 setlinecap
10.0 ML
N
342.6 32 M
342.6 36.46 L
S
GR
GS
0.149 GC
2 setlinecap
10.0 ML
N
431.8 32 M
431.8 36.46 L
S
GR
GS
0.149 GC
2 setlinecap
10.0 ML
N
521 32 M
521 36.46 L
S
GR
GS
[1 0 0 1 75 389.79999] CT
0.149 GC
/Helvetica 19 F
GS
[1 0 0 1 0 0] CT
-5.5 15 moveto 
1 -1 scale
(0) t 
GR
GR
GS
[1 0 0 1 164.2 389.79999] CT
0.149 GC
/Helvetica 19 F
GS
[1 0 0 1 0 0] CT
-13.5 15 moveto 
1 -1 scale
(0.2) t 
GR
GR
GS
[1 0 0 1 253.40001 389.79999] CT
0.149 GC
/Helvetica 19 F
GS
[1 0 0 1 0 0] CT
-13.5 15 moveto 
1 -1 scale
(0.4) t 
GR
GR
GS
[1 0 0 1 342.60001 389.79999] CT
0.149 GC
/Helvetica 19 F
GS
[1 0 0 1 0 0] CT
-13.5 15 moveto 
1 -1 scale
(0.6) t 
GR
GR
GS
[1 0 0 1 431.80002 389.79999] CT
0.149 GC
/Helvetica 19 F
GS
[1 0 0 1 0 0] CT
-13.5 15 moveto 
1 -1 scale
(0.8) t 
GR
GR
GS
[1 0 0 1 521 389.79999] CT
0.149 GC
/Helvetica 19 F
GS
[1 0 0 1 0 0] CT
-5.5 15 moveto 
1 -1 scale
(1) t 
GR
GR
GS
[0 -1 1 0 29.2 207.99983] CT
0.149 GC
/Helvetica 21 F
GS
[1 0 0 1 0 0] CT
-114.5 -5 moveto 
1 -1 scale
(Average Optimal Source) t 
GR
GR
GS
0.149 GC
2 setlinecap
10.0 ML
N
75 384 M
75 32 L
S
GR
GS
0.149 GC
2 setlinecap
10.0 ML
N
521 384 M
521 32 L
S
GR
GS
0.149 GC
2 setlinecap
10.0 ML
N
75 383.966 M
79.46 383.966 L
S
GR
GS
0.149 GC
2 setlinecap
10.0 ML
N
75 295.974 M
79.46 295.974 L
S
GR
GS
0.149 GC
2 setlinecap
10.0 ML
N
75 207.983 M
79.46 207.983 L
S
GR
GS
0.149 GC
2 setlinecap
10.0 ML
N
75 119.991 M
79.46 119.991 L
S
GR
GS
0.149 GC
2 setlinecap
10.0 ML
N
75 32 M
79.46 32 L
S
GR
GS
0.149 GC
2 setlinecap
10.0 ML
N
521 383.966 M
516.54 383.966 L
S
GR
GS
0.149 GC
2 setlinecap
10.0 ML
N
521 295.974 M
516.54 295.974 L
S
GR
GS
0.149 GC
2 setlinecap
10.0 ML
N
521 207.983 M
516.54 207.983 L
S
GR
GS
0.149 GC
2 setlinecap
10.0 ML
N
521 119.991 M
516.54 119.991 L
S
GR
GS
0.149 GC
2 setlinecap
10.0 ML
N
521 32 M
516.54 32 L
S
GR
GS
[1 0 0 1 69.2 383.96597] CT
0.149 GC
/Helvetica 19 F
GS
[1 0 0 1 0 0] CT
-11 5 moveto 
1 -1 scale
(0) t 
GR
GR
GS
[1 0 0 1 69.2 295.97449] CT
0.149 GC
/Helvetica 19 F
GS
[1 0 0 1 0 0] CT
-37 5 moveto 
1 -1 scale
(0.05) t 
GR
GR
GS
[1 0 0 1 69.2 207.98299] CT
0.149 GC
/Helvetica 19 F
GS
[1 0 0 1 0 0] CT
-27 5 moveto 
1 -1 scale
(0.1) t 
GR
GR
GS
[1 0 0 1 69.2 119.99148] CT
0.149 GC
/Helvetica 19 F
GS
[1 0 0 1 0 0] CT
-37 5 moveto 
1 -1 scale
(0.15) t 
GR
GR
GS
[1 0 0 1 69.2 31.99999] CT
0.149 GC
/Helvetica 19 F
GS
[1 0 0 1 0 0] CT
-27 5 moveto 
1 -1 scale
(0.2) t 
GR
GR
GS
1 0 0 RC
2 LJ
1.3 LW
N
75 383.998 M
75.894 383.94 L
76.788 383.883 L
77.681 383.842 L
78.575 383.819 L
79.469 383.796 L
80.363 383.751 L
81.257 383.707 L
82.15 383.666 L
83.044 383.63 L
83.938 383.594 L
84.832 383.557 L
85.725 383.52 L
86.619 383.478 L
87.513 383.432 L
88.407 383.387 L
89.301 383.352 L
90.194 383.317 L
91.088 383.273 L
91.982 383.22 L
92.876 383.167 L
93.77 383.13 L
94.663 383.094 L
95.557 383.045 L
96.451 382.987 L
97.345 382.929 L
98.238 382.887 L
99.132 382.844 L
100.026 382.79 L
100.92 382.728 L
101.814 382.667 L
102.707 382.615 L
103.601 382.563 L
104.495 382.504 L
105.389 382.439 L
106.283 382.374 L
107.176 382.311 L
108.07 382.247 L
108.964 382.181 L
109.858 382.113 L
110.752 382.045 L
111.645 381.969 L
112.539 381.892 L
113.433 381.819 L
114.327 381.746 L
115.22 381.672 L
116.114 381.583 L
117.008 381.494 L
117.902 381.411 L
118.796 381.331 L
S
GR
GS
1 0 0 RC
2 LJ
1.3 LW
N
118.796 381.331 M
119.689 381.249 L
120.583 381.148 L
121.477 381.047 L
122.371 380.95 L
123.265 380.857 L
124.158 380.762 L
125.052 380.65 L
125.946 380.538 L
126.84 380.423 L
127.733 380.308 L
128.627 380.191 L
129.521 380.068 L
130.415 379.945 L
131.309 379.803 L
132.202 379.649 L
133.096 379.488 L
133.99 379.278 L
134.884 379.067 L
135.778 378.793 L
136.671 378.482 L
137.565 378.168 L
138.459 377.84 L
139.353 377.511 L
140.246 377.17 L
141.14 376.822 L
142.034 376.465 L
142.928 376.064 L
143.822 375.662 L
144.715 375.272 L
145.609 374.889 L
146.503 374.493 L
147.397 374.029 L
148.291 373.565 L
149.184 373.117 L
150.078 372.677 L
150.972 372.222 L
151.866 371.688 L
152.76 371.154 L
153.653 370.626 L
154.547 370.101 L
155.441 369.558 L
156.335 368.94 L
157.228 368.322 L
158.122 367.688 L
159.016 367.046 L
159.91 366.39 L
160.804 365.671 L
161.697 364.952 L
162.591 364.19 L
S
GR
GS
1 0 0 RC
2 LJ
1.3 LW
N
162.591 364.19 M
163.485 363.41 L
164.379 362.618 L
165.273 361.784 L
166.166 360.949 L
167.06 360.042 L
167.954 359.106 L
168.848 358.163 L
169.741 357.198 L
170.635 356.232 L
171.529 355.168 L
172.423 354.065 L
173.317 352.96 L
174.21 351.844 L
175.104 350.728 L
175.998 349.495 L
176.892 348.217 L
177.786 346.935 L
178.679 345.638 L
179.573 344.341 L
180.467 342.919 L
181.361 341.453 L
182.255 339.971 L
183.148 338.44 L
184.042 336.909 L
184.936 335.265 L
185.83 333.583 L
186.723 331.858 L
187.617 330.005 L
188.511 328.151 L
189.405 326.224 L
190.299 324.273 L
191.192 322.227 L
192.086 319.91 L
192.98 317.593 L
193.874 315.278 L
194.768 312.964 L
195.661 310.977 L
196.555 309.876 L
197.449 308.776 L
198.343 307.723 L
199.236 306.682 L
200.13 305.525 L
201.024 304.066 L
201.918 302.607 L
202.812 301.194 L
203.705 299.794 L
204.599 298.32 L
205.493 296.667 L
206.387 295.013 L
S
GR
GS
1 0 0 RC
2 LJ
1.3 LW
N
206.387 295.013 M
207.281 293.402 L
208.174 291.801 L
209.068 290.151 L
209.962 288.387 L
210.856 286.624 L
211.749 284.892 L
212.643 283.168 L
213.537 281.404 L
214.431 279.551 L
215.325 277.698 L
216.218 275.862 L
217.112 274.03 L
218.006 272.155 L
218.9 270.188 L
219.794 268.221 L
220.687 266.254 L
221.581 264.286 L
222.475 262.264 L
223.369 260.132 L
224.263 258.001 L
225.156 255.851 L
226.05 253.698 L
226.944 251.478 L
227.838 249.127 L
228.731 246.777 L
229.625 244.396 L
230.519 242.009 L
231.413 239.545 L
232.307 236.94 L
233.2 234.335 L
234.094 231.697 L
234.988 229.054 L
235.882 226.335 L
236.776 223.483 L
237.669 220.63 L
238.563 217.747 L
239.457 214.859 L
240.351 211.888 L
241.244 208.777 L
242.138 205.665 L
243.032 202.529 L
243.926 199.388 L
244.82 196.173 L
245.713 192.834 L
246.607 189.495 L
247.501 186.151 L
248.395 182.806 L
249.289 179.404 L
250.182 175.913 L
S
GR
GS
1 0 0 RC
2 LJ
1.3 LW
N
250.182 175.913 M
251.076 172.423 L
251.97 168.957 L
252.864 165.494 L
253.758 162.001 L
254.651 158.462 L
255.545 154.924 L
256.439 151.446 L
257.333 147.974 L
258.226 144.504 L
259.12 141.036 L
260.014 137.568 L
260.908 134.196 L
261.802 130.833 L
262.695 127.503 L
263.589 124.219 L
264.483 120.936 L
265.377 117.779 L
266.271 114.632 L
267.164 111.546 L
268.058 108.541 L
268.952 105.536 L
269.846 102.677 L
270.739 99.828 L
271.633 97.057 L
272.527 94.383 L
273.421 91.71 L
274.315 89.202 L
275.208 86.703 L
276.102 84.313 L
276.996 82.053 L
277.89 79.793 L
278.784 77.717 L
279.677 75.65 L
280.571 73.708 L
281.465 71.913 L
282.359 70.118 L
283.253 68.513 L
284.146 66.916 L
285.04 65.454 L
285.934 64.144 L
286.828 62.834 L
287.721 61.715 L
288.615 60.601 L
289.509 59.627 L
290.403 58.806 L
291.297 57.985 L
292.19 57.352 L
293.084 56.723 L
293.978 56.238 L
S
GR
GS
1 0 0 RC
2 LJ
1.3 LW
N
293.978 56.238 M
294.872 55.901 L
295.766 55.565 L
296.659 55.418 L
297.553 55.272 L
298.447 55.272 L
299.341 55.418 L
300.234 55.565 L
301.128 55.901 L
302.022 56.238 L
302.916 56.723 L
303.81 57.352 L
304.703 57.985 L
305.597 58.806 L
306.491 59.627 L
307.385 60.601 L
308.279 61.715 L
309.172 62.834 L
310.066 64.144 L
310.96 65.454 L
311.854 66.916 L
312.747 68.513 L
313.641 70.118 L
314.535 71.913 L
315.429 73.708 L
316.323 75.65 L
317.216 77.717 L
318.11 79.793 L
319.004 82.053 L
319.898 84.313 L
320.792 86.703 L
321.685 89.202 L
322.579 91.71 L
323.473 94.383 L
324.367 97.057 L
325.261 99.828 L
326.154 102.677 L
327.048 105.536 L
327.942 108.541 L
328.836 111.546 L
329.729 114.632 L
330.623 117.779 L
331.517 120.936 L
332.411 124.219 L
333.305 127.503 L
334.198 130.833 L
335.092 134.196 L
335.986 137.568 L
336.88 141.036 L
337.774 144.504 L
S
GR
GS
1 0 0 RC
2 LJ
1.3 LW
N
337.774 144.504 M
338.667 147.974 L
339.561 151.446 L
340.455 154.924 L
341.349 158.462 L
342.242 162.001 L
343.136 165.494 L
344.03 168.957 L
344.924 172.423 L
345.818 175.913 L
346.711 179.404 L
347.605 182.806 L
348.499 186.151 L
349.393 189.495 L
350.287 192.834 L
351.18 196.173 L
352.074 199.388 L
352.968 202.529 L
353.862 205.665 L
354.755 208.777 L
355.649 211.888 L
356.543 214.859 L
357.437 217.747 L
358.331 220.63 L
359.224 223.483 L
360.118 226.335 L
361.012 229.054 L
361.906 231.697 L
362.8 234.335 L
363.693 236.94 L
364.587 239.545 L
365.481 242.009 L
366.375 244.396 L
367.269 246.777 L
368.162 249.127 L
369.056 251.478 L
369.95 253.698 L
370.844 255.851 L
371.737 258.001 L
372.631 260.132 L
373.525 262.264 L
374.419 264.286 L
375.313 266.254 L
376.206 268.221 L
377.1 270.188 L
377.994 272.155 L
378.888 274.03 L
379.782 275.862 L
380.675 277.698 L
381.569 279.551 L
S
GR
GS
1 0 0 RC
2 LJ
1.3 LW
N
381.569 279.551 M
382.463 281.404 L
383.357 283.168 L
384.251 284.892 L
385.144 286.624 L
386.038 288.387 L
386.932 290.151 L
387.826 291.801 L
388.719 293.402 L
389.613 295.013 L
390.507 296.667 L
391.401 298.32 L
392.295 299.794 L
393.188 301.194 L
394.082 302.607 L
394.976 304.066 L
395.87 305.525 L
396.764 306.682 L
397.657 307.723 L
398.551 308.776 L
399.445 309.876 L
400.339 310.977 L
401.232 312.964 L
402.126 315.278 L
403.02 317.593 L
403.914 319.91 L
404.808 322.227 L
405.701 324.273 L
406.595 326.224 L
407.489 328.151 L
408.383 330.005 L
409.277 331.858 L
410.17 333.583 L
411.064 335.265 L
411.958 336.909 L
412.852 338.44 L
413.745 339.971 L
414.639 341.453 L
415.533 342.919 L
416.427 344.341 L
417.321 345.638 L
418.214 346.935 L
419.108 348.217 L
420.002 349.495 L
420.896 350.728 L
421.79 351.844 L
422.683 352.96 L
423.577 354.065 L
424.471 355.168 L
425.365 356.232 L
S
GR
GS
1 0 0 RC
2 LJ
1.3 LW
N
425.365 356.232 M
426.259 357.198 L
427.152 358.163 L
428.046 359.106 L
428.94 360.042 L
429.834 360.949 L
430.727 361.784 L
431.621 362.618 L
432.515 363.41 L
433.409 364.19 L
434.303 364.952 L
435.196 365.671 L
436.09 366.39 L
436.984 367.046 L
437.878 367.688 L
438.772 368.322 L
439.665 368.94 L
440.559 369.558 L
441.453 370.101 L
442.347 370.626 L
443.24 371.154 L
444.134 371.688 L
445.028 372.222 L
445.922 372.677 L
446.816 373.117 L
447.709 373.565 L
448.603 374.029 L
449.497 374.493 L
450.391 374.889 L
451.285 375.272 L
452.178 375.662 L
453.072 376.064 L
453.966 376.465 L
454.86 376.822 L
455.754 377.17 L
456.647 377.511 L
457.541 377.84 L
458.435 378.168 L
459.329 378.482 L
460.222 378.793 L
461.116 379.067 L
462.01 379.278 L
462.904 379.488 L
463.798 379.649 L
464.691 379.803 L
465.585 379.945 L
466.479 380.068 L
467.373 380.191 L
468.267 380.308 L
469.16 380.423 L
S
GR
GS
1 0 0 RC
2 LJ
1.3 LW
N
469.16 380.423 M
470.054 380.538 L
470.948 380.65 L
471.842 380.762 L
472.735 380.857 L
473.629 380.95 L
474.523 381.047 L
475.417 381.148 L
476.311 381.249 L
477.204 381.331 L
478.098 381.411 L
478.992 381.494 L
479.886 381.583 L
480.78 381.672 L
481.673 381.746 L
482.567 381.819 L
483.461 381.892 L
484.355 381.969 L
485.249 382.045 L
486.142 382.113 L
487.036 382.181 L
487.93 382.247 L
488.824 382.311 L
489.717 382.374 L
490.611 382.439 L
491.505 382.504 L
492.399 382.563 L
493.293 382.615 L
494.186 382.667 L
495.08 382.728 L
495.974 382.79 L
496.868 382.844 L
497.762 382.887 L
498.655 382.929 L
499.549 382.987 L
500.443 383.045 L
501.337 383.094 L
502.23 383.13 L
503.124 383.167 L
504.018 383.22 L
504.912 383.273 L
505.806 383.317 L
506.699 383.352 L
507.593 383.387 L
508.487 383.432 L
509.381 383.478 L
510.275 383.52 L
511.168 383.557 L
512.062 383.594 L
512.956 383.63 L
S
GR
GS
1 0 0 RC
2 LJ
1.3 LW
N
512.956 383.63 M
513.85 383.666 L
514.743 383.707 L
515.637 383.751 L
516.531 383.796 L
517.425 383.819 L
518.319 383.842 L
519.212 383.883 L
520.106 383.94 L
521 383.998 L
S
GR
GS
0 0 1 RC
[8 3 2 3] 0 setdash
2 LJ
1.3 LW
N
75 383.999 M
75.894 383.933 L
76.788 383.877 L
77.681 383.838 L
78.575 383.804 L
79.469 383.767 L
80.363 383.727 L
81.257 383.684 L
82.15 383.641 L
83.044 383.599 L
83.938 383.556 L
84.832 383.513 L
85.725 383.469 L
86.619 383.425 L
87.513 383.38 L
88.407 383.334 L
89.301 383.287 L
90.194 383.24 L
91.088 383.191 L
91.982 383.141 L
92.876 383.091 L
93.77 383.039 L
94.663 382.986 L
95.557 382.931 L
96.451 382.876 L
97.345 382.818 L
98.238 382.759 L
99.132 382.699 L
100.026 382.636 L
100.92 382.572 L
101.814 382.506 L
102.707 382.438 L
103.601 382.367 L
104.495 382.294 L
105.389 382.218 L
106.283 382.14 L
107.176 382.059 L
108.07 381.975 L
108.964 381.888 L
109.858 381.798 L
110.752 381.704 L
111.645 381.607 L
112.539 381.505 L
113.433 381.4 L
114.327 381.29 L
115.22 381.176 L
116.114 381.057 L
117.008 380.934 L
117.902 380.805 L
118.796 380.67 L
119.689 380.53 L
120.583 380.384 L
121.477 380.232 L
122.371 380.073 L
123.265 379.907 L
124.158 379.735 L
125.052 379.554 L
125.946 379.367 L
126.84 379.171 L
127.733 378.967 L
128.627 378.754 L
129.521 378.533 L
130.415 378.302 L
131.309 378.061 L
132.202 377.81 L
133.096 377.549 L
133.99 377.277 L
134.884 376.994 L
135.778 376.7 L
136.671 376.393 L
137.565 376.075 L
138.459 375.744 L
139.353 375.4 L
140.246 375.043 L
141.14 374.672 L
142.034 374.287 L
142.928 373.888 L
143.822 373.473 L
144.715 373.044 L
145.609 372.598 L
146.503 372.136 L
147.397 371.658 L
148.291 371.163 L
149.184 370.651 L
150.078 370.121 L
150.972 369.573 L
151.866 369.006 L
152.76 368.42 L
153.653 367.815 L
154.547 367.19 L
155.441 366.545 L
156.335 365.88 L
157.228 365.194 L
158.122 364.487 L
159.016 363.759 L
159.91 363.009 L
160.804 362.238 L
161.697 361.444 L
162.591 360.627 L
163.485 359.788 L
164.379 358.926 L
165.273 358.041 L
166.166 357.132 L
167.06 356.2 L
167.954 355.244 L
168.848 354.266 L
169.741 353.263 L
170.635 352.237 L
171.529 351.187 L
172.423 350.113 L
173.317 349.016 L
174.21 347.895 L
175.104 346.75 L
175.998 345.582 L
176.892 344.392 L
177.786 343.18 L
178.679 341.945 L
179.573 340.687 L
180.467 339.408 L
181.361 338.108 L
182.255 336.786 L
183.148 335.444 L
184.042 334.082 L
184.936 332.701 L
185.83 331.3 L
186.723 329.88 L
187.617 328.44 L
188.511 326.982 L
189.405 325.506 L
190.299 324.011 L
191.192 322.499 L
192.086 320.97 L
192.98 319.425 L
193.874 317.863 L
194.768 316.284 L
195.661 314.689 L
196.555 313.078 L
197.449 311.45 L
198.343 309.807 L
199.236 308.148 L
200.13 306.473 L
201.024 304.78 L
201.918 303.071 L
202.812 301.343 L
203.705 299.598 L
204.599 297.835 L
205.493 296.056 L
206.387 294.258 L
207.281 292.441 L
208.174 290.606 L
209.068 288.75 L
209.962 286.874 L
210.856 284.979 L
211.749 283.062 L
212.643 281.124 L
213.537 279.163 L
214.431 277.179 L
215.325 275.172 L
216.218 273.139 L
217.112 271.082 L
218.006 268.998 L
218.9 266.887 L
219.794 264.749 L
220.687 262.582 L
221.581 260.386 L
222.475 258.161 L
223.369 255.907 L
224.263 253.623 L
225.156 251.307 L
226.05 248.96 L
226.944 246.581 L
227.838 244.169 L
228.731 241.725 L
229.625 239.248 L
230.519 236.739 L
231.413 234.196 L
232.307 231.621 L
233.2 229.014 L
234.094 226.374 L
234.988 223.701 L
235.882 220.998 L
236.776 218.263 L
237.669 215.498 L
238.563 212.703 L
239.457 209.879 L
240.351 207.028 L
241.244 204.151 L
242.138 201.249 L
243.032 198.322 L
243.926 195.374 L
244.82 192.404 L
245.713 189.415 L
246.607 186.41 L
247.501 183.389 L
248.395 180.355 L
249.289 177.309 L
250.182 174.255 L
251.076 171.194 L
251.97 168.13 L
252.864 165.063 L
253.758 161.998 L
254.651 158.936 L
255.545 155.88 L
256.439 152.834 L
257.333 149.799 L
258.226 146.779 L
259.12 143.776 L
260.014 140.794 L
260.908 137.836 L
261.802 134.903 L
262.695 131.999 L
263.589 129.127 L
264.483 126.291 L
265.377 123.492 L
266.271 120.733 L
267.164 118.018 L
268.058 115.349 L
268.952 112.729 L
269.846 110.16 L
270.739 107.645 L
271.633 105.186 L
272.527 102.787 L
273.421 100.449 L
274.315 98.174 L
275.208 95.966 L
276.102 93.825 L
276.996 91.754 L
277.89 89.756 L
278.784 87.831 L
279.677 85.982 L
280.571 84.21 L
281.465 82.517 L
282.359 80.904 L
283.253 79.373 L
284.146 77.926 L
285.04 76.563 L
285.934 75.285 L
286.828 74.094 L
287.721 72.991 L
288.615 71.976 L
289.509 71.05 L
290.403 70.214 L
291.297 69.469 L
292.19 68.816 L
293.084 68.254 L
293.978 67.784 L
294.872 67.407 L
295.766 67.123 L
296.659 66.933 L
297.553 66.835 L
298.447 66.831 L
299.341 66.92 L
300.234 67.102 L
301.128 67.378 L
302.022 67.747 L
302.916 68.209 L
303.81 68.764 L
304.703 69.41 L
305.597 70.148 L
306.491 70.978 L
307.385 71.898 L
308.279 72.907 L
309.172 74.006 L
310.066 75.194 L
310.96 76.468 L
311.854 77.829 L
312.747 79.274 L
313.641 80.804 L
314.535 82.417 L
315.429 84.11 L
316.323 85.883 L
317.216 87.735 L
318.11 89.663 L
319.004 91.666 L
319.898 93.742 L
320.792 95.889 L
321.685 98.105 L
322.579 100.387 L
323.473 102.734 L
324.367 105.143 L
325.261 107.612 L
326.154 110.139 L
327.048 112.72 L
327.942 115.354 L
328.836 118.037 L
329.729 120.767 L
330.623 123.541 L
331.517 126.357 L
332.411 129.21 L
333.305 132.099 L
334.198 135.021 L
335.092 137.972 L
335.986 140.949 L
336.88 143.95 L
337.774 146.972 L
338.667 150.011 L
339.561 153.065 L
340.455 156.13 L
341.349 159.205 L
342.242 162.285 L
343.136 165.369 L
344.03 168.453 L
344.924 171.535 L
345.818 174.612 L
346.711 177.683 L
347.605 180.744 L
348.499 183.793 L
349.393 186.827 L
350.287 189.846 L
351.18 192.846 L
352.074 195.827 L
352.968 198.787 L
353.862 201.722 L
354.755 204.633 L
355.649 207.517 L
356.543 210.375 L
357.437 213.203 L
358.331 216.001 L
359.224 218.769 L
360.118 221.505 L
361.012 224.21 L
361.906 226.882 L
362.8 229.522 L
363.693 232.128 L
364.587 234.7 L
365.481 237.239 L
366.375 239.745 L
367.269 242.218 L
368.162 244.657 L
369.056 247.063 L
369.95 249.436 L
370.844 251.776 L
371.737 254.084 L
372.631 256.36 L
373.525 258.605 L
374.419 260.82 L
375.313 263.006 L
376.206 265.164 L
377.1 267.295 L
377.994 269.398 L
378.888 271.474 L
379.782 273.525 L
380.675 275.549 L
381.569 277.548 L
382.463 279.523 L
383.357 281.474 L
384.251 283.405 L
385.144 285.314 L
386.038 287.204 L
386.932 289.073 L
387.826 290.923 L
388.719 292.753 L
389.613 294.565 L
390.507 296.359 L
391.401 298.134 L
392.295 299.892 L
393.188 301.634 L
394.082 303.36 L
394.976 305.07 L
395.87 306.764 L
396.764 308.442 L
397.657 310.103 L
398.551 311.749 L
399.445 313.378 L
400.339 314.991 L
401.232 316.588 L
402.126 318.168 L
403.02 319.731 L
403.914 321.277 L
404.808 322.806 L
405.701 324.317 L
406.595 325.811 L
407.489 327.287 L
408.383 328.745 L
409.277 330.185 L
410.17 331.606 L
411.064 333.008 L
411.958 334.39 L
412.852 335.751 L
413.745 337.093 L
414.639 338.413 L
415.533 339.711 L
416.427 340.988 L
417.321 342.242 L
418.214 343.474 L
419.108 344.683 L
420.002 345.869 L
420.896 347.033 L
421.79 348.173 L
422.683 349.291 L
423.577 350.385 L
424.471 351.456 L
425.365 352.504 L
426.259 353.528 L
427.152 354.528 L
428.046 355.504 L
428.94 356.457 L
429.834 357.386 L
430.727 358.292 L
431.621 359.175 L
432.515 360.035 L
433.409 360.871 L
434.303 361.686 L
435.196 362.478 L
436.09 363.247 L
436.984 363.995 L
437.878 364.721 L
438.772 365.426 L
439.665 366.109 L
440.559 366.772 L
441.453 367.414 L
442.347 368.036 L
443.24 368.639 L
444.134 369.222 L
445.028 369.786 L
445.922 370.332 L
446.816 370.86 L
447.709 371.37 L
448.603 371.863 L
449.497 372.338 L
450.391 372.797 L
451.285 373.24 L
452.178 373.666 L
453.072 374.078 L
453.966 374.474 L
454.86 374.856 L
455.754 375.223 L
456.647 375.577 L
457.541 375.916 L
458.435 376.243 L
459.329 376.557 L
460.222 376.859 L
461.116 377.149 L
462.01 377.427 L
462.904 377.693 L
463.798 377.949 L
464.691 378.195 L
465.585 378.43 L
466.479 378.656 L
467.373 378.872 L
468.267 379.079 L
469.16 379.277 L
470.054 379.467 L
470.948 379.65 L
471.842 379.824 L
472.735 379.991 L
473.629 380.151 L
474.523 380.304 L
475.417 380.451 L
476.311 380.592 L
477.204 380.727 L
478.098 380.857 L
478.992 380.981 L
479.886 381.1 L
480.78 381.215 L
481.673 381.324 L
482.567 381.43 L
483.461 381.531 L
484.355 381.629 L
485.249 381.722 L
486.142 381.813 L
487.036 381.899 L
487.93 381.983 L
488.824 382.064 L
489.717 382.142 L
490.611 382.218 L
491.505 382.291 L
492.399 382.361 L
493.293 382.43 L
494.186 382.496 L
495.08 382.56 L
495.974 382.623 L
496.868 382.684 L
497.762 382.743 L
498.655 382.8 L
499.549 382.856 L
500.443 382.911 L
501.337 382.964 L
502.23 383.017 L
503.124 383.068 L
504.018 383.118 L
504.912 383.167 L
505.806 383.215 L
506.699 383.262 L
507.593 383.308 L
508.487 383.354 L
509.381 383.399 L
510.275 383.443 L
511.168 383.486 L
512.062 383.53 L
512.956 383.572 L
513.85 383.615 L
514.743 383.657 L
515.637 383.698 L
516.531 383.737 L
517.425 383.775 L
518.319 383.813 L
519.212 383.854 L
520.106 383.906 L
521 383.999 L
S
GR
GS
[10 6] 0 setdash
2 LJ
1.3 LW
N
75 384 M
75.894 383.93 L
76.788 383.875 L
77.681 383.833 L
78.575 383.795 L
79.469 383.755 L
80.363 383.713 L
81.257 383.668 L
82.15 383.622 L
83.044 383.576 L
83.938 383.53 L
84.832 383.484 L
85.725 383.436 L
86.619 383.388 L
87.513 383.339 L
88.407 383.288 L
89.301 383.237 L
90.194 383.185 L
91.088 383.131 L
91.982 383.076 L
92.876 383.019 L
93.77 382.962 L
94.663 382.902 L
95.557 382.841 L
96.451 382.778 L
97.345 382.714 L
98.238 382.647 L
99.132 382.578 L
100.026 382.507 L
100.92 382.434 L
101.814 382.358 L
102.707 382.28 L
103.601 382.199 L
104.495 382.115 L
105.389 382.028 L
106.283 381.938 L
107.176 381.845 L
108.07 381.748 L
108.964 381.647 L
109.858 381.543 L
110.752 381.435 L
111.645 381.322 L
112.539 381.205 L
113.433 381.083 L
114.327 380.957 L
115.22 380.825 L
116.114 380.688 L
117.008 380.546 L
117.902 380.397 L
118.796 380.243 L
119.689 380.083 L
120.583 379.916 L
121.477 379.743 L
122.371 379.563 L
123.265 379.375 L
124.158 379.18 L
125.052 378.977 L
125.946 378.766 L
126.84 378.547 L
127.733 378.319 L
128.627 378.081 L
129.521 377.835 L
130.415 377.579 L
131.309 377.312 L
132.202 377.035 L
133.096 376.747 L
133.99 376.448 L
134.884 376.137 L
135.778 375.815 L
136.671 375.48 L
137.565 375.133 L
138.459 374.773 L
139.353 374.401 L
140.246 374.015 L
141.14 373.616 L
142.034 373.203 L
142.928 372.776 L
143.822 372.335 L
144.715 371.878 L
145.609 371.406 L
146.503 370.919 L
147.397 370.416 L
148.291 369.896 L
149.184 369.36 L
150.078 368.807 L
150.972 368.237 L
151.866 367.649 L
152.76 367.043 L
153.653 366.419 L
154.547 365.777 L
155.441 365.116 L
156.335 364.437 L
157.228 363.738 L
158.122 363.02 L
159.016 362.282 L
159.91 361.524 L
160.804 360.746 L
161.697 359.947 L
162.591 359.129 L
163.485 358.289 L
164.379 357.429 L
165.273 356.548 L
166.166 355.645 L
167.06 354.721 L
167.954 353.776 L
168.848 352.81 L
169.741 351.823 L
170.635 350.815 L
171.529 349.785 L
172.423 348.734 L
173.317 347.662 L
174.21 346.568 L
175.104 345.454 L
175.998 344.318 L
176.892 343.162 L
177.786 341.984 L
178.679 340.787 L
179.573 339.568 L
180.467 338.329 L
181.361 337.069 L
182.255 335.788 L
183.148 334.486 L
184.042 333.163 L
184.936 331.82 L
185.83 330.458 L
186.723 329.076 L
187.617 327.674 L
188.511 326.252 L
189.405 324.809 L
190.299 323.347 L
191.192 321.864 L
192.086 320.361 L
192.98 318.838 L
193.874 317.296 L
194.768 315.733 L
195.661 314.151 L
196.555 312.549 L
197.449 310.927 L
198.343 309.285 L
199.236 307.623 L
200.13 305.941 L
201.024 304.239 L
201.918 302.517 L
202.812 300.775 L
203.705 299.012 L
204.599 297.228 L
205.493 295.423 L
206.387 293.597 L
207.281 291.748 L
208.174 289.878 L
209.068 287.985 L
209.962 286.069 L
210.856 284.13 L
211.749 282.168 L
212.643 280.183 L
213.537 278.174 L
214.431 276.141 L
215.325 274.083 L
216.218 272 L
217.112 269.891 L
218.006 267.755 L
218.9 265.594 L
219.794 263.407 L
220.687 261.193 L
221.581 258.951 L
222.475 256.683 L
223.369 254.387 L
224.263 252.064 L
225.156 249.712 L
226.05 247.333 L
226.944 244.927 L
227.838 242.493 L
228.731 240.033 L
229.625 237.545 L
230.519 235.031 L
231.413 232.49 L
232.307 229.922 L
233.2 227.328 L
234.094 224.708 L
234.988 222.063 L
235.882 219.394 L
236.776 216.7 L
237.669 213.983 L
238.563 211.243 L
239.457 208.482 L
240.351 205.701 L
241.244 202.901 L
242.138 200.082 L
243.032 197.247 L
243.926 194.396 L
244.82 191.532 L
245.713 188.656 L
246.607 185.769 L
247.501 182.873 L
248.395 179.97 L
249.289 177.062 L
250.182 174.151 L
251.076 171.238 L
251.97 168.325 L
252.864 165.416 L
253.758 162.511 L
254.651 159.613 L
255.545 156.724 L
256.439 153.847 L
257.333 150.984 L
258.226 148.137 L
259.12 145.309 L
260.014 142.502 L
260.908 139.719 L
261.802 136.962 L
262.695 134.234 L
263.589 131.536 L
264.483 128.872 L
265.377 126.243 L
266.271 123.653 L
267.164 121.103 L
268.058 118.597 L
268.952 116.136 L
269.846 113.724 L
270.739 111.361 L
271.633 109.051 L
272.527 106.795 L
273.421 104.596 L
274.315 102.456 L
275.208 100.377 L
276.102 98.361 L
276.996 96.41 L
277.89 94.525 L
278.784 92.709 L
279.677 90.963 L
280.571 89.289 L
281.465 87.688 L
282.359 86.163 L
283.253 84.714 L
284.146 83.342 L
285.04 82.05 L
285.934 80.838 L
286.828 79.708 L
287.721 78.66 L
288.615 77.695 L
289.509 76.815 L
290.403 76.02 L
291.297 75.311 L
292.19 74.688 L
293.084 74.153 L
293.978 73.705 L
294.872 73.345 L
295.766 73.074 L
296.659 72.892 L
297.553 72.798 L
298.447 72.793 L
299.341 72.878 L
300.234 73.051 L
301.128 73.313 L
302.022 73.664 L
302.916 74.103 L
303.81 74.63 L
304.703 75.245 L
305.597 75.947 L
306.491 76.735 L
307.385 77.609 L
308.279 78.569 L
309.172 79.612 L
310.066 80.739 L
310.96 81.947 L
311.854 83.238 L
312.747 84.608 L
313.641 86.056 L
314.535 87.583 L
315.429 89.185 L
316.323 90.862 L
317.216 92.611 L
318.11 94.433 L
319.004 96.323 L
319.898 98.282 L
320.792 100.306 L
321.685 102.395 L
322.579 104.545 L
323.473 106.756 L
324.367 109.024 L
325.261 111.348 L
326.154 113.725 L
327.048 116.154 L
327.942 118.631 L
328.836 121.155 L
329.729 123.722 L
330.623 126.331 L
331.517 128.98 L
332.411 131.665 L
333.305 134.384 L
334.198 137.134 L
335.092 139.914 L
335.986 142.72 L
336.88 145.55 L
337.774 148.401 L
338.667 151.272 L
339.561 154.158 L
340.455 157.059 L
341.349 159.971 L
342.242 162.892 L
343.136 165.821 L
344.03 168.753 L
344.924 171.687 L
345.818 174.622 L
346.711 177.555 L
347.605 180.483 L
348.499 183.406 L
349.393 186.32 L
350.287 189.225 L
351.18 192.119 L
352.074 194.999 L
352.968 197.864 L
353.862 200.713 L
354.755 203.544 L
355.649 206.357 L
356.543 209.149 L
357.437 211.92 L
358.331 214.668 L
359.224 217.393 L
360.118 220.093 L
361.012 222.769 L
361.906 225.419 L
362.8 228.043 L
363.693 230.64 L
364.587 233.21 L
365.481 235.752 L
366.375 238.266 L
367.269 240.753 L
368.162 243.212 L
369.056 245.642 L
369.95 248.044 L
370.844 250.418 L
371.737 252.763 L
372.631 255.079 L
373.525 257.368 L
374.419 259.63 L
375.313 261.864 L
376.206 264.072 L
377.1 266.253 L
377.994 268.406 L
378.888 270.533 L
379.782 272.635 L
380.675 274.711 L
381.569 276.761 L
382.463 278.787 L
383.357 280.788 L
384.251 282.765 L
385.144 284.718 L
386.038 286.649 L
386.932 288.557 L
387.826 290.441 L
388.719 292.304 L
389.613 294.146 L
390.507 295.965 L
391.401 297.764 L
392.295 299.542 L
393.188 301.299 L
394.082 303.036 L
394.976 304.752 L
395.87 306.448 L
396.764 308.123 L
397.657 309.78 L
398.551 311.416 L
399.445 313.033 L
400.339 314.63 L
401.232 316.207 L
402.126 317.765 L
403.02 319.304 L
403.914 320.823 L
404.808 322.324 L
405.701 323.805 L
406.595 325.266 L
407.489 326.708 L
408.383 328.129 L
409.277 329.531 L
410.17 330.913 L
411.064 332.275 L
411.958 333.618 L
412.852 334.94 L
413.745 336.241 L
414.639 337.521 L
415.533 338.78 L
416.427 340.017 L
417.321 341.234 L
418.214 342.43 L
419.108 343.605 L
420.002 344.758 L
420.896 345.89 L
421.79 347.001 L
422.683 348.09 L
423.577 349.159 L
424.471 350.207 L
425.365 351.232 L
426.259 352.237 L
427.152 353.22 L
428.046 354.182 L
428.94 355.122 L
429.834 356.042 L
430.727 356.941 L
431.621 357.819 L
432.515 358.676 L
433.409 359.511 L
434.303 360.326 L
435.196 361.121 L
436.09 361.896 L
436.984 362.65 L
437.878 363.384 L
438.772 364.099 L
439.665 364.795 L
440.559 365.471 L
441.453 366.128 L
442.347 366.766 L
443.24 367.386 L
444.134 367.988 L
445.028 368.571 L
445.922 369.137 L
446.816 369.685 L
447.709 370.217 L
448.603 370.731 L
449.497 371.229 L
450.391 371.711 L
451.285 372.177 L
452.178 372.628 L
453.072 373.064 L
453.966 373.485 L
454.86 373.892 L
455.754 374.285 L
456.647 374.665 L
457.541 375.031 L
458.435 375.385 L
459.329 375.725 L
460.222 376.053 L
461.116 376.369 L
462.01 376.672 L
462.904 376.964 L
463.798 377.244 L
464.691 377.514 L
465.585 377.773 L
466.479 378.022 L
467.373 378.261 L
468.267 378.491 L
469.16 378.712 L
470.054 378.924 L
470.948 379.128 L
471.842 379.324 L
472.735 379.512 L
473.629 379.692 L
474.523 379.865 L
475.417 380.032 L
476.311 380.192 L
477.204 380.345 L
478.098 380.493 L
478.992 380.635 L
479.886 380.771 L
480.78 380.902 L
481.673 381.028 L
482.567 381.149 L
483.461 381.265 L
484.355 381.377 L
485.249 381.484 L
486.142 381.588 L
487.036 381.687 L
487.93 381.783 L
488.824 381.876 L
489.717 381.965 L
490.611 382.051 L
491.505 382.134 L
492.399 382.214 L
493.293 382.291 L
494.186 382.366 L
495.08 382.438 L
495.974 382.508 L
496.868 382.576 L
497.762 382.642 L
498.655 382.706 L
499.549 382.768 L
500.443 382.828 L
501.337 382.887 L
502.23 382.944 L
503.124 383 L
504.018 383.055 L
504.912 383.108 L
505.806 383.16 L
506.699 383.21 L
507.593 383.26 L
508.487 383.309 L
509.381 383.357 L
510.275 383.404 L
511.168 383.451 L
512.062 383.496 L
512.956 383.541 L
513.85 383.586 L
514.743 383.63 L
515.637 383.672 L
516.531 383.714 L
517.425 383.755 L
518.319 383.796 L
519.212 383.84 L
520.106 383.892 L
521 384 L
S
GR
GS
1 GC
N
85 101 M
85 42 L
206 42 L
206 101 L
cp
f
GR
GS
[1 0 0 1 124 53] CT
/Helvetica 17 F
GS
[1 0 0 1 0 0] CT
0 5 moveto 
1 -1 scale
(Mean) t 
GR
GR
GS
1 0 0 RC
2 setlinecap
10.0 ML
1.3 LW
N
91 53 M
121 53 L
S
GR
GS
[1 0 0 1 124 71.5] CT
/Helvetica 17 F
GS
[1 0 0 1 0 0] CT
0 5 moveto 
1 -1 scale
(Var = 0.04) t 
GR
GR
GS
0 0 1 RC
[8 3 2 3] 0 setdash
2 LJ
1.3 LW
N
91 71.5 M
121 71.5 L
S
GR
GS
[1 0 0 1 124 90] CT
/Helvetica 17 F
GS
[1 0 0 1 0 0] CT
0 5 moveto 
1 -1 scale
(Var = 0.05) t 
GR
GR
GS
[10 6] 0 setdash
2 LJ
1.3 LW
N
91 90 M
121 90 L
S
GR
GS
0.149 GC
2 setlinecap
10.0 ML
N
85 101 M
85 42 L
206 42 L
206 101 L
85 101 L
S
GR
%%Trailer
%%BoundingBox: 8 0 526 409
%%Pages: 1
%%EOF
